TripBusStopKey,Frequency_ByTripBusStopKey,TimeStamp,Frequency_ByTimeStamp,FirstRouteID,SecondRouteId,Frequency_GroupedByRoutes,SecondStopId,Lat,Lon
1359_6059,1,1357473600000000,1,747,46,1,6059,53.35020734,-6.260245957
5045_4319,1,1357538400000000,1,46,747,1,4319,53.34676557,-6.292018441
2036_1935,1,1357549200000000,1,46,747,1,1935,53.34393435,-6.268326352
3665_192,1,1357498800000000,1,747,46,1,192,53.35644191,-6.268059634
803_6366,1,1357574400000000,1,46,140,1,6366,53.4026512,-6.301331065
7_2032,1,1357495200000000,1,140,46,1,2032,53.28948627,-6.144768187
1070_3665,1,1357578000000000,1,140,747,1,3665,53.42811351,-6.244123692
2036_1014,1,1357549200000000,1,46,140,1,1014,53.33567606,-6.257338722
274_2002,2,1357588800000000,1,140,747,1,2002,53.34377935,-6.269414006
274_2002,2,1357549200000000,1,46,747,1,2002,53.34377935,-6.269414006
274_6059,1,1357563600000000,1,46,140,1,6059,53.35020734,-6.260245957
846_403,1,1357585200000000,1,46,140,1,403,53.34271329,-6.256691284
4319_2039,1,1357470000000000,1,747,46,1,2039,53.2948314,-6.134785099
4348_6229,1,1357542000000000,1,76,140,1,6229,53.40205509,-6.298602582
274_4319,1,1357556400000000,1,46,747,1,4319,53.34676557,-6.292018441
4341_6366,1,1357542000000000,1,76,140,1,6366,53.4026512,-6.301331065
803_3665,1,1357578000000000,1,46,747,1,3665,53.42811351,-6.244123692
2041_2656,1,1357477200000000,1,46,76,1,2656,53.34262329,-6.358701097
2041_4319,2,1357567200000000,1,46,747,1,4319,53.34676557,-6.292018441
2041_4319,2,1357552800000000,1,46,747,1,4319,53.34676557,-6.292018441
2041_2655,1,1357495200000000,1,46,76,1,2655,53.34213795,-6.352832566
777_1071,1,1357570800000000,1,46,140,1,1071,53.32729186,-6.264856835
777_274,1,1357545600000000,1,46,140,1,274,53.35034843,-6.260675831
845_274,1,1357574400000000,1,46,140,1,274,53.35034843,-6.260675831
403_3665,2,1357578000000000,2,140,747,2,3665,53.42811351,-6.244123692
2039_4319,1,1357542000000000,1,46,747,1,4319,53.34676557,-6.292018441
2039_2656,1,1357473600000000,1,46,76,1,2656,53.34262329,-6.358701097
5016_4319,1,1357466400000000,1,46,747,1,4319,53.34676557,-6.292018441
274_2116,1,1357552800000000,1,46,76,1,2116,53.32825023,-6.396275889
2036_3665,2,1357556400000000,1,46,747,1,3665,53.42811351,-6.244123692
2036_3665,2,1357491600000000,1,46,747,1,3665,53.42811351,-6.244123692
6059_4724,1,1357491600000000,1,140,747,1,4724,53.35052019,-6.260743945
2673_6059,1,1357545600000000,1,76,140,1,6059,53.35020734,-6.260245957
274_4724,1,1357570800000000,1,46,747,1,4724,53.35052019,-6.260743945
4341_274,2,1357470000000000,2,76,140,2,274,53.35034843,-6.260675831
274_798,1,1357585200000000,1,140,46,1,798,53.35946765,-6.279641063
6059_4319,1,1357560000000000,1,140,747,1,4319,53.34676557,-6.292018441
2042_195,1,1357574400000000,1,46,140,1,195,53.35500171,-6.273496272
2_403,1,1357585200000000,1,46,140,1,403,53.34271329,-6.256691284
803_194,1,1357574400000000,1,46,140,1,194,53.35504043,-6.269964297
1359_2673,1,1357563600000000,1,747,76,1,2673,53.34378491,-6.37263903
6059_2655,1,1357549200000000,1,46,76,1,2655,53.34213795,-6.352832566
2655_2507,1,1357498800000000,1,76,747,1,2507,53.34820067,-6.227116958
274_803,1,1357560000000000,1,140,46,1,803,53.35471282,-6.2940292
2032_3665,1,1357578000000000,1,46,747,1,3665,53.42811351,-6.244123692
794_3665,4,1357578000000000,1,140,747,1,3665,53.42811351,-6.244123692
794_3665,4,1357473600000000,1,46,747,1,3665,53.42811351,-6.244123692
794_3665,4,1357498800000000,1,46,747,1,3665,53.42811351,-6.244123692
794_3665,4,1357560000000000,1,46,747,1,3665,53.42811351,-6.244123692
274_7,1,1357578000000000,1,46,140,1,7,53.35283171,-6.264555613
845_4319,1,1357570800000000,1,46,747,1,4319,53.34676557,-6.292018441
790_2114,1,1357567200000000,1,46,76,1,2114,53.32430297,-6.395493193
6366_3665,1,1357556400000000,1,140,747,1,3665,53.42811351,-6.244123692
2115_2032,1,1357552800000000,1,76,46,1,2032,53.28948627,-6.144768187
2039_6366,1,1357570800000000,1,46,140,1,6366,53.4026512,-6.301331065
798_4319,1,1357466400000000,1,46,747,1,4319,53.34676557,-6.292018441
4319_777,1,1357470000000000,1,747,46,1,777,53.32697194,-6.24361114
2672_3665,1,1357477200000000,1,76,747,1,3665,53.42811351,-6.244123692
2039_1070,1,1357542000000000,1,46,140,1,1070,53.32497098,-6.265341344
4341_4319,2,1357542000000000,1,76,747,1,4319,53.34676557,-6.292018441
4341_4319,2,1357470000000000,1,76,747,1,4319,53.34676557,-6.292018441
807_4319,1,1357552800000000,1,46,747,1,4319,53.34676557,-6.292018441
792_4319,1,1357495200000000,1,46,747,1,4319,53.34676557,-6.292018441
435_274,1,1357574400000000,1,46,140,1,274,53.35034843,-6.260675831
5016_2507,1,1357585200000000,1,46,747,1,2507,53.34820067,-6.227116958
801_2507,1,1357484400000000,1,46,747,1,2507,53.34820067,-6.227116958
2112_3665,1,1357552800000000,1,76,747,1,3665,53.42811351,-6.244123692
274_3665,4,1357578000000000,1,140,747,1,3665,53.42811351,-6.244123692
274_3665,4,1357473600000000,1,140,747,1,3665,53.42811351,-6.244123692
274_3665,4,1357560000000000,1,46,747,1,3665,53.42811351,-6.244123692
274_3665,4,1357470000000000,1,46,747,1,3665,53.42811351,-6.244123692
2655_3665,1,1357560000000000,1,76,747,1,3665,53.42811351,-6.244123692
3665_274,4,1357477200000000,1,747,46,1,274,53.35034843,-6.260675831
3665_274,4,1357480800000000,1,747,46,1,274,53.35034843,-6.260675831
3665_274,4,1357506000000000,1,747,140,1,274,53.35034843,-6.260675831
3665_274,4,1357560000000000,1,747,140,1,274,53.35034843,-6.260675831
845_403,1,1357560000000000,1,46,140,1,403,53.34271329,-6.256691284
794_792,1,1357574400000000,1,46,140,1,792,53.3420867,-6.258098549
794_274,1,1357466400000000,1,46,140,1,274,53.35034843,-6.260675831
1359_2041,1,1357491600000000,1,747,46,1,2041,53.29362525,-6.13927818
803_6059,1,1357563600000000,1,46,140,1,6059,53.35020734,-6.260245957
5045_6366,1,1357545600000000,1,116,140,1,6366,53.4026512,-6.301331065
803_4319,1,1357491600000000,1,46,747,1,4319,53.34676557,-6.292018441
403_4319,1,1357592400000000,1,140,747,1,4319,53.34676557,-6.292018441
7_274,1,1357473600000000,1,140,46,1,274,53.35034843,-6.260675831
846_3665,2,1357578000000000,1,46,747,1,3665,53.42811351,-6.244123692
846_3665,2,1357488000000000,1,46,747,1,3665,53.42811351,-6.244123692
4984_1935,1,1357491600000000,1,46,747,1,1935,53.34393435,-6.268326352
4319_792,1,1357466400000000,1,747,46,1,792,53.3420867,-6.258098549
2045_6059,1,1357574400000000,1,46,140,1,6059,53.35020734,-6.260245957
2114_274,1,1357574400000000,1,76,140,1,274,53.35034843,-6.260675831
7_4319,1,1357588800000000,1,140,747,1,4319,53.34676557,-6.292018441
6059_274,1,1357567200000000,1,46,140,1,274,53.35034843,-6.260675831
6059_3665,3,1357578000000000,1,46,747,1,3665,53.42811351,-6.244123692
6059_3665,3,1357588800000000,1,46,747,1,3665,53.42811351,-6.244123692
6059_3665,3,1357477200000000,1,46,747,1,3665,53.42811351,-6.244123692
803_274,1,1357549200000000,1,46,140,1,274,53.35034843,-6.260675831
2045_403,1,1357574400000000,1,46,140,1,403,53.34271329,-6.256691284
2_4528,1,1357545600000000,1,46,140,1,4528,53.32886058,-6.264567959
3665_2655,1,1357498800000000,1,747,76,1,2655,53.34213795,-6.352832566
2697_6059,1,1357556400000000,1,76,46,1,6059,53.35020734,-6.260245957
790_274,1,1357509600000000,1,46,140,1,274,53.35034843,-6.260675831
2059_1511,1,1357578000000000,1,46,140,1,1511,53.37823452,-6.287752985
845_3665,2,1357477200000000,1,46,747,1,3665,53.42811351,-6.244123692
845_3665,2,1357556400000000,1,46,747,1,3665,53.42811351,-6.244123692
6276_801,1,1357578000000000,1,140,46,1,801,53.3574613,-6.287624427
846_1071,1,1357585200000000,1,46,140,1,1071,53.32729186,-6.264856835
4319_845,1,1357495200000000,1,747,46,1,845,53.33545323,-6.256236611
2_3665,3,1357473600000000,1,46,747,1,3665,53.42811351,-6.244123692
2_3665,3,1357480800000000,1,46,747,1,3665,53.42811351,-6.244123692
2_3665,3,1357585200000000,1,46,747,1,3665,53.42811351,-6.244123692
2041_2672,1,1357488000000000,1,46,76,1,2672,53.34333076,-6.367685142
3665_6059,2,1357477200000000,1,747,46,1,6059,53.35020734,-6.260245957
3665_6059,2,1357556400000000,1,747,46,1,6059,53.35020734,-6.260245957
6059_1359,2,1357488000000000,1,46,747,1,1359,53.34439919,-6.26135358
6059_1359,2,1357574400000000,1,46,747,1,1359,53.34439919,-6.26135358
4319_4348,1,1357563600000000,1,747,76,1,4348,53.28666326,-6.375065763
786_6366,1,1357545600000000,1,46,140,1,6366,53.4026512,-6.301331065
4341_3665,1,1357556400000000,1,76,747,1,3665,53.42811351,-6.244123692
801_3665,4,1357588800000000,1,46,747,1,3665,53.42811351,-6.244123692
801_3665,4,1357556400000000,1,46,747,1,3665,53.42811351,-6.244123692
801_3665,4,1357560000000000,1,46,747,1,3665,53.42811351,-6.244123692
801_3665,4,1357585200000000,1,46,747,1,3665,53.42811351,-6.244123692
2018_3665,1,1357592400000000,1,46,747,1,3665,53.42811351,-6.244123692
802_4724,1,1357491600000000,1,46,747,1,4724,53.35052019,-6.260743945
792_3665,2,1357556400000000,1,46,747,1,3665,53.42811351,-6.244123692
792_3665,2,1357560000000000,1,140,747,1,3665,53.42811351,-6.244123692
2655_1070,1,1357574400000000,1,76,140,1,1070,53.32497098,-6.265341344
192_4319,1,1357567200000000,1,46,747,1,4319,53.34676557,-6.292018441
