TripBusStopKey,Frequency_ByTripBusStopKey,TimeStamp,Frequency_ByTimeStamp,FirstRouteID,SecondRouteId,Frequency_GroupedByRoutes,SecondStopId,Lat,Lon
1067_804,1,1357567200000000,1,140,46,1,804,53.35368477,-6.295677667
1023_3665,1,1357570800000000,1,140,747,1,3665,53.42811351,-6.244123692
384_7111,1,1357502400000000,1,46,140,1,7111,53.40199078,-6.291581697
3665_192,1,1357498800000000,1,747,46,1,192,53.35644191,-6.268059634
2017_3665,7,1357502400000000,1,46,747,1,3665,53.42811351,-6.244123692
2017_3665,7,1357556400000000,1,46,747,1,3665,53.42811351,-6.244123692
2017_3665,7,1357560000000000,1,46,747,1,3665,53.42811351,-6.244123692
2017_3665,7,1357585200000000,1,46,747,1,3665,53.42811351,-6.244123692
2017_3665,7,1357545600000000,2,46,747,2,3665,53.42811351,-6.244123692
2017_3665,7,1357549200000000,1,46,747,1,3665,53.42811351,-6.244123692
774_4319,2,1357549200000000,2,46,747,2,4319,53.34676557,-6.292018441
2655_6059,1,1357556400000000,1,76,46,1,6059,53.35020734,-6.260245957
4348_6229,1,1357542000000000,1,76,140,1,6229,53.40205509,-6.298602582
6059_7453,1,1357477200000000,1,140,747,1,7453,53.34633589,-6.278382504
1536_3665,1,1357560000000000,1,140,747,1,3665,53.42811351,-6.244123692
4341_6366,1,1357542000000000,1,76,140,1,6366,53.4026512,-6.301331065
3665_198,1,1357488000000000,1,747,140,1,198,53.36162538,-6.27283781
807_1531,1,1357560000000000,1,46,140,1,1531,53.38374345,-6.293349716
807_1536,1,1357484400000000,1,46,140,1,1536,53.36961683,-6.277263386
1280_4319,1,1357549200000000,1,140,747,1,4319,53.34676557,-6.292018441
2128_403,1,1357473600000000,1,76,140,1,403,53.34271329,-6.256691284
895_3665,1,1357545600000000,1,140,747,1,3665,53.42811351,-6.244123692
786_4409,1,1357570800000000,1,46,76,1,4409,53.32234699,-6.393074714
2655_198,1,1357574400000000,1,76,140,1,198,53.36162538,-6.27283781
2022_3665,1,1357480800000000,1,46,747,1,3665,53.42811351,-6.244123692
802_7216,1,1357495200000000,1,46,747,1,7216,53.34770816,-6.242428291
3665_186,2,1357578000000000,1,747,140,1,186,53.36534614,-6.271575323
3665_186,2,1357542000000000,1,747,140,1,186,53.36534614,-6.271575323
2345_3665,4,1357477200000000,1,76,747,1,3665,53.42811351,-6.244123692
2345_3665,4,1357556400000000,1,76,747,1,3665,53.42811351,-6.244123692
2345_3665,4,1357592400000000,1,76,747,1,3665,53.42811351,-6.244123692
2345_3665,4,1357491600000000,1,76,747,1,3665,53.42811351,-6.244123692
4319_352,1,1357549200000000,1,747,46,1,352,53.3429714,-6.242427889
337_4341,2,1357578000000000,2,46,76,2,4341,53.28564665,-6.372359628
4528_3665,1,1357542000000000,1,140,747,1,3665,53.42811351,-6.244123692
1015_2039,1,1357545600000000,1,140,46,1,2039,53.2948314,-6.134785099
7_3665,4,1357502400000000,1,140,747,1,3665,53.42811351,-6.244123692
7_3665,4,1357506000000000,1,140,747,1,3665,53.42811351,-6.244123692
7_3665,4,1357570800000000,2,140,747,2,3665,53.42811351,-6.244123692
786_4319,2,1357542000000000,1,46,747,1,4319,53.34676557,-6.292018441
786_4319,2,1357570800000000,1,46,747,1,4319,53.34676557,-6.292018441
3665_2068,1,1357466400000000,1,747,46,1,2068,53.29692261,-6.204262149
2114_3665,1,1357470000000000,1,76,747,1,3665,53.42811351,-6.244123692
2123_3665,2,1357560000000000,1,76,747,1,3665,53.42811351,-6.244123692
2123_3665,2,1357574400000000,1,76,747,1,3665,53.42811351,-6.244123692
4542_2039,1,1357542000000000,1,140,46,1,2039,53.2948314,-6.134785099
777_3665,2,1357542000000000,2,46,747,2,3665,53.42811351,-6.244123692
2115_4319,2,1357560000000000,1,76,747,1,4319,53.34676557,-6.292018441
2115_4319,2,1357545600000000,1,76,747,1,4319,53.34676557,-6.292018441
6059_5011,1,1357538400000000,1,46,76,1,5011,53.30247077,-6.376866295
1070_406,1,1357567200000000,1,140,46,1,406,53.34261622,-6.256199628
794_3665,15,1357578000000000,2,140,747,1,3665,53.42811351,-6.244123692
794_3665,15,1357578000000000,2,46,747,1,3665,53.42811351,-6.244123692
794_3665,15,1357473600000000,1,46,747,1,3665,53.42811351,-6.244123692
794_3665,15,1357538400000000,1,46,747,1,3665,53.42811351,-6.244123692
794_3665,15,1357567200000000,1,46,747,1,3665,53.42811351,-6.244123692
794_3665,15,1357552800000000,1,46,747,1,3665,53.42811351,-6.244123692
794_3665,15,1357480800000000,1,46,747,1,3665,53.42811351,-6.244123692
794_3665,15,1357502400000000,1,46,747,1,3665,53.42811351,-6.244123692
794_3665,15,1357563600000000,3,140,747,2,3665,53.42811351,-6.244123692
794_3665,15,1357563600000000,3,46,747,1,3665,53.42811351,-6.244123692
794_3665,15,1357498800000000,1,46,747,1,3665,53.42811351,-6.244123692
794_3665,15,1357556400000000,1,46,747,1,3665,53.42811351,-6.244123692
794_3665,15,1357560000000000,2,46,747,2,3665,53.42811351,-6.244123692
274_7,1,1357578000000000,1,46,140,1,7,53.35283171,-6.264555613
195_809,1,1357563600000000,1,140,46,1,809,53.35525154,-6.293361691
2035_7400,1,1357578000000000,1,46,747,1,7400,53.42674583,-6.239138862
2010_3665,8,1357578000000000,3,46,747,3,3665,53.42811351,-6.244123692
2010_3665,8,1357581600000000,1,46,747,1,3665,53.42811351,-6.244123692
2010_3665,8,1357585200000000,1,46,747,1,3665,53.42811351,-6.244123692
2010_3665,8,1357574400000000,3,46,747,3,3665,53.42811351,-6.244123692
2031_4543,1,1357473600000000,1,46,140,1,4543,53.386249,-6.296977908
807_198,1,1357560000000000,1,46,140,1,198,53.36162538,-6.27283781
801_4319,1,1357560000000000,1,46,747,1,4319,53.34676557,-6.292018441
2115_2032,1,1357552800000000,1,76,46,1,2032,53.28948627,-6.144768187
807_4717,1,1357542000000000,1,46,747,1,4717,53.3497254,-6.25248461
2039_6366,1,1357570800000000,1,46,140,1,6366,53.4026512,-6.301331065
192_3665,5,1357578000000000,1,46,747,1,3665,53.42811351,-6.244123692
192_3665,5,1357567200000000,1,46,747,1,3665,53.42811351,-6.244123692
192_3665,5,1357484400000000,1,46,747,1,3665,53.42811351,-6.244123692
192_3665,5,1357560000000000,1,46,747,1,3665,53.42811351,-6.244123692
192_3665,5,1357466400000000,1,46,747,1,3665,53.42811351,-6.244123692
2039_7216,1,1357556400000000,1,46,747,1,7216,53.34770816,-6.242428291
2039_6362,1,1357498800000000,1,46,140,1,6362,53.40649144,-6.289536242
809_7216,1,1357477200000000,1,46,747,1,7216,53.34770816,-6.242428291
807_1445,1,1357552800000000,1,46,747,1,1445,53.34567841,-6.27828884
809_6366,1,1357484400000000,1,46,140,1,6366,53.4026512,-6.301331065
4341_403,1,1357549200000000,1,76,140,1,403,53.34271329,-6.256691284
406_7,1,1357545600000000,1,46,140,1,7,53.35283171,-6.264555613
406_7398,1,1357495200000000,1,46,747,1,7398,53.3474992,-6.239838352
4341_406,1,1357542000000000,1,76,46,1,406,53.34261622,-6.256199628
1076_3665,8,1357588800000000,1,140,747,1,3665,53.42811351,-6.244123692
1076_3665,8,1357480800000000,1,140,747,1,3665,53.42811351,-6.244123692
1076_3665,8,1357495200000000,1,140,747,1,3665,53.42811351,-6.244123692
1076_3665,8,1357545600000000,1,140,747,1,3665,53.42811351,-6.244123692
1076_3665,8,1357574400000000,4,140,747,4,3665,53.42811351,-6.244123692
2087_3665,3,1357578000000000,1,46,747,1,3665,53.42811351,-6.244123692
2087_3665,3,1357596000000000,1,46,747,1,3665,53.42811351,-6.244123692
2087_3665,3,1357545600000000,1,46,747,1,3665,53.42811351,-6.244123692
813_3665,1,1357588800000000,1,46,747,1,3665,53.42811351,-6.244123692
453_7398,1,1357466400000000,1,46,747,1,7398,53.3474992,-6.239838352
6362_2007,1,1357498800000000,1,140,46,1,2007,53.30883844,-6.21606771
2039_794,1,1357570800000000,1,46,140,1,794,53.34354738,-6.260261816
4347_3665,1,1357506000000000,1,76,747,1,3665,53.42811351,-6.244123692
3665_6366,4,1357552800000000,1,747,140,1,6366,53.4026512,-6.301331065
3665_6366,4,1357495200000000,1,747,140,1,6366,53.4026512,-6.301331065
3665_6366,4,1357545600000000,1,747,140,1,6366,53.4026512,-6.301331065
3665_6366,4,1357574400000000,1,747,140,1,6366,53.4026512,-6.301331065
2036_6229,1,1357560000000000,1,46,140,1,6229,53.40205509,-6.298602582
1014_3665,4,1357567200000000,1,140,747,1,3665,53.42811351,-6.244123692
1014_3665,4,1357560000000000,1,140,747,1,3665,53.42811351,-6.244123692
1014_3665,4,1357570800000000,1,140,747,1,3665,53.42811351,-6.244123692
1014_3665,4,1357545600000000,1,140,747,1,3665,53.42811351,-6.244123692
3665_6364,1,1357581600000000,1,747,140,1,6364,53.40258254,-6.301559396
7400_2017,1,1357549200000000,1,747,46,1,2017,53.27418733,-6.175000804
1536_4319,1,1357552800000000,1,140,747,1,4319,53.34676557,-6.292018441
768_7398,1,1357549200000000,1,46,747,1,7398,53.3474992,-6.239838352
3665_274,6,1357578000000000,1,747,140,1,274,53.35034843,-6.260675831
3665_274,6,1357480800000000,1,747,46,1,274,53.35034843,-6.260675831
3665_274,6,1357542000000000,1,747,46,1,274,53.35034843,-6.260675831
3665_274,6,1357563600000000,1,747,140,1,274,53.35034843,-6.260675831
3665_274,6,1357484400000000,1,747,46,1,274,53.35034843,-6.260675831
3665_274,6,1357506000000000,1,747,140,1,274,53.35034843,-6.260675831
797_6059,1,1357574400000000,1,46,140,1,6059,53.35020734,-6.260245957
909_3665,1,1357578000000000,1,46,747,1,3665,53.42811351,-6.244123692
2021_1560,1,1357477200000000,1,46,140,1,1560,53.39700733,-6.304533352
4409_4724,1,1357495200000000,1,76,747,1,4724,53.35052019,-6.260743945
4646_3665,1,1357488000000000,1,76,747,1,3665,53.42811351,-6.244123692
794_792,1,1357574400000000,1,46,140,1,792,53.3420867,-6.258098549
7216_800,1,1357477200000000,1,747,46,1,800,53.35805595,-6.284595774
1076_2345,1,1357545600000000,1,140,76,1,2345,53.29366316,-6.369009589
1532_3665,3,1357477200000000,2,140,747,2,3665,53.42811351,-6.244123692
1532_3665,3,1357552800000000,1,140,747,1,3665,53.42811351,-6.244123692
1280_3665,1,1357552800000000,1,140,747,1,3665,53.42811351,-6.244123692
6074_3665,5,1357578000000000,1,140,747,1,3665,53.42811351,-6.244123692
6074_3665,5,1357563600000000,1,140,747,1,3665,53.42811351,-6.244123692
6074_3665,5,1357545600000000,2,140,747,2,3665,53.42811351,-6.244123692
6074_3665,5,1357549200000000,1,140,747,1,3665,53.42811351,-6.244123692
337_4319,1,1357578000000000,1,46,747,1,4319,53.34676557,-6.292018441
2123_186,1,1357552800000000,1,76,140,1,186,53.36534614,-6.271575323
803_6059,1,1357563600000000,1,46,140,1,6059,53.35020734,-6.260245957
5045_6366,1,1357545600000000,1,116,140,1,6366,53.4026512,-6.301331065
4566_4543,1,1357578000000000,1,46,140,1,4543,53.386249,-6.296977908
4565_1536,1,1357552800000000,1,46,140,1,1536,53.36961683,-6.277263386
6059_7400,1,1357574400000000,1,46,747,1,7400,53.42674583,-6.239138862
819_6059,1,1357581600000000,1,46,140,1,6059,53.35020734,-6.260245957
4319_792,2,1357477200000000,1,747,46,1,792,53.3420867,-6.258098549
4319_792,2,1357466400000000,1,747,46,1,792,53.3420867,-6.258098549
4528_4319,1,1357585200000000,1,140,747,1,4319,53.34676557,-6.292018441
7_4319,2,1357588800000000,1,140,747,1,4319,53.34676557,-6.292018441
7_4319,2,1357581600000000,1,140,747,1,4319,53.34676557,-6.292018441
4341_6032,1,1357556400000000,1,76,747,1,6032,53.35205932,-6.260275682
2007_6229,1,1357588800000000,1,46,140,1,6229,53.40205509,-6.298602582
3665_6219,1,1357592400000000,1,747,140,1,6219,53.39988635,-6.293380432
7216_807,1,1357466400000000,1,747,46,1,807,53.3515563,-6.297685373
1511_819,1,1357581600000000,1,140,46,1,819,53.35629482,-6.265977336
775_7400,1,1357549200000000,1,46,747,1,7400,53.42674583,-6.239138862
2018_4341,1,1357502400000000,1,46,76,1,4341,53.28564665,-6.372359628
801_4341,2,1357570800000000,1,46,76,1,4341,53.28564665,-6.372359628
801_4341,2,1357592400000000,1,46,76,1,4341,53.28564665,-6.372359628
3471_3665,1,1357488000000000,1,46,747,1,3665,53.42811351,-6.244123692
2039_403,1,1357570800000000,1,46,140,1,403,53.34271329,-6.256691284
4779_3665,2,1357574400000000,2,46,747,2,3665,53.42811351,-6.244123692
1359_2068,1,1357473600000000,1,747,46,1,2068,53.29692261,-6.204262149
395_3665,1,1357556400000000,1,46,747,1,3665,53.42811351,-6.244123692
2668_845,1,1357470000000000,1,76,46,1,845,53.33545323,-6.256236611
4319_334,1,1357542000000000,1,747,140,1,334,53.34655465,-6.258156712
804_3665,5,1357473600000000,1,46,747,1,3665,53.42811351,-6.244123692
804_3665,5,1357480800000000,1,46,747,1,3665,53.42811351,-6.244123692
804_3665,5,1357585200000000,1,46,747,1,3665,53.42811351,-6.244123692
804_3665,5,1357549200000000,2,46,747,2,3665,53.42811351,-6.244123692
192_4319,1,1357567200000000,1,46,747,1,4319,53.34676557,-6.292018441
773_3665,1,1357581600000000,1,46,747,1,3665,53.42811351,-6.244123692
807_6032,2,1357542000000000,1,46,747,1,6032,53.35205932,-6.260275682
807_6032,2,1357563600000000,1,46,747,1,6032,53.35205932,-6.260275682
4319_6074,2,1357563600000000,1,747,140,1,6074,53.33589471,-6.257540035
4319_6074,2,1357545600000000,1,747,140,1,6074,53.33589471,-6.257540035
3665_4542,2,1357545600000000,2,747,140,2,4542,53.38666393,-6.297081618
6364_3665,3,1357588800000000,1,140,747,1,3665,53.42811351,-6.244123692
6364_3665,3,1357488000000000,1,140,747,1,3665,53.42811351,-6.244123692
6364_3665,3,1357570800000000,1,140,747,1,3665,53.42811351,-6.244123692
6366_6032,1,1357567200000000,1,140,747,1,6032,53.35205932,-6.260275682
2036_1536,1,1357560000000000,1,46,140,1,1536,53.36961683,-6.277263386
3665_2121,1,1357570800000000,1,747,76,1,2121,53.34344397,-6.398589294
334_4341,2,1357466400000000,1,46,76,1,4341,53.28564665,-6.372359628
334_4341,2,1357549200000000,1,46,76,1,4341,53.28564665,-6.372359628
1072_6032,1,1357552800000000,1,140,747,1,6032,53.35205932,-6.260275682
3665_2119,1,1357570800000000,1,747,76,1,2119,53.33704753,-6.400150411
2035_3665,14,1357578000000000,2,46,747,2,3665,53.42811351,-6.244123692
2035_3665,14,1357542000000000,1,46,747,1,3665,53.42811351,-6.244123692
2035_3665,14,1357484400000000,1,46,747,1,3665,53.42811351,-6.244123692
2035_3665,14,1357560000000000,1,46,747,1,3665,53.42811351,-6.244123692
2035_3665,14,1357585200000000,6,46,747,6,3665,53.42811351,-6.244123692
2035_3665,14,1357574400000000,1,46,747,1,3665,53.42811351,-6.244123692
2035_3665,14,1357549200000000,2,46,747,2,3665,53.42811351,-6.244123692
274_4319,1,1357563600000000,1,140,747,1,4319,53.34676557,-6.292018441
352_3665,2,1357581600000000,1,46,747,1,3665,53.42811351,-6.244123692
352_3665,2,1357596000000000,1,46,747,1,3665,53.42811351,-6.244123692
4567_1076,1,1357570800000000,1,46,140,1,1076,53.32315689,-6.265444961
2007_334,2,1357495200000000,1,46,140,1,334,53.34655465,-6.258156712
2007_334,2,1357545600000000,1,46,140,1,334,53.34655465,-6.258156712
397_3665,1,1357592400000000,1,46,747,1,3665,53.42811351,-6.244123692
194_2039,1,1357549200000000,1,140,46,1,2039,53.2948314,-6.134785099
803_3665,12,1357578000000000,3,46,747,3,3665,53.42811351,-6.244123692
803_3665,12,1357588800000000,1,46,747,1,3665,53.42811351,-6.244123692
803_3665,12,1357462800000000,1,46,747,1,3665,53.42811351,-6.244123692
803_3665,12,1357585200000000,1,46,747,1,3665,53.42811351,-6.244123692
803_3665,12,1357574400000000,5,46,747,5,3665,53.42811351,-6.244123692
803_3665,12,1357491600000000,1,46,747,1,3665,53.42811351,-6.244123692
809_4319,2,1357538400000000,1,46,747,1,4319,53.34676557,-6.292018441
809_4319,2,1357466400000000,1,46,747,1,4319,53.34676557,-6.292018441
814_4795,1,1357552800000000,1,46,76,1,4795,53.35240864,-6.395519265
804_4341,1,1357480800000000,1,46,76,1,4341,53.28564665,-6.372359628
6362_3665,2,1357563600000000,1,140,747,1,3665,53.42811351,-6.244123692
6362_3665,2,1357556400000000,1,140,747,1,3665,53.42811351,-6.244123692
814_4319,1,1357574400000000,1,46,747,1,4319,53.34676557,-6.292018441
2068_2126,1,1357563600000000,1,46,76,1,2126,53.34393524,-6.398360619
2110_4319,1,1357477200000000,1,76,747,1,4319,53.34676557,-6.292018441
4341_1069,1,1357542000000000,1,76,140,1,1069,53.32328505,-6.265604892
2115_3665,1,1357506000000000,1,76,747,1,3665,53.42811351,-6.244123692
802_4341,1,1357578000000000,1,46,76,1,4341,53.28564665,-6.372359628
6059_807,3,1357462800000000,1,140,46,1,807,53.3515563,-6.297685373
6059_807,3,1357480800000000,1,140,46,1,807,53.3515563,-6.297685373
6059_807,3,1357502400000000,1,140,46,1,807,53.3515563,-6.297685373
4341_2035,1,1357549200000000,1,76,46,1,2035,53.29577235,-6.142665422
3665_4646,1,1357506000000000,1,747,76,1,4646,53.28942013,-6.374226147
2980_3665,2,1357574400000000,2,116,747,2,3665,53.42811351,-6.244123692
3485_6364,1,1357545600000000,1,46,140,1,6364,53.40258254,-6.301559396
814_1172,1,1357495200000000,1,46,747,1,1172,53.35174313,-6.255241204
1020_3665,1,1357570800000000,1,140,747,1,3665,53.42811351,-6.244123692
4636_3665,3,1357578000000000,1,46,747,1,3665,53.42811351,-6.244123692
4636_3665,3,1357560000000000,1,46,747,1,3665,53.42811351,-6.244123692
4636_3665,3,1357574400000000,1,46,747,1,3665,53.42811351,-6.244123692
5011_3665,2,1357567200000000,1,76,747,1,3665,53.42811351,-6.244123692
5011_3665,2,1357545600000000,1,76,747,1,3665,53.42811351,-6.244123692
807_6059,1,1357538400000000,1,46,140,1,6059,53.35020734,-6.260245957
2021_6361,1,1357563600000000,1,46,140,1,6361,53.4059394,-6.291784446
2_403,1,1357585200000000,1,46,140,1,403,53.34271329,-6.256691284
7216_2010,1,1357477200000000,1,747,46,1,2010,53.29889702,-6.204659416
3665_1014,1,1357549200000000,1,747,140,1,1014,53.33567606,-6.257338722
5008_3665,2,1357585200000000,1,76,747,1,3665,53.42811351,-6.244123692
5008_3665,2,1357574400000000,1,76,747,1,3665,53.42811351,-6.244123692
2068_4319,2,1357538400000000,1,46,747,1,4319,53.34676557,-6.292018441
2068_4319,2,1357470000000000,1,46,747,1,4319,53.34676557,-6.292018441
192_1072,1,1357563600000000,1,46,140,1,1072,53.33099061,-6.264556561
1076_435,1,1357488000000000,1,140,46,1,435,53.29598904,-6.203746226
4341_2021,1,1357549200000000,1,76,46,1,2021,53.27817732,-6.164408382
2040_4319,2,1357473600000000,1,46,747,1,4319,53.34676557,-6.292018441
2040_4319,2,1357560000000000,1,46,747,1,4319,53.34676557,-6.292018441
4319_6059,1,1357473600000000,1,747,46,1,6059,53.35020734,-6.260245957
2010_7400,1,1357563600000000,1,46,747,1,7400,53.42674583,-6.239138862
2158_3665,4,1357484400000000,2,76,747,2,3665,53.42811351,-6.244123692
2158_3665,4,1357570800000000,1,76,747,1,3665,53.42811351,-6.244123692
2158_3665,4,1357466400000000,1,76,747,1,3665,53.42811351,-6.244123692
799_2243,1,1357563600000000,1,46,76,1,2243,53.35196519,-6.355683327
807_7398,3,1357495200000000,1,46,747,1,7398,53.3474992,-6.239838352
807_7398,3,1357545600000000,1,46,747,1,7398,53.3474992,-6.239838352
807_7398,3,1357491600000000,1,46,747,1,7398,53.3474992,-6.239838352
2127_3665,1,1357502400000000,1,76,747,1,3665,53.42811351,-6.244123692
2688_3665,1,1357509600000000,1,76,747,1,3665,53.42811351,-6.244123692
7216_4542,1,1357542000000000,1,747,140,1,4542,53.38666393,-6.297081618
3321_3665,1,1357545600000000,1,46,747,1,3665,53.42811351,-6.244123692
387_3665,1,1357578000000000,1,46,747,1,3665,53.42811351,-6.244123692
1067_435,1,1357570800000000,1,140,46,1,435,53.29598904,-6.203746226
4566_3665,3,1357552800000000,1,46,747,1,3665,53.42811351,-6.244123692
4566_3665,3,1357560000000000,1,46,747,1,3665,53.42811351,-6.244123692
4566_3665,3,1357585200000000,1,46,747,1,3665,53.42811351,-6.244123692
4565_792,1,1357570800000000,1,46,140,1,792,53.3420867,-6.258098549
3665_2688,1,1357491600000000,1,747,76,1,2688,53.3434633,-6.368175697
797_7216,1,1357585200000000,1,46,747,1,7216,53.34770816,-6.242428291
768_3665,9,1357578000000000,2,46,747,2,3665,53.42811351,-6.244123692
768_3665,9,1357552800000000,1,46,747,1,3665,53.42811351,-6.244123692
768_3665,9,1357542000000000,1,46,747,1,3665,53.42811351,-6.244123692
768_3665,9,1357570800000000,1,46,747,1,3665,53.42811351,-6.244123692
768_3665,9,1357545600000000,2,46,747,2,3665,53.42811351,-6.244123692
768_3665,9,1357574400000000,1,46,747,1,3665,53.42811351,-6.244123692
768_3665,9,1357491600000000,1,46,747,1,3665,53.42811351,-6.244123692
794_4341,1,1357509600000000,1,46,76,1,4341,53.28564665,-6.372359628
4341_4319,4,1357567200000000,1,76,747,1,4319,53.34676557,-6.292018441
4341_4319,4,1357542000000000,1,76,747,1,4319,53.34676557,-6.292018441
4341_4319,4,1357502400000000,1,76,747,1,4319,53.34676557,-6.292018441
4341_4319,4,1357545600000000,1,76,747,1,4319,53.34676557,-6.292018441
4319_7,1,1357560000000000,1,747,140,1,7,53.35283171,-6.264555613
792_4319,1,1357495200000000,1,46,747,1,4319,53.34676557,-6.292018441
2045_3665,1,1357574400000000,1,46,747,1,3665,53.42811351,-6.244123692
5192_3665,7,1357567200000000,1,46,747,1,3665,53.42811351,-6.244123692
5192_3665,7,1357513200000000,1,46,747,1,3665,53.42811351,-6.244123692
5192_3665,7,1357596000000000,1,46,747,1,3665,53.42811351,-6.244123692
5192_3665,7,1357466400000000,4,46,747,4,3665,53.42811351,-6.244123692
2045_1020,1,1357542000000000,1,46,140,1,1020,53.3250755,-6.265111916
3665_1070,1,1357570800000000,1,747,140,1,1070,53.32497098,-6.265341344
3665_2040,1,1357480800000000,1,747,46,1,2040,53.292738,-6.135416371
4341_807,4,1357473600000000,1,76,46,1,807,53.3515563,-6.297685373
4341_807,4,1357477200000000,1,76,46,1,807,53.3515563,-6.297685373
4341_807,4,1357542000000000,2,76,46,2,807,53.3515563,-6.297685373
3665_4347,1,1357506000000000,1,747,76,1,4347,53.28620429,-6.375023186
406_4724,1,1357480800000000,1,46,747,1,4724,53.35052019,-6.260743945
3665_2,1,1357542000000000,1,747,46,1,2,53.35224392,-6.263693193
3665_4341,8,1357477200000000,1,747,76,1,4341,53.28564665,-6.372359628
3665_4341,8,1357542000000000,2,747,76,2,4341,53.28564665,-6.372359628
3665_4341,8,1357596000000000,1,747,76,1,4341,53.28564665,-6.372359628
3665_4341,8,1357570800000000,1,747,76,1,4341,53.28564665,-6.372359628
3665_4341,8,1357545600000000,1,747,76,1,4341,53.28564665,-6.372359628
3665_4341,8,1357574400000000,1,747,76,1,4341,53.28564665,-6.372359628
3665_4341,8,1357549200000000,1,747,76,1,4341,53.28564665,-6.372359628
4795_3665,4,1357488000000000,1,76,747,1,3665,53.42811351,-6.244123692
4795_3665,4,1357560000000000,1,76,747,1,3665,53.42811351,-6.244123692
4795_3665,4,1357509600000000,1,76,747,1,3665,53.42811351,-6.244123692
4795_3665,4,1357491600000000,1,76,747,1,3665,53.42811351,-6.244123692
3665_1076,1,1357578000000000,1,747,140,1,1076,53.32315689,-6.265444961
3665_797,3,1357462800000000,1,747,46,1,797,53.360726,-6.274662165
3665_797,3,1357552800000000,1,747,46,1,797,53.360726,-6.274662165
3665_797,3,1357542000000000,1,747,46,1,797,53.360726,-6.274662165
3665_435,2,1357484400000000,1,747,46,1,435,53.29598904,-6.203746226
3665_435,2,1357560000000000,1,747,46,1,435,53.29598904,-6.203746226
2035_4319,4,1357578000000000,1,46,747,1,4319,53.34676557,-6.292018441
2035_4319,4,1357567200000000,1,46,747,1,4319,53.34676557,-6.292018441
2035_4319,4,1357574400000000,1,46,747,1,4319,53.34676557,-6.292018441
2035_4319,4,1357549200000000,1,46,747,1,4319,53.34676557,-6.292018441
274_3665,13,1357578000000000,2,140,747,1,3665,53.42811351,-6.244123692
274_3665,13,1357578000000000,2,46,747,1,3665,53.42811351,-6.244123692
274_3665,13,1357473600000000,1,46,747,1,3665,53.42811351,-6.244123692
274_3665,13,1357567200000000,1,140,747,1,3665,53.42811351,-6.244123692
274_3665,13,1357480800000000,1,46,747,1,3665,53.42811351,-6.244123692
274_3665,13,1357484400000000,1,46,747,1,3665,53.42811351,-6.244123692
274_3665,13,1357495200000000,1,46,747,1,3665,53.42811351,-6.244123692
274_3665,13,1357556400000000,1,46,747,1,3665,53.42811351,-6.244123692
274_3665,13,1357506000000000,1,140,747,1,3665,53.42811351,-6.244123692
274_3665,13,1357560000000000,2,46,747,2,3665,53.42811351,-6.244123692
274_3665,13,1357545600000000,1,46,747,1,3665,53.42811351,-6.244123692
274_3665,13,1357466400000000,1,140,747,1,3665,53.42811351,-6.244123692
2675_1536,1,1357567200000000,1,76,140,1,1536,53.36961683,-6.277263386
3665_799,1,1357477200000000,1,747,46,1,799,53.35885973,-6.281738912
2243_3665,7,1357473600000000,2,76,747,2,3665,53.42811351,-6.244123692
2243_3665,7,1357488000000000,4,76,747,4,3665,53.42811351,-6.244123692
2243_3665,7,1357563600000000,1,76,747,1,3665,53.42811351,-6.244123692
3665_2039,5,1357473600000000,1,747,46,1,2039,53.2948314,-6.134785099
3665_2039,5,1357538400000000,1,747,46,1,2039,53.2948314,-6.134785099
3665_2039,5,1357542000000000,1,747,46,1,2039,53.2948314,-6.134785099
3665_2039,5,1357484400000000,1,747,46,1,2039,53.2948314,-6.134785099
3665_2039,5,1357545600000000,1,747,46,1,2039,53.2948314,-6.134785099
2655_3665,6,1357567200000000,1,76,747,1,3665,53.42811351,-6.244123692
2655_3665,6,1357542000000000,1,76,747,1,3665,53.42811351,-6.244123692
2655_3665,6,1357495200000000,1,76,747,1,3665,53.42811351,-6.244123692
2655_3665,6,1357560000000000,1,76,747,1,3665,53.42811351,-6.244123692
2655_3665,6,1357570800000000,1,76,747,1,3665,53.42811351,-6.244123692
2655_3665,6,1357545600000000,1,76,747,1,3665,53.42811351,-6.244123692
807_186,1,1357578000000000,1,46,140,1,186,53.36534614,-6.271575323
6366_809,1,1357477200000000,1,140,46,1,809,53.35525154,-6.293361691
2007_4341,1,1357574400000000,1,46,76,1,4341,53.28564665,-6.372359628
3665_794,2,1357480800000000,1,747,46,1,794,53.34354738,-6.260261816
3665_794,2,1357574400000000,1,747,140,1,794,53.34354738,-6.260261816
406_1560,1,1357545600000000,1,46,140,1,1560,53.39700733,-6.304533352
3665_796,1,1357545600000000,1,747,46,1,796,53.35998119,-6.269779162
3665_795,1,1357563600000000,1,747,46,1,795,53.35873106,-6.269724642
1280_406,1,1357552800000000,1,140,46,1,406,53.34261622,-6.256199628
807_6366,1,1357538400000000,1,46,140,1,6366,53.4026512,-6.301331065
2060_3665,1,1357556400000000,1,46,747,1,3665,53.42811351,-6.244123692
395_7400,1,1357491600000000,1,46,747,1,7400,53.42674583,-6.239138862
5013_3665,2,1357473600000000,1,46,747,1,3665,53.42811351,-6.244123692
5013_3665,2,1357545600000000,1,46,747,1,3665,53.42811351,-6.244123692
3665_2158,1,1357542000000000,1,747,76,1,2158,53.32540349,-6.395121626
1067_7398,1,1357574400000000,1,140,747,1,7398,53.3474992,-6.239838352
806_4319,2,1357552800000000,1,46,747,1,4319,53.34676557,-6.292018441
806_4319,2,1357549200000000,1,46,747,1,4319,53.34676557,-6.292018441
6032_5192,1,1357509600000000,1,747,46,1,5192,53.3458954,-6.258559085
192_7400,1,1357484400000000,1,46,747,1,7400,53.42674583,-6.239138862
3665_786,3,1357570800000000,1,747,46,1,786,53.33514628,-6.256144022
3665_786,3,1357585200000000,1,747,46,1,786,53.33514628,-6.256144022
3665_786,3,1357549200000000,1,747,46,1,786,53.33514628,-6.256144022
5008_4319,1,1357549200000000,1,76,747,1,4319,53.34676557,-6.292018441
4319_1532,1,1357560000000000,1,747,140,1,1532,53.38168893,-6.290470518
810_7453,1,1357542000000000,1,46,747,1,7453,53.34633589,-6.278382504
6059_6276,1,1357574400000000,1,46,140,1,6276,53.40608507,-6.291913978
7398_6365,1,1357581600000000,1,747,140,1,6365,53.40438236,-6.291636267
2017_4319,2,1357498800000000,1,46,747,1,4319,53.34676557,-6.292018441
2017_4319,2,1357549200000000,1,46,747,1,4319,53.34676557,-6.292018441
2039_1532,1,1357574400000000,1,46,140,1,1532,53.38168893,-6.290470518
846_3665,1,1357578000000000,1,46,747,1,3665,53.42811351,-6.244123692
334_4319,7,1357588800000000,1,46,747,1,4319,53.34676557,-6.292018441
334_4319,7,1357473600000000,1,140,747,1,4319,53.34676557,-6.292018441
334_4319,7,1357462800000000,1,46,747,1,4319,53.34676557,-6.292018441
334_4319,7,1357556400000000,1,46,747,1,4319,53.34676557,-6.292018441
334_4319,7,1357570800000000,1,46,747,1,4319,53.34676557,-6.292018441
334_4319,7,1357545600000000,2,46,747,2,4319,53.34676557,-6.292018441
2010_1070,1,1357574400000000,1,46,140,1,1070,53.32497098,-6.265341344
2010_4341,1,1357578000000000,1,46,76,1,4341,53.28564665,-6.372359628
4565_7453,1,1357574400000000,1,46,747,1,7453,53.34633589,-6.278382504
794_4319,1,1357570800000000,1,46,747,1,4319,53.34676557,-6.292018441
3665_4565,1,1357556400000000,1,747,46,1,4565,53.28133298,-6.155139705
3665_2021,1,1357542000000000,1,747,46,1,2021,53.27817732,-6.164408382
2007_4319,1,1357560000000000,1,46,747,1,4319,53.34676557,-6.292018441
2040_3665,3,1357462800000000,1,46,747,1,3665,53.42811351,-6.244123692
2040_3665,3,1357563600000000,1,46,747,1,3665,53.42811351,-6.244123692
2040_3665,3,1357574400000000,1,46,747,1,3665,53.42811351,-6.244123692
3665_337,1,1357542000000000,1,747,46,1,337,53.3458989,-6.258183446
3665_2017,3,1357488000000000,1,747,46,1,2017,53.27418733,-6.175000804
3665_2017,3,1357581600000000,1,747,46,1,2017,53.27418733,-6.175000804
3665_2017,3,1357574400000000,1,747,46,1,2017,53.27418733,-6.175000804
2697_6059,1,1357556400000000,1,76,46,1,6059,53.35020734,-6.260245957
2059_1511,1,1357578000000000,1,46,140,1,1511,53.37823452,-6.287752985
786_3665,6,1357578000000000,1,46,747,1,3665,53.42811351,-6.244123692
786_3665,6,1357477200000000,1,46,747,1,3665,53.42811351,-6.244123692
786_3665,6,1357542000000000,2,46,747,2,3665,53.42811351,-6.244123692
786_3665,6,1357560000000000,1,46,747,1,3665,53.42811351,-6.244123692
786_3665,6,1357592400000000,1,46,747,1,3665,53.42811351,-6.244123692
3665_334,7,1357473600000000,1,747,46,1,334,53.34655465,-6.258156712
3665_334,7,1357477200000000,1,747,46,1,334,53.34655465,-6.258156712
3665_334,7,1357538400000000,1,747,46,1,334,53.34655465,-6.258156712
3665_334,7,1357495200000000,1,747,46,1,334,53.34655465,-6.258156712
3665_334,7,1357556400000000,1,747,46,1,334,53.34655465,-6.258156712
3665_334,7,1357585200000000,1,747,140,1,334,53.34655465,-6.258156712
3665_334,7,1357509600000000,1,747,46,1,334,53.34655465,-6.258156712
2062_1532,1,1357560000000000,1,46,140,1,1532,53.38168893,-6.290470518
6074_792,1,1357563600000000,1,140,46,1,792,53.3420867,-6.258098549
3665_2015,1,1357470000000000,1,747,46,1,2015,53.27556271,-6.179125904
2010_4319,1,1357563600000000,1,46,747,1,4319,53.34676557,-6.292018441
3665_4795,2,1357563600000000,1,747,76,1,4795,53.35240864,-6.395519265
3665_4795,2,1357574400000000,1,747,76,1,4795,53.35240864,-6.395519265
274_2499,1,1357545600000000,1,140,747,1,2499,53.34806517,-6.247145101
3665_2010,1,1357466400000000,1,747,46,1,2010,53.29889702,-6.204659416
274_4543,1,1357556400000000,1,46,140,1,4543,53.386249,-6.296977908
2088_4348,1,1357477200000000,1,46,76,1,4348,53.28666326,-6.375065763
4542_7400,2,1357563600000000,1,140,747,1,7400,53.42674583,-6.239138862
4542_7400,2,1357560000000000,1,140,747,1,7400,53.42674583,-6.239138862
387_4319,1,1357552800000000,1,46,747,1,4319,53.34676557,-6.292018441
801_3665,8,1357473600000000,1,46,747,1,3665,53.42811351,-6.244123692
801_3665,8,1357552800000000,1,46,747,1,3665,53.42811351,-6.244123692
801_3665,8,1357563600000000,1,46,747,1,3665,53.42811351,-6.244123692
801_3665,8,1357556400000000,2,46,747,2,3665,53.42811351,-6.244123692
801_3665,8,1357560000000000,2,46,747,2,3665,53.42811351,-6.244123692
801_3665,8,1357574400000000,1,46,747,1,3665,53.42811351,-6.244123692
3665_2007,1,1357545600000000,1,747,46,1,2007,53.30883844,-6.21606771
4567_7400,1,1357488000000000,1,46,747,1,7400,53.42674583,-6.239138862
5045_4319,1,1357538400000000,1,46,747,1,4319,53.34676557,-6.292018441
2672_2010,1,1357570800000000,1,76,46,1,2010,53.29889702,-6.204659416
807_7400,5,1357473600000000,1,46,747,1,7400,53.42674583,-6.239138862
807_7400,5,1357567200000000,1,46,747,1,7400,53.42674583,-6.239138862
807_7400,5,1357484400000000,1,46,747,1,7400,53.42674583,-6.239138862
807_7400,5,1357556400000000,1,46,747,1,7400,53.42674583,-6.239138862
807_7400,5,1357574400000000,1,46,747,1,7400,53.42674583,-6.239138862
334_2688,1,1357477200000000,1,46,76,1,2688,53.3434633,-6.368175697
4795_4319,1,1357552800000000,1,76,747,1,4319,53.34676557,-6.292018441
2861_198,1,1357545600000000,1,116,140,1,198,53.36162538,-6.27283781
2036_1014,1,1357549200000000,1,46,140,1,1014,53.33567606,-6.257338722
2036_2345,1,1357560000000000,1,46,76,1,2345,53.29366316,-6.369009589
2065_3665,3,1357560000000000,3,46,747,3,3665,53.42811351,-6.244123692
198_3665,3,1357560000000000,1,140,747,1,3665,53.42811351,-6.244123692
198_3665,3,1357470000000000,1,140,747,1,3665,53.42811351,-6.244123692
198_3665,3,1357574400000000,1,140,747,1,3665,53.42811351,-6.244123692
846_403,1,1357585200000000,1,46,140,1,403,53.34271329,-6.256691284
2036_1020,1,1357552800000000,1,46,140,1,1020,53.3250755,-6.265111916
4795_747,1,1357578000000000,1,76,140,1,747,53.33993036,-6.255693501
2697_7400,1,1357498800000000,1,76,747,1,7400,53.42674583,-6.239138862
2655_2499,1,1357466400000000,1,76,747,1,2499,53.34806517,-6.247145101
747_2039,1,1357495200000000,1,140,46,1,2039,53.2948314,-6.134785099
897_3665,1,1357581600000000,1,140,747,1,3665,53.42811351,-6.244123692
5192_4319,1,1357466400000000,1,46,747,1,4319,53.34676557,-6.292018441
2121_3665,1,1357488000000000,1,76,747,1,3665,53.42811351,-6.244123692
909_6059,1,1357578000000000,1,46,140,1,6059,53.35020734,-6.260245957
352_4341,1,1357560000000000,1,46,76,1,4341,53.28564665,-6.372359628
334_3665,18,1357567200000000,1,140,747,1,3665,53.42811351,-6.244123692
334_3665,18,1357488000000000,2,140,747,1,3665,53.42811351,-6.244123692
334_3665,18,1357488000000000,2,46,747,1,3665,53.42811351,-6.244123692
334_3665,18,1357462800000000,1,46,747,1,3665,53.42811351,-6.244123692
334_3665,18,1357552800000000,2,140,747,1,3665,53.42811351,-6.244123692
334_3665,18,1357552800000000,2,46,747,1,3665,53.42811351,-6.244123692
334_3665,18,1357480800000000,1,46,747,1,3665,53.42811351,-6.244123692
334_3665,18,1357484400000000,1,46,747,1,3665,53.42811351,-6.244123692
334_3665,18,1357585200000000,1,46,747,1,3665,53.42811351,-6.244123692
334_3665,18,1357545600000000,1,46,747,1,3665,53.42811351,-6.244123692
334_3665,18,1357466400000000,1,46,747,1,3665,53.42811351,-6.244123692
334_3665,18,1357588800000000,2,140,747,1,3665,53.42811351,-6.244123692
334_3665,18,1357588800000000,2,46,747,1,3665,53.42811351,-6.244123692
334_3665,18,1357477200000000,1,46,747,1,3665,53.42811351,-6.244123692
334_3665,18,1357538400000000,1,46,747,1,3665,53.42811351,-6.244123692
334_3665,18,1357502400000000,1,46,747,1,3665,53.42811351,-6.244123692
334_3665,18,1357570800000000,1,140,747,1,3665,53.42811351,-6.244123692
334_3665,18,1357560000000000,1,46,747,1,3665,53.42811351,-6.244123692
806_3665,3,1357567200000000,1,46,747,1,3665,53.42811351,-6.244123692
806_3665,3,1357484400000000,1,46,747,1,3665,53.42811351,-6.244123692
806_3665,3,1357549200000000,1,46,747,1,3665,53.42811351,-6.244123692
406_3665,25,1357473600000000,2,46,747,2,3665,53.42811351,-6.244123692
406_3665,25,1357462800000000,1,46,747,1,3665,53.42811351,-6.244123692
406_3665,25,1357552800000000,1,46,747,1,3665,53.42811351,-6.244123692
406_3665,25,1357484400000000,4,46,747,4,3665,53.42811351,-6.244123692
406_3665,25,1357556400000000,1,46,747,1,3665,53.42811351,-6.244123692
406_3665,25,1357596000000000,1,46,747,1,3665,53.42811351,-6.244123692
406_3665,25,1357585200000000,1,46,747,1,3665,53.42811351,-6.244123692
406_3665,25,1357545600000000,1,46,747,1,3665,53.42811351,-6.244123692
406_3665,25,1357574400000000,2,46,747,2,3665,53.42811351,-6.244123692
406_3665,25,1357563600000000,4,46,747,4,3665,53.42811351,-6.244123692
406_3665,25,1357581600000000,1,46,747,1,3665,53.42811351,-6.244123692
406_3665,25,1357560000000000,1,46,747,1,3665,53.42811351,-6.244123692
406_3665,25,1357570800000000,1,46,747,1,3665,53.42811351,-6.244123692
406_3665,25,1357509600000000,2,46,747,2,3665,53.42811351,-6.244123692
406_3665,25,1357491600000000,2,46,747,2,3665,53.42811351,-6.244123692
2039_2656,1,1357473600000000,1,46,76,1,2656,53.34262329,-6.358701097
1560_4319,1,1357545600000000,1,140,747,1,4319,53.34676557,-6.292018441
2036_3665,7,1357581600000000,1,46,747,1,3665,53.42811351,-6.244123692
2036_3665,7,1357556400000000,3,46,747,3,3665,53.42811351,-6.244123692
2036_3665,7,1357560000000000,2,46,747,2,3665,53.42811351,-6.244123692
2036_3665,7,1357491600000000,1,46,747,1,3665,53.42811351,-6.244123692
190_1445,1,1357491600000000,1,140,747,1,1445,53.34567841,-6.27828884
2007_4409,1,1357488000000000,1,46,76,1,4409,53.32234699,-6.393074714
6059_4724,1,1357491600000000,1,140,747,1,4724,53.35052019,-6.260743945
3665_1536,1,1357560000000000,1,747,140,1,1536,53.36961683,-6.277263386
796_3665,7,1357552800000000,3,46,747,3,3665,53.42811351,-6.244123692
796_3665,7,1357498800000000,1,46,747,1,3665,53.42811351,-6.244123692
796_3665,7,1357484400000000,1,46,747,1,3665,53.42811351,-6.244123692
796_3665,7,1357556400000000,1,46,747,1,3665,53.42811351,-6.244123692
796_3665,7,1357560000000000,1,46,747,1,3665,53.42811351,-6.244123692
747_4341,2,1357538400000000,1,46,76,1,4341,53.28564665,-6.372359628
747_4341,2,1357545600000000,1,46,76,1,4341,53.28564665,-6.372359628
1532_807,2,1357477200000000,1,140,46,1,807,53.3515563,-6.297685373
1532_807,2,1357560000000000,1,140,46,1,807,53.3515563,-6.297685373
3665_747,2,1357488000000000,1,747,46,1,747,53.33993036,-6.255693501
3665_747,2,1357545600000000,1,747,46,1,747,53.33993036,-6.255693501
3665_1532,1,1357542000000000,1,747,140,1,1532,53.38168893,-6.290470518
435_3665,1,1357491600000000,1,46,747,1,3665,53.42811351,-6.244123692
274_4724,1,1357570800000000,1,46,747,1,4724,53.35052019,-6.260743945
406_1014,1,1357545600000000,1,46,140,1,1014,53.33567606,-6.257338722
4567_3665,2,1357570800000000,1,46,747,1,3665,53.42811351,-6.244123692
4567_3665,2,1357585200000000,1,46,747,1,3665,53.42811351,-6.244123692
7400_807,1,1357462800000000,1,747,46,1,807,53.3515563,-6.297685373
2062_4319,1,1357570800000000,1,46,747,1,4319,53.34676557,-6.292018441
6367_4319,1,1357477200000000,1,140,747,1,4319,53.34676557,-6.292018441
803_194,1,1357574400000000,1,46,140,1,194,53.35504043,-6.269964297
3665_1531,2,1357473600000000,1,747,140,1,1531,53.38374345,-6.293349716
3665_1531,2,1357552800000000,1,747,140,1,1531,53.38374345,-6.293349716
6059_1445,1,1357491600000000,1,46,747,1,1445,53.34567841,-6.27828884
6059_2655,1,1357549200000000,1,46,76,1,2655,53.34213795,-6.352832566
4409_1076,1,1357495200000000,1,76,140,1,1076,53.32315689,-6.265444961
768_4341,2,1357473600000000,1,46,76,1,4341,53.28564665,-6.372359628
768_4341,2,1357552800000000,1,46,76,1,4341,53.28564665,-6.372359628
802_3665,3,1357567200000000,2,46,747,2,3665,53.42811351,-6.244123692
802_3665,3,1357552800000000,1,46,747,1,3665,53.42811351,-6.244123692
334_4724,1,1357563600000000,1,46,747,1,4724,53.35052019,-6.260743945
186_3665,6,1357563600000000,2,140,747,2,3665,53.42811351,-6.244123692
186_3665,6,1357581600000000,1,140,747,1,3665,53.42811351,-6.244123692
186_3665,6,1357560000000000,1,140,747,1,3665,53.42811351,-6.244123692
186_3665,6,1357545600000000,1,140,747,1,3665,53.42811351,-6.244123692
186_3665,6,1357549200000000,1,140,747,1,3665,53.42811351,-6.244123692
2032_3665,6,1357578000000000,1,46,747,1,3665,53.42811351,-6.244123692
2032_3665,6,1357563600000000,1,46,747,1,3665,53.42811351,-6.244123692
2032_3665,6,1357581600000000,2,46,747,2,3665,53.42811351,-6.244123692
2032_3665,6,1357585200000000,2,46,747,2,3665,53.42811351,-6.244123692
2045_4348,1,1357567200000000,1,46,76,1,4348,53.28666326,-6.375065763
747_4319,3,1357480800000000,1,46,747,1,4319,53.34676557,-6.292018441
747_4319,3,1357556400000000,1,46,747,1,4319,53.34676557,-6.292018441
747_4319,3,1357549200000000,1,46,747,1,4319,53.34676557,-6.292018441
4319_1560,1,1357570800000000,1,747,140,1,1560,53.39700733,-6.304533352
4319_807,8,1357462800000000,1,747,46,1,807,53.3515563,-6.297685373
4319_807,8,1357552800000000,2,747,46,2,807,53.3515563,-6.297685373
4319_807,8,1357480800000000,1,747,46,1,807,53.3515563,-6.297685373
4319_807,8,1357542000000000,1,747,46,1,807,53.3515563,-6.297685373
4319_807,8,1357581600000000,1,747,46,1,807,53.3515563,-6.297685373
4319_807,8,1357570800000000,1,747,46,1,807,53.3515563,-6.297685373
4319_807,8,1357470000000000,1,747,46,1,807,53.3515563,-6.297685373
803_1069,1,1357585200000000,1,46,140,1,1069,53.32328505,-6.265604892
4319_801,1,1357477200000000,1,747,46,1,801,53.3574613,-6.287624427
4319_809,2,1357567200000000,1,747,46,1,809,53.35525154,-6.293361691
4319_809,2,1357466400000000,1,747,46,1,809,53.35525154,-6.293361691
2_4319,2,1357477200000000,1,46,747,1,4319,53.34676557,-6.292018441
2_4319,2,1357552800000000,1,46,747,1,4319,53.34676557,-6.292018441
2007_3665,6,1357477200000000,1,46,747,1,3665,53.42811351,-6.244123692
2007_3665,6,1357552800000000,1,46,747,1,3665,53.42811351,-6.244123692
2007_3665,6,1357542000000000,1,46,747,1,3665,53.42811351,-6.244123692
2007_3665,6,1357570800000000,1,46,747,1,3665,53.42811351,-6.244123692
2007_3665,6,1357585200000000,1,46,747,1,3665,53.42811351,-6.244123692
2007_3665,6,1357549200000000,1,46,747,1,3665,53.42811351,-6.244123692
3665_768,5,1357488000000000,1,747,46,1,768,53.30942919,-6.218909436
3665_768,5,1357545600000000,1,747,46,1,768,53.30942919,-6.218909436
3665_768,5,1357470000000000,1,747,46,1,768,53.30942919,-6.218909436
3665_768,5,1357466400000000,2,747,46,2,768,53.30942919,-6.218909436
3665_406,6,1357473600000000,1,747,46,1,406,53.34261622,-6.256199628
3665_406,6,1357488000000000,1,747,46,1,406,53.34261622,-6.256199628
3665_406,6,1357552800000000,1,747,46,1,406,53.34261622,-6.256199628
3665_406,6,1357484400000000,1,747,46,1,406,53.34261622,-6.256199628
3665_406,6,1357556400000000,1,747,46,1,406,53.34261622,-6.256199628
3665_406,6,1357466400000000,1,747,46,1,406,53.34261622,-6.256199628
797_4341,1,1357581600000000,1,46,76,1,4341,53.28564665,-6.372359628
356_4341,1,1357545600000000,1,46,76,1,4341,53.28564665,-6.372359628
2672_3665,2,1357477200000000,1,76,747,1,3665,53.42811351,-6.244123692
2672_3665,2,1357567200000000,1,76,747,1,3665,53.42811351,-6.244123692
797_4319,4,1357473600000000,2,46,747,2,4319,53.34676557,-6.292018441
797_4319,4,1357477200000000,1,46,747,1,4319,53.34676557,-6.292018441
797_4319,4,1357549200000000,1,46,747,1,4319,53.34676557,-6.292018441
444_3665,1,1357545600000000,1,46,747,1,3665,53.42811351,-6.244123692
198_4319,1,1357549200000000,1,140,747,1,4319,53.34676557,-6.292018441
4724_807,1,1357473600000000,1,747,46,1,807,53.3515563,-6.297685373
2112_3665,7,1357578000000000,1,76,747,1,3665,53.42811351,-6.244123692
2112_3665,7,1357567200000000,2,76,747,2,3665,53.42811351,-6.244123692
2112_3665,7,1357552800000000,1,76,747,1,3665,53.42811351,-6.244123692
2112_3665,7,1357581600000000,1,76,747,1,3665,53.42811351,-6.244123692
2112_3665,7,1357466400000000,2,76,747,2,3665,53.42811351,-6.244123692
5016_1020,1,1357585200000000,1,46,140,1,1020,53.3250755,-6.265111916
747_7400,1,1357578000000000,1,46,747,1,7400,53.42674583,-6.239138862
2039_3665,31,1357578000000000,1,46,747,1,3665,53.42811351,-6.244123692
2039_3665,31,1357473600000000,1,46,747,1,3665,53.42811351,-6.244123692
2039_3665,31,1357488000000000,1,46,747,1,3665,53.42811351,-6.244123692
2039_3665,31,1357542000000000,6,46,747,6,3665,53.42811351,-6.244123692
2039_3665,31,1357498800000000,2,46,747,2,3665,53.42811351,-6.244123692
2039_3665,31,1357495200000000,1,46,747,1,3665,53.42811351,-6.244123692
2039_3665,31,1357556400000000,3,46,747,3,3665,53.42811351,-6.244123692
2039_3665,31,1357585200000000,1,46,747,1,3665,53.42811351,-6.244123692
2039_3665,31,1357466400000000,1,46,747,1,3665,53.42811351,-6.244123692
2039_3665,31,1357574400000000,1,46,747,1,3665,53.42811351,-6.244123692
2039_3665,31,1357588800000000,1,46,747,1,3665,53.42811351,-6.244123692
2039_3665,31,1357563600000000,1,46,747,1,3665,53.42811351,-6.244123692
2039_3665,31,1357581600000000,2,46,747,2,3665,53.42811351,-6.244123692
2039_3665,31,1357570800000000,2,46,747,2,3665,53.42811351,-6.244123692
2039_3665,31,1357470000000000,2,46,747,2,3665,53.42811351,-6.244123692
2039_3665,31,1357592400000000,1,46,747,1,3665,53.42811351,-6.244123692
2039_3665,31,1357549200000000,4,46,747,4,3665,53.42811351,-6.244123692
3085_3665,2,1357542000000000,2,46,747,2,3665,53.42811351,-6.244123692
845_403,1,1357560000000000,1,46,140,1,403,53.34271329,-6.256691284
2158_7400,1,1357480800000000,1,76,747,1,7400,53.42674583,-6.239138862
1560_3665,3,1357578000000000,1,140,747,1,3665,53.42811351,-6.244123692
1560_3665,3,1357581600000000,1,140,747,1,3665,53.42811351,-6.244123692
1560_3665,3,1357470000000000,1,140,747,1,3665,53.42811351,-6.244123692
807_1070,1,1357570800000000,1,46,140,1,1070,53.32497098,-6.265341344
809_3665,10,1357588800000000,2,46,747,2,3665,53.42811351,-6.244123692
809_3665,10,1357477200000000,1,46,747,1,3665,53.42811351,-6.244123692
809_3665,10,1357567200000000,1,46,747,1,3665,53.42811351,-6.244123692
809_3665,10,1357552800000000,2,46,747,2,3665,53.42811351,-6.244123692
809_3665,10,1357542000000000,1,46,747,1,3665,53.42811351,-6.244123692
809_3665,10,1357545600000000,1,46,747,1,3665,53.42811351,-6.244123692
809_3665,10,1357466400000000,1,46,747,1,3665,53.42811351,-6.244123692
809_3665,10,1357549200000000,1,46,747,1,3665,53.42811351,-6.244123692
807_4341,3,1357538400000000,1,46,76,1,4341,53.28564665,-6.372359628
807_4341,3,1357502400000000,1,46,76,1,4341,53.28564665,-6.372359628
807_4341,3,1357470000000000,1,46,76,1,4341,53.28564665,-6.372359628
6362_6059,1,1357552800000000,1,140,46,1,6059,53.35020734,-6.260245957
814_3665,3,1357477200000000,1,46,747,1,3665,53.42811351,-6.244123692
814_3665,3,1357542000000000,1,46,747,1,3665,53.42811351,-6.244123692
814_3665,3,1357574400000000,1,46,747,1,3665,53.42811351,-6.244123692
807_1076,2,1357542000000000,1,46,140,1,1076,53.32315689,-6.265444961
807_1076,2,1357545600000000,1,46,140,1,1076,53.32315689,-6.265444961
4636_2345,1,1357567200000000,1,46,76,1,2345,53.29366316,-6.369009589
5192_4341,1,1357506000000000,1,46,76,1,4341,53.28564665,-6.372359628
2128_4543,1,1357545600000000,1,76,140,1,4543,53.386249,-6.296977908
2035_1560,1,1357570800000000,1,46,140,1,1560,53.39700733,-6.304533352
803_4319,1,1357491600000000,1,46,747,1,4319,53.34676557,-6.292018441
807_334,1,1357556400000000,1,46,140,1,334,53.34655465,-6.258156712
406_4319,7,1357473600000000,1,46,747,1,4319,53.34676557,-6.292018441
406_4319,7,1357477200000000,2,46,747,2,4319,53.34676557,-6.292018441
406_4319,7,1357459200000000,1,46,747,1,4319,53.34676557,-6.292018441
406_4319,7,1357581600000000,1,46,747,1,4319,53.34676557,-6.292018441
406_4319,7,1357556400000000,1,46,747,1,4319,53.34676557,-6.292018441
406_4319,7,1357570800000000,1,46,747,1,4319,53.34676557,-6.292018441
796_4319,2,1357560000000000,1,46,747,1,4319,53.34676557,-6.292018441
796_4319,2,1357491600000000,1,46,747,1,4319,53.34676557,-6.292018441
4341_192,1,1357477200000000,1,76,46,1,192,53.35644191,-6.268059634
2039_4646,1,1357574400000000,1,46,76,1,4646,53.28942013,-6.374226147
4348_3665,5,1357578000000000,1,76,747,1,3665,53.42811351,-6.244123692
4348_3665,5,1357480800000000,1,76,747,1,3665,53.42811351,-6.244123692
4348_3665,5,1357563600000000,1,76,747,1,3665,53.42811351,-6.244123692
4348_3665,5,1357495200000000,1,76,747,1,3665,53.42811351,-6.244123692
4348_3665,5,1357556400000000,1,76,747,1,3665,53.42811351,-6.244123692
4319_4646,1,1357552800000000,1,747,76,1,4646,53.28942013,-6.374226147
334_2656,1,1357480800000000,1,46,76,1,2656,53.34262329,-6.358701097
807_1067,1,1357556400000000,1,46,140,1,1067,53.31704157,-6.26521267
768_1069,1,1357578000000000,1,46,140,1,1069,53.32328505,-6.265604892
807_1069,1,1357570800000000,1,46,140,1,1069,53.32328505,-6.265604892
4565_4341,1,1357506000000000,1,46,76,1,4341,53.28564665,-6.372359628
846_7149,1,1357581600000000,1,46,140,1,7149,53.40729605,-6.277982239
2068_3665,4,1357578000000000,1,46,747,1,3665,53.42811351,-6.244123692
2068_3665,4,1357488000000000,1,46,747,1,3665,53.42811351,-6.244123692
2068_3665,4,1357484400000000,1,46,747,1,3665,53.42811351,-6.244123692
2068_3665,4,1357545600000000,1,46,747,1,3665,53.42811351,-6.244123692
7111_3665,2,1357552800000000,1,140,747,1,3665,53.42811351,-6.244123692
7111_3665,2,1357480800000000,1,140,747,1,3665,53.42811351,-6.244123692
845_4341,1,1357552800000000,1,46,76,1,4341,53.28564665,-6.372359628
2062_3665,3,1357560000000000,1,46,747,1,3665,53.42811351,-6.244123692
2062_3665,3,1357466400000000,2,46,747,2,3665,53.42811351,-6.244123692
2128_3665,1,1357563600000000,1,76,747,1,3665,53.42811351,-6.244123692
6230_4319,1,1357549200000000,1,140,747,1,4319,53.34676557,-6.292018441
7400_5192,1,1357466400000000,1,747,46,1,5192,53.3458954,-6.258559085
6219_3665,2,1357578000000000,1,140,747,1,3665,53.42811351,-6.244123692
6219_3665,2,1357542000000000,1,140,747,1,3665,53.42811351,-6.244123692
2045_403,1,1357574400000000,1,46,140,1,403,53.34271329,-6.256691284
2032_4319,3,1357477200000000,1,46,747,1,4319,53.34676557,-6.292018441
2032_4319,3,1357563600000000,1,46,747,1,4319,53.34676557,-6.292018441
2032_4319,3,1357545600000000,1,46,747,1,4319,53.34676557,-6.292018441
4319_2697,2,1357549200000000,2,747,76,2,2697,53.3422689,-6.353202977
2_4528,1,1357545600000000,1,46,140,1,4528,53.32886058,-6.264567959
3665_2655,1,1357498800000000,1,747,76,1,2655,53.34213795,-6.352832566
4984_3665,2,1357538400000000,1,46,747,1,3665,53.42811351,-6.244123692
4984_3665,2,1357585200000000,1,46,747,1,3665,53.42811351,-6.244123692
3665_2656,1,1357588800000000,1,747,76,1,2656,53.34262329,-6.358701097
4401_3665,1,1357581600000000,1,76,747,1,3665,53.42811351,-6.244123692
194_3665,2,1357578000000000,1,140,747,1,3665,53.42811351,-6.244123692
194_3665,2,1357549200000000,1,140,747,1,3665,53.42811351,-6.244123692
2021_7400,1,1357549200000000,1,46,747,1,7400,53.42674583,-6.239138862
848_3665,1,1357570800000000,1,46,747,1,3665,53.42811351,-6.244123692
4636_2128,1,1357488000000000,1,46,76,1,2128,53.33966646,-6.399737008
2119_3665,1,1357488000000000,1,76,747,1,3665,53.42811351,-6.244123692
6229_3665,2,1357578000000000,1,140,747,1,3665,53.42811351,-6.244123692
6229_3665,2,1357574400000000,1,140,747,1,3665,53.42811351,-6.244123692
2_3665,8,1357588800000000,1,46,747,1,3665,53.42811351,-6.244123692
2_3665,8,1357473600000000,1,46,747,1,3665,53.42811351,-6.244123692
2_3665,8,1357552800000000,1,46,747,1,3665,53.42811351,-6.244123692
2_3665,8,1357480800000000,1,46,747,1,3665,53.42811351,-6.244123692
2_3665,8,1357581600000000,1,46,747,1,3665,53.42811351,-6.244123692
2_3665,8,1357560000000000,1,46,747,1,3665,53.42811351,-6.244123692
2_3665,8,1357570800000000,1,46,747,1,3665,53.42811351,-6.244123692
2_3665,8,1357585200000000,1,46,747,1,3665,53.42811351,-6.244123692
4341_3665,28,1357567200000000,1,76,747,1,3665,53.42811351,-6.244123692
4341_3665,28,1357542000000000,7,76,747,7,3665,53.42811351,-6.244123692
4341_3665,28,1357556400000000,4,76,747,4,3665,53.42811351,-6.244123692
4341_3665,28,1357506000000000,2,76,747,2,3665,53.42811351,-6.244123692
4341_3665,28,1357585200000000,2,76,747,2,3665,53.42811351,-6.244123692
4341_3665,28,1357545600000000,1,76,747,1,3665,53.42811351,-6.244123692
4341_3665,28,1357574400000000,1,76,747,1,3665,53.42811351,-6.244123692
4341_3665,28,1357588800000000,1,76,747,1,3665,53.42811351,-6.244123692
4341_3665,28,1357477200000000,2,76,747,2,3665,53.42811351,-6.244123692
4341_3665,28,1357513200000000,1,76,747,1,3665,53.42811351,-6.244123692
4341_3665,28,1357502400000000,1,76,747,1,3665,53.42811351,-6.244123692
4341_3665,28,1357470000000000,2,76,747,2,3665,53.42811351,-6.244123692
4341_3665,28,1357592400000000,2,76,747,2,3665,53.42811351,-6.244123692
4341_3665,28,1357491600000000,1,76,747,1,3665,53.42811351,-6.244123692
4798_3665,2,1357552800000000,1,76,747,1,3665,53.42811351,-6.244123692
4798_3665,2,1357484400000000,1,76,747,1,3665,53.42811351,-6.244123692
2675_4319,1,1357498800000000,1,76,747,1,4319,53.34676557,-6.292018441
2015_3665,1,1357473600000000,1,46,747,1,3665,53.42811351,-6.244123692
453_4319,1,1357491600000000,1,46,747,1,4319,53.34676557,-6.292018441
3665_845,1,1357542000000000,1,747,46,1,845,53.33545323,-6.256236611
812_4319,1,1357567200000000,1,46,747,1,4319,53.34676557,-6.292018441
792_3665,20,1357473600000000,1,140,747,1,3665,53.42811351,-6.244123692
792_3665,20,1357488000000000,1,46,747,1,3665,53.42811351,-6.244123692
792_3665,20,1357563600000000,2,140,747,1,3665,53.42811351,-6.244123692
792_3665,20,1357563600000000,2,46,747,1,3665,53.42811351,-6.244123692
792_3665,20,1357581600000000,1,46,747,1,3665,53.42811351,-6.244123692
792_3665,20,1357484400000000,2,140,747,1,3665,53.42811351,-6.244123692
792_3665,20,1357484400000000,2,46,747,1,3665,53.42811351,-6.244123692
792_3665,20,1357495200000000,1,46,747,1,3665,53.42811351,-6.244123692
792_3665,20,1357556400000000,1,46,747,1,3665,53.42811351,-6.244123692
792_3665,20,1357560000000000,3,140,747,1,3665,53.42811351,-6.244123692
792_3665,20,1357560000000000,3,46,747,2,3665,53.42811351,-6.244123692
792_3665,20,1357545600000000,2,140,747,1,3665,53.42811351,-6.244123692
792_3665,20,1357545600000000,2,46,747,1,3665,53.42811351,-6.244123692
792_3665,20,1357574400000000,4,140,747,2,3665,53.42811351,-6.244123692
792_3665,20,1357574400000000,4,46,747,2,3665,53.42811351,-6.244123692
792_3665,20,1357491600000000,1,46,747,1,3665,53.42811351,-6.244123692
792_3665,20,1357549200000000,1,46,747,1,3665,53.42811351,-6.244123692
2655_1070,1,1357574400000000,1,76,140,1,1070,53.32497098,-6.265341344
768_4319,3,1357473600000000,1,46,747,1,4319,53.34676557,-6.292018441
768_4319,3,1357552800000000,1,46,747,1,4319,53.34676557,-6.292018441
768_4319,3,1357470000000000,1,46,747,1,4319,53.34676557,-6.292018441
809_794,1,1357477200000000,1,46,140,1,794,53.34354738,-6.260261816
768_1935,1,1357578000000000,1,46,747,1,1935,53.34393435,-6.268326352
807_1020,1,1357466400000000,1,46,140,1,1020,53.3250755,-6.265111916
2687_4319,1,1357542000000000,1,76,747,1,4319,53.34676557,-6.292018441
794_1506,1,1357567200000000,1,46,140,1,1506,53.36676884,-6.272374273
807_2110,1,1357470000000000,1,46,76,1,2110,53.31464695,-6.391938179
7_2032,1,1357495200000000,1,140,46,1,2032,53.28948627,-6.144768187
1070_3665,6,1357578000000000,2,140,747,2,3665,53.42811351,-6.244123692
1070_3665,6,1357473600000000,2,140,747,2,3665,53.42811351,-6.244123692
1070_3665,6,1357484400000000,1,140,747,1,3665,53.42811351,-6.244123692
1070_3665,6,1357491600000000,1,140,747,1,3665,53.42811351,-6.244123692
768_6032,1,1357545600000000,1,46,747,1,6032,53.35205932,-6.260275682
819_3665,1,1357552800000000,1,46,747,1,3665,53.42811351,-6.244123692
1506_3665,1,1357545600000000,1,140,747,1,3665,53.42811351,-6.244123692
4542_3665,6,1357542000000000,2,140,747,2,3665,53.42811351,-6.244123692
4542_3665,6,1357484400000000,1,140,747,1,3665,53.42811351,-6.244123692
4542_3665,6,1357574400000000,3,140,747,3,3665,53.42811351,-6.244123692
274_6059,1,1357563600000000,1,46,140,1,6059,53.35020734,-6.260245957
2036_819,1,1357556400000000,1,46,140,1,819,53.35629482,-6.265977336
786_7400,1,1357578000000000,1,46,747,1,7400,53.42674583,-6.239138862
2039_4795,1,1357484400000000,1,46,76,1,4795,53.35240864,-6.395519265
4319_2035,1,1357473600000000,1,747,46,1,2035,53.29577235,-6.142665422
807_4409,1,1357470000000000,1,46,76,1,4409,53.32234699,-6.393074714
4319_2039,2,1357473600000000,1,747,46,1,2039,53.2948314,-6.134785099
4319_2039,2,1357470000000000,1,747,46,1,2039,53.2948314,-6.134785099
2039_2499,1,1357473600000000,1,46,747,1,2499,53.34806517,-6.247145101
6059_1076,2,1357567200000000,1,46,140,1,1076,53.32315689,-6.265444961
6059_1076,2,1357545600000000,1,46,140,1,1076,53.32315689,-6.265444961
2021_3665,6,1357477200000000,1,46,747,1,3665,53.42811351,-6.244123692
2021_3665,6,1357488000000000,1,46,747,1,3665,53.42811351,-6.244123692
2021_3665,6,1357563600000000,1,46,747,1,3665,53.42811351,-6.244123692
2021_3665,6,1357581600000000,1,46,747,1,3665,53.42811351,-6.244123692
2021_3665,6,1357509600000000,1,46,747,1,3665,53.42811351,-6.244123692
2021_3665,6,1357574400000000,1,46,747,1,3665,53.42811351,-6.244123692
809_6059,1,1357542000000000,1,46,140,1,6059,53.35020734,-6.260245957
2066_3665,1,1357491600000000,1,46,747,1,3665,53.42811351,-6.244123692
807_7,1,1357581600000000,1,46,140,1,7,53.35283171,-6.264555613
797_3665,13,1357473600000000,1,46,747,1,3665,53.42811351,-6.244123692
797_3665,13,1357462800000000,1,46,747,1,3665,53.42811351,-6.244123692
797_3665,13,1357542000000000,1,46,747,1,3665,53.42811351,-6.244123692
797_3665,13,1357502400000000,1,46,747,1,3665,53.42811351,-6.244123692
797_3665,13,1357581600000000,1,46,747,1,3665,53.42811351,-6.244123692
797_3665,13,1357506000000000,1,46,747,1,3665,53.42811351,-6.244123692
797_3665,13,1357560000000000,1,46,747,1,3665,53.42811351,-6.244123692
797_3665,13,1357570800000000,2,46,747,2,3665,53.42811351,-6.244123692
797_3665,13,1357545600000000,1,46,747,1,3665,53.42811351,-6.244123692
797_3665,13,1357574400000000,1,46,747,1,3665,53.42811351,-6.244123692
797_3665,13,1357549200000000,2,46,747,2,3665,53.42811351,-6.244123692
4348_7398,1,1357549200000000,1,76,747,1,7398,53.3474992,-6.239838352
198_406,1,1357542000000000,1,140,46,1,406,53.34261622,-6.256199628
4565_4319,2,1357581600000000,1,46,747,1,4319,53.34676557,-6.292018441
4565_4319,2,1357470000000000,1,46,747,1,4319,53.34676557,-6.292018441
4319_2032,1,1357542000000000,1,747,46,1,2032,53.28948627,-6.144768187
7216_845,1,1357552800000000,1,747,46,1,845,53.33545323,-6.256236611
817_3665,1,1357477200000000,1,46,747,1,3665,53.42811351,-6.244123692
199_3665,1,1357592400000000,1,140,747,1,3665,53.42811351,-6.244123692
4319_747,1,1357549200000000,1,747,46,1,747,53.33993036,-6.255693501
1069_3665,3,1357567200000000,1,140,747,1,3665,53.42811351,-6.244123692
1069_3665,3,1357560000000000,1,140,747,1,3665,53.42811351,-6.244123692
1069_3665,3,1357466400000000,1,140,747,1,3665,53.42811351,-6.244123692
800_4319,1,1357549200000000,1,46,747,1,4319,53.34676557,-6.292018441
1531_4724,1,1357545600000000,1,140,747,1,4724,53.35052019,-6.260743945
403_3665,9,1357578000000000,2,140,747,2,3665,53.42811351,-6.244123692
403_3665,9,1357567200000000,1,140,747,1,3665,53.42811351,-6.244123692
403_3665,9,1357581600000000,1,140,747,1,3665,53.42811351,-6.244123692
403_3665,9,1357484400000000,1,140,747,1,3665,53.42811351,-6.244123692
403_3665,9,1357560000000000,1,140,747,1,3665,53.42811351,-6.244123692
403_3665,9,1357570800000000,1,140,747,1,3665,53.42811351,-6.244123692
403_3665,9,1357585200000000,1,140,747,1,3665,53.42811351,-6.244123692
403_3665,9,1357491600000000,1,140,747,1,3665,53.42811351,-6.244123692
2039_4319,3,1357542000000000,1,46,747,1,4319,53.34676557,-6.292018441
2039_4319,3,1357502400000000,1,46,747,1,4319,53.34676557,-6.292018441
2039_4319,3,1357599600000000,1,46,747,1,4319,53.34676557,-6.292018441
1072_3665,1,1357560000000000,1,140,747,1,3665,53.42811351,-6.244123692
792_6074,1,1357545600000000,1,46,140,1,6074,53.33589471,-6.257540035
337_3665,6,1357477200000000,1,46,747,1,3665,53.42811351,-6.244123692
337_3665,6,1357542000000000,2,46,747,2,3665,53.42811351,-6.244123692
337_3665,6,1357506000000000,1,46,747,1,3665,53.42811351,-6.244123692
337_3665,6,1357545600000000,2,46,747,2,3665,53.42811351,-6.244123692
7400_794,1,1357549200000000,1,747,46,1,794,53.34354738,-6.260261816
1067_3665,1,1357574400000000,1,140,747,1,3665,53.42811351,-6.244123692
3665_6276,1,1357588800000000,1,747,140,1,6276,53.40608507,-6.291913978
2158_6361,1,1357552800000000,1,76,140,1,6361,53.4059394,-6.291784446
2068_6059,1,1357585200000000,1,46,140,1,6059,53.35020734,-6.260245957
7398_807,1,1357538400000000,1,747,46,1,807,53.3515563,-6.297685373
809_7398,1,1357563600000000,1,46,747,1,7398,53.3474992,-6.239838352
6042_4724,1,1357488000000000,1,140,747,1,4724,53.35052019,-6.260743945
4409_3665,1,1357578000000000,1,76,747,1,3665,53.42811351,-6.244123692
1172_198,1,1357552800000000,1,747,140,1,198,53.36162538,-6.27283781
4319_2021,2,1357480800000000,1,747,46,1,2021,53.27817732,-6.164408382
4319_2021,2,1357542000000000,1,747,46,1,2021,53.27817732,-6.164408382
406_4341,2,1357473600000000,1,46,76,1,4341,53.28564665,-6.372359628
406_4341,2,1357545600000000,1,46,76,1,4341,53.28564665,-6.372359628
6059_4319,8,1357581600000000,1,140,747,1,4319,53.34676557,-6.292018441
6059_4319,8,1357556400000000,1,140,747,1,4319,53.34676557,-6.292018441
6059_4319,8,1357560000000000,1,140,747,1,4319,53.34676557,-6.292018441
6059_4319,8,1357585200000000,1,140,747,1,4319,53.34676557,-6.292018441
6059_4319,8,1357574400000000,1,46,747,1,4319,53.34676557,-6.292018441
6059_4319,8,1357549200000000,3,140,747,1,4319,53.34676557,-6.292018441
6059_4319,8,1357549200000000,3,46,747,2,4319,53.34676557,-6.292018441
2345_4319,1,1357549200000000,1,76,747,1,4319,53.34676557,-6.292018441
807_4795,1,1357488000000000,1,46,76,1,4795,53.35240864,-6.395519265
7400_406,1,1357563600000000,1,747,46,1,406,53.34261622,-6.256199628
3665_808,1,1357484400000000,1,747,46,1,808,53.35399446,-6.295334812
818_7400,1,1357549200000000,1,46,747,1,7400,53.42674583,-6.239138862
3665_807,49,1357578000000000,1,747,46,1,807,53.3515563,-6.297685373
3665_807,49,1357473600000000,2,747,46,2,807,53.3515563,-6.297685373
3665_807,49,1357488000000000,3,747,46,3,807,53.3515563,-6.297685373
3665_807,49,1357462800000000,1,747,46,1,807,53.3515563,-6.297685373
3665_807,49,1357552800000000,1,747,46,1,807,53.3515563,-6.297685373
3665_807,49,1357542000000000,7,747,46,7,807,53.3515563,-6.297685373
3665_807,49,1357498800000000,1,747,46,1,807,53.3515563,-6.297685373
3665_807,49,1357484400000000,1,747,46,1,807,53.3515563,-6.297685373
3665_807,49,1357495200000000,2,747,46,2,807,53.3515563,-6.297685373
3665_807,49,1357556400000000,2,747,46,2,807,53.3515563,-6.297685373
3665_807,49,1357506000000000,2,747,46,2,807,53.3515563,-6.297685373
3665_807,49,1357466400000000,3,747,46,3,807,53.3515563,-6.297685373
3665_807,49,1357574400000000,2,747,46,2,807,53.3515563,-6.297685373
3665_807,49,1357477200000000,2,747,46,2,807,53.3515563,-6.297685373
3665_807,49,1357513200000000,1,747,46,1,807,53.3515563,-6.297685373
3665_807,49,1357563600000000,4,747,46,4,807,53.3515563,-6.297685373
3665_807,49,1357560000000000,1,747,46,1,807,53.3515563,-6.297685373
3665_807,49,1357470000000000,5,747,46,5,807,53.3515563,-6.297685373
3665_807,49,1357491600000000,6,747,46,6,807,53.3515563,-6.297685373
3665_807,49,1357549200000000,2,747,46,2,807,53.3515563,-6.297685373
334_7398,3,1357545600000000,1,46,747,1,7398,53.3474992,-6.239838352
334_7398,3,1357470000000000,1,46,747,1,7398,53.3474992,-6.239838352
334_7398,3,1357549200000000,1,46,747,1,7398,53.3474992,-6.239838352
3665_809,4,1357462800000000,1,747,46,1,809,53.35525154,-6.293361691
3665_809,4,1357563600000000,1,747,46,1,809,53.35525154,-6.293361691
3665_809,4,1357545600000000,1,747,46,1,809,53.35525154,-6.293361691
3665_809,4,1357466400000000,1,747,46,1,809,53.35525154,-6.293361691
1508_3665,2,1357552800000000,1,140,747,1,3665,53.42811351,-6.244123692
1508_3665,2,1357592400000000,1,140,747,1,3665,53.42811351,-6.244123692
2697_3665,5,1357567200000000,1,76,747,1,3665,53.42811351,-6.244123692
2697_3665,5,1357502400000000,1,76,747,1,3665,53.42811351,-6.244123692
2697_3665,5,1357563600000000,1,76,747,1,3665,53.42811351,-6.244123692
2697_3665,5,1357484400000000,1,76,747,1,3665,53.42811351,-6.244123692
2697_3665,5,1357470000000000,1,76,747,1,3665,53.42811351,-6.244123692
6364_7453,1,1357549200000000,1,140,747,1,7453,53.34633589,-6.278382504
274_807,1,1357563600000000,1,140,46,1,807,53.3515563,-6.297685373
768_6364,1,1357574400000000,1,46,140,1,6364,53.40258254,-6.301559396
2039_2158,1,1357599600000000,1,46,76,1,2158,53.32540349,-6.395121626
807_2123,1,1357491600000000,1,46,76,1,2123,53.34717583,-6.3980589
4319_4795,1,1357542000000000,1,747,76,1,4795,53.35240864,-6.395519265
797_1359,1,1357473600000000,1,46,747,1,1359,53.34439919,-6.26135358
406_403,1,1357545600000000,1,46,140,1,403,53.34271329,-6.256691284
4341_334,1,1357506000000000,1,76,46,1,334,53.34655465,-6.258156712
1532_2035,1,1357480800000000,1,140,46,1,2035,53.29577235,-6.142665422
4319_406,1,1357549200000000,1,747,46,1,406,53.34261622,-6.256199628
4341_7398,1,1357491600000000,1,76,747,1,7398,53.3474992,-6.239838352
334_6074,1,1357578000000000,1,46,140,1,6074,53.33589471,-6.257540035
453_3665,1,1357545600000000,1,46,747,1,3665,53.42811351,-6.244123692
6366_3665,7,1357578000000000,1,140,747,1,3665,53.42811351,-6.244123692
6366_3665,7,1357488000000000,1,140,747,1,3665,53.42811351,-6.244123692
6366_3665,7,1357563600000000,1,140,747,1,3665,53.42811351,-6.244123692
6366_3665,7,1357502400000000,1,140,747,1,3665,53.42811351,-6.244123692
6366_3665,7,1357498800000000,1,140,747,1,3665,53.42811351,-6.244123692
6366_3665,7,1357495200000000,1,140,747,1,3665,53.42811351,-6.244123692
6366_3665,7,1357556400000000,1,140,747,1,3665,53.42811351,-6.244123692
4798_6059,1,1357545600000000,1,76,140,1,6059,53.35020734,-6.260245957
796_7400,1,1357498800000000,1,46,747,1,7400,53.42674583,-6.239138862
3665_804,1,1357578000000000,1,747,46,1,804,53.35368477,-6.295677667
4319_2007,1,1357466400000000,1,747,46,1,2007,53.30883844,-6.21606771
3665_803,1,1357498800000000,1,747,46,1,803,53.35471282,-6.2940292
2040_7398,1,1357495200000000,1,46,747,1,7398,53.3474992,-6.239838352
807_4798,1,1357585200000000,1,46,76,1,4798,53.3455514,-6.380922565
2039_1070,1,1357542000000000,1,46,140,1,1070,53.32497098,-6.265341344
1531_3665,2,1357552800000000,1,140,747,1,3665,53.42811351,-6.244123692
1531_3665,2,1357560000000000,1,140,747,1,3665,53.42811351,-6.244123692
2039_4341,2,1357542000000000,1,46,76,1,4341,53.28564665,-6.372359628
2039_4341,2,1357585200000000,1,46,76,1,4341,53.28564665,-6.372359628
4319_4542,1,1357552800000000,1,747,140,1,4542,53.38666393,-6.297081618
807_4319,28,1357578000000000,1,46,747,1,4319,53.34676557,-6.292018441
807_4319,28,1357473600000000,1,46,747,1,4319,53.34676557,-6.292018441
807_4319,28,1357567200000000,1,46,747,1,4319,53.34676557,-6.292018441
807_4319,28,1357552800000000,2,46,747,2,4319,53.34676557,-6.292018441
807_4319,28,1357480800000000,1,46,747,1,4319,53.34676557,-6.292018441
807_4319,28,1357542000000000,3,46,747,3,4319,53.34676557,-6.292018441
807_4319,28,1357498800000000,1,46,747,1,4319,53.34676557,-6.292018441
807_4319,28,1357585200000000,2,46,747,2,4319,53.34676557,-6.292018441
807_4319,28,1357466400000000,6,46,747,6,4319,53.34676557,-6.292018441
807_4319,28,1357574400000000,2,46,747,2,4319,53.34676557,-6.292018441
807_4319,28,1357588800000000,1,46,747,1,4319,53.34676557,-6.292018441
807_4319,28,1357477200000000,1,46,747,1,4319,53.34676557,-6.292018441
807_4319,28,1357502400000000,1,46,747,1,4319,53.34676557,-6.292018441
807_4319,28,1357570800000000,1,46,747,1,4319,53.34676557,-6.292018441
807_4319,28,1357470000000000,3,46,747,3,4319,53.34676557,-6.292018441
807_4319,28,1357509600000000,1,46,747,1,4319,53.34676557,-6.292018441
2068_6074,1,1357574400000000,1,46,140,1,6074,53.33589471,-6.257540035
2656_3665,5,1357578000000000,1,76,747,1,3665,53.42811351,-6.244123692
2656_3665,5,1357567200000000,1,76,747,1,3665,53.42811351,-6.244123692
2656_3665,5,1357462800000000,1,76,747,1,3665,53.42811351,-6.244123692
2656_3665,5,1357563600000000,1,76,747,1,3665,53.42811351,-6.244123692
2656_3665,5,1357574400000000,1,76,747,1,3665,53.42811351,-6.244123692
4319_814,1,1357495200000000,1,747,46,1,814,53.36053082,-6.276082396
2017_6059,1,1357560000000000,1,46,140,1,6059,53.35020734,-6.260245957
2039_271,1,1357556400000000,1,46,747,1,271,53.34858826,-6.259545833
7453_3665,1,1357596000000000,1,46,747,1,3665,53.42811351,-6.244123692
3665_1506,1,1357578000000000,1,747,140,1,1506,53.36676884,-6.272374273
2021_4319,2,1357545600000000,1,46,747,1,4319,53.34676557,-6.292018441
2021_4319,2,1357491600000000,1,46,747,1,4319,53.34676557,-6.292018441
4565_3665,9,1357578000000000,2,46,747,2,3665,53.42811351,-6.244123692
4565_3665,9,1357588800000000,1,46,747,1,3665,53.42811351,-6.244123692
4565_3665,9,1357567200000000,1,46,747,1,3665,53.42811351,-6.244123692
4565_3665,9,1357488000000000,1,46,747,1,3665,53.42811351,-6.244123692
4565_3665,9,1357552800000000,1,46,747,1,3665,53.42811351,-6.244123692
4565_3665,9,1357581600000000,1,46,747,1,3665,53.42811351,-6.244123692
4565_3665,9,1357570800000000,1,46,747,1,3665,53.42811351,-6.244123692
4565_3665,9,1357491600000000,1,46,747,1,3665,53.42811351,-6.244123692
391_3665,1,1357549200000000,1,46,747,1,3665,53.42811351,-6.244123692
6042_3665,1,1357574400000000,1,140,747,1,3665,53.42811351,-6.244123692
6276_7400,1,1357581600000000,1,140,747,1,7400,53.42674583,-6.239138862
1069_4319,2,1357560000000000,2,140,747,2,4319,53.34676557,-6.292018441
794_274,1,1357466400000000,1,46,140,1,274,53.35034843,-6.260675831
1072_4319,1,1357545600000000,1,140,747,1,4319,53.34676557,-6.292018441
800_3665,2,1357581600000000,1,46,747,1,3665,53.42811351,-6.244123692
800_3665,2,1357556400000000,1,46,747,1,3665,53.42811351,-6.244123692
190_3665,1,1357588800000000,1,140,747,1,3665,53.42811351,-6.244123692
3665_6074,3,1357578000000000,1,747,140,1,6074,53.33589471,-6.257540035
3665_6074,3,1357545600000000,1,747,140,1,6074,53.33589471,-6.257540035
3665_6074,3,1357549200000000,1,747,140,1,6074,53.33589471,-6.257540035
800_403,1,1357581600000000,1,46,140,1,403,53.34271329,-6.256691284
2126_7,1,1357545600000000,1,76,140,1,7,53.35283171,-6.264555613
2035_7149,1,1357549200000000,1,46,140,1,7149,53.40729605,-6.277982239
2036_4319,2,1357581600000000,1,46,747,1,4319,53.34676557,-6.292018441
2036_4319,2,1357549200000000,1,46,747,1,4319,53.34676557,-6.292018441
790_3665,2,1357581600000000,1,140,747,1,3665,53.42811351,-6.244123692
790_3665,2,1357509600000000,1,46,747,1,3665,53.42811351,-6.244123692
403_4319,2,1357592400000000,1,140,747,1,4319,53.34676557,-6.292018441
403_4319,2,1357549200000000,1,140,747,1,4319,53.34676557,-6.292018441
7_2062,1,1357542000000000,1,140,46,1,2062,53.27905174,-6.186895745
2126_3665,4,1357552800000000,1,76,747,1,3665,53.42811351,-6.244123692
2126_3665,4,1357563600000000,1,76,747,1,3665,53.42811351,-6.244123692
2126_3665,4,1357466400000000,1,76,747,1,3665,53.42811351,-6.244123692
2126_3665,4,1357549200000000,1,76,747,1,3665,53.42811351,-6.244123692
2861_7400,1,1357574400000000,1,116,747,1,7400,53.42674583,-6.239138862
3322_3665,1,1357563600000000,1,46,747,1,3665,53.42811351,-6.244123692
2045_6059,1,1357574400000000,1,46,140,1,6059,53.35020734,-6.260245957
804_198,1,1357495200000000,1,46,140,1,198,53.36162538,-6.27283781
1511_3665,1,1357588800000000,1,140,747,1,3665,53.42811351,-6.244123692
6059_274,1,1357567200000000,1,46,140,1,274,53.35034843,-6.260675831
6361_3665,6,1357567200000000,1,140,747,1,3665,53.42811351,-6.244123692
6361_3665,6,1357542000000000,1,140,747,1,3665,53.42811351,-6.244123692
6361_3665,6,1357556400000000,1,140,747,1,3665,53.42811351,-6.244123692
6361_3665,6,1357545600000000,1,140,747,1,3665,53.42811351,-6.244123692
6361_3665,6,1357574400000000,2,140,747,2,3665,53.42811351,-6.244123692
2084_3665,1,1357545600000000,1,46,747,1,3665,53.42811351,-6.244123692
6059_3665,39,1357578000000000,4,46,747,4,3665,53.42811351,-6.244123692
6059_3665,39,1357473600000000,1,46,747,1,3665,53.42811351,-6.244123692
6059_3665,39,1357488000000000,1,140,747,1,3665,53.42811351,-6.244123692
6059_3665,39,1357462800000000,1,46,747,1,3665,53.42811351,-6.244123692
6059_3665,39,1357552800000000,3,46,747,3,3665,53.42811351,-6.244123692
6059_3665,39,1357480800000000,1,46,747,1,3665,53.42811351,-6.244123692
6059_3665,39,1357542000000000,1,46,747,1,3665,53.42811351,-6.244123692
6059_3665,39,1357484400000000,1,46,747,1,3665,53.42811351,-6.244123692
6059_3665,39,1357556400000000,2,46,747,2,3665,53.42811351,-6.244123692
6059_3665,39,1357545600000000,2,140,747,1,3665,53.42811351,-6.244123692
6059_3665,39,1357545600000000,2,46,747,1,3665,53.42811351,-6.244123692
6059_3665,39,1357574400000000,3,140,747,1,3665,53.42811351,-6.244123692
6059_3665,39,1357574400000000,3,46,747,2,3665,53.42811351,-6.244123692
6059_3665,39,1357588800000000,2,46,747,2,3665,53.42811351,-6.244123692
6059_3665,39,1357477200000000,2,46,747,2,3665,53.42811351,-6.244123692
6059_3665,39,1357538400000000,1,46,747,1,3665,53.42811351,-6.244123692
6059_3665,39,1357563600000000,2,46,747,2,3665,53.42811351,-6.244123692
6059_3665,39,1357581600000000,4,140,747,2,3665,53.42811351,-6.244123692
6059_3665,39,1357581600000000,4,46,747,2,3665,53.42811351,-6.244123692
6059_3665,39,1357570800000000,2,140,747,1,3665,53.42811351,-6.244123692
6059_3665,39,1357570800000000,2,46,747,1,3665,53.42811351,-6.244123692
6059_3665,39,1357560000000000,1,46,747,1,3665,53.42811351,-6.244123692
6059_3665,39,1357509600000000,1,46,747,1,3665,53.42811351,-6.244123692
6059_3665,39,1357491600000000,2,46,747,2,3665,53.42811351,-6.244123692
6059_3665,39,1357549200000000,2,140,747,1,3665,53.42811351,-6.244123692
6059_3665,39,1357549200000000,2,46,747,1,3665,53.42811351,-6.244123692
435_1532,1,1357549200000000,1,46,140,1,1532,53.38168893,-6.290470518
2039_7400,1,1357473600000000,1,46,747,1,7400,53.42674583,-6.239138862
747_3665,7,1357578000000000,1,46,747,1,3665,53.42811351,-6.244123692
747_3665,7,1357477200000000,1,46,747,1,3665,53.42811351,-6.244123692
747_3665,7,1357567200000000,1,46,747,1,3665,53.42811351,-6.244123692
747_3665,7,1357563600000000,1,46,747,1,3665,53.42811351,-6.244123692
747_3665,7,1357560000000000,2,46,747,2,3665,53.42811351,-6.244123692
747_3665,7,1357570800000000,1,46,747,1,3665,53.42811351,-6.244123692
4341_2507,1,1357473600000000,1,76,747,1,2507,53.34820067,-6.227116958
406_7400,1,1357506000000000,1,46,747,1,7400,53.42674583,-6.239138862
845_3665,14,1357588800000000,1,46,747,1,3665,53.42811351,-6.244123692
845_3665,14,1357477200000000,1,46,747,1,3665,53.42811351,-6.244123692
845_3665,14,1357488000000000,3,46,747,3,3665,53.42811351,-6.244123692
845_3665,14,1357552800000000,1,46,747,1,3665,53.42811351,-6.244123692
845_3665,14,1357581600000000,2,46,747,2,3665,53.42811351,-6.244123692
845_3665,14,1357556400000000,2,46,747,2,3665,53.42811351,-6.244123692
845_3665,14,1357585200000000,1,46,747,1,3665,53.42811351,-6.244123692
845_3665,14,1357592400000000,1,46,747,1,3665,53.42811351,-6.244123692
845_3665,14,1357466400000000,1,46,747,1,3665,53.42811351,-6.244123692
845_3665,14,1357574400000000,1,46,747,1,3665,53.42811351,-6.244123692
1070_797,1,1357545600000000,1,140,46,1,797,53.360726,-6.274662165
6229_768,1,1357542000000000,1,140,46,1,768,53.30942919,-6.218909436
4319_845,2,1357542000000000,1,747,46,1,845,53.33545323,-6.256236611
4319_845,2,1357495200000000,1,747,46,1,845,53.33545323,-6.256236611
2697_4319,1,1357470000000000,1,76,747,1,4319,53.34676557,-6.292018441
7149_3665,4,1357567200000000,1,140,747,1,3665,53.42811351,-6.244123692
7149_3665,4,1357581600000000,3,140,747,3,3665,53.42811351,-6.244123692
3665_6059,16,1357477200000000,2,747,46,2,6059,53.35020734,-6.260245957
3665_6059,16,1357462800000000,1,747,46,1,6059,53.35020734,-6.260245957
3665_6059,16,1357542000000000,1,747,46,1,6059,53.35020734,-6.260245957
3665_6059,16,1357581600000000,3,747,140,2,6059,53.35020734,-6.260245957
3665_6059,16,1357581600000000,3,747,46,1,6059,53.35020734,-6.260245957
3665_6059,16,1357484400000000,1,747,46,1,6059,53.35020734,-6.260245957
3665_6059,16,1357556400000000,2,747,46,2,6059,53.35020734,-6.260245957
3665_6059,16,1357560000000000,1,747,46,1,6059,53.35020734,-6.260245957
3665_6059,16,1357570800000000,1,747,46,1,6059,53.35020734,-6.260245957
3665_6059,16,1357585200000000,1,747,140,1,6059,53.35020734,-6.260245957
3665_6059,16,1357545600000000,2,747,46,2,6059,53.35020734,-6.260245957
3665_6059,16,1357491600000000,1,747,46,1,6059,53.35020734,-6.260245957
334_6032,1,1357545600000000,1,46,747,1,6032,53.35205932,-6.260275682
398_3665,1,1357484400000000,1,46,747,1,3665,53.42811351,-6.244123692
786_6366,1,1357545600000000,1,46,140,1,6366,53.4026512,-6.301331065
4319_4348,1,1357563600000000,1,747,76,1,4348,53.28666326,-6.375065763
893_3665,1,1357506000000000,1,140,747,1,3665,53.42811351,-6.244123692
2018_3665,1,1357560000000000,1,46,747,1,3665,53.42811351,-6.244123692
807_3665,116,1357578000000000,1,46,747,1,3665,53.42811351,-6.244123692
807_3665,116,1357567200000000,1,46,747,1,3665,53.42811351,-6.244123692
807_3665,116,1357552800000000,6,46,747,6,3665,53.42811351,-6.244123692
807_3665,116,1357480800000000,2,46,747,2,3665,53.42811351,-6.244123692
807_3665,116,1357542000000000,8,46,747,8,3665,53.42811351,-6.244123692
807_3665,116,1357556400000000,4,46,747,4,3665,53.42811351,-6.244123692
807_3665,116,1357506000000000,8,46,747,8,3665,53.42811351,-6.244123692
807_3665,116,1357466400000000,6,46,747,6,3665,53.42811351,-6.244123692
807_3665,116,1357588800000000,2,46,747,2,3665,53.42811351,-6.244123692
807_3665,116,1357477200000000,5,46,747,5,3665,53.42811351,-6.244123692
807_3665,116,1357563600000000,10,46,747,10,3665,53.42811351,-6.244123692
807_3665,116,1357599600000000,1,46,747,1,3665,53.42811351,-6.244123692
807_3665,116,1357509600000000,1,46,747,1,3665,53.42811351,-6.244123692
807_3665,116,1357473600000000,1,46,747,1,3665,53.42811351,-6.244123692
807_3665,116,1357488000000000,4,46,747,4,3665,53.42811351,-6.244123692
807_3665,116,1357462800000000,7,46,747,7,3665,53.42811351,-6.244123692
807_3665,116,1357484400000000,5,46,747,5,3665,53.42811351,-6.244123692
807_3665,116,1357596000000000,1,46,747,1,3665,53.42811351,-6.244123692
807_3665,116,1357585200000000,2,46,747,2,3665,53.42811351,-6.244123692
807_3665,116,1357545600000000,2,46,747,2,3665,53.42811351,-6.244123692
807_3665,116,1357574400000000,6,46,747,6,3665,53.42811351,-6.244123692
807_3665,116,1357538400000000,2,46,747,2,3665,53.42811351,-6.244123692
807_3665,116,1357502400000000,2,46,747,2,3665,53.42811351,-6.244123692
807_3665,116,1357581600000000,3,46,747,3,3665,53.42811351,-6.244123692
807_3665,116,1357560000000000,4,46,747,4,3665,53.42811351,-6.244123692
807_3665,116,1357570800000000,1,46,747,1,3665,53.42811351,-6.244123692
807_3665,116,1357470000000000,10,46,747,10,3665,53.42811351,-6.244123692
807_3665,116,1357592400000000,4,46,747,4,3665,53.42811351,-6.244123692
807_3665,116,1357491600000000,6,46,747,6,3665,53.42811351,-6.244123692
807_3665,116,1357549200000000,1,46,747,1,3665,53.42811351,-6.244123692
195_4319,1,1357574400000000,1,140,747,1,4319,53.34676557,-6.292018441
807_2697,1,1357473600000000,1,46,76,1,2697,53.3422689,-6.353202977
2345_794,1,1357545600000000,1,76,46,1,794,53.34354738,-6.260261816
453_7,1,1357488000000000,1,46,140,1,7,53.35283171,-6.264555613
4319_4341,1,1357495200000000,1,747,76,1,4341,53.28564665,-6.372359628
4319_1076,1,1357570800000000,1,747,140,1,1076,53.32315689,-6.265444961
