TripBusStopKey,Frequency_ByTripBusStopKey,TimeStamp,Frequency_ByTimeStamp,FirstRouteID,SecondRouteId,Frequency_GroupedByRoutes,FirstStopId,SecondStopId,Lat,Lon
381_6085,1,1357542000000000,1,1,4,1,381,6085,53.28640594,-6.165855529
381_6086,1,1357567200000000,1,1,4,1,381,6086,53.28636311,-6.165992357
409_226,2,1357556400000000,1,4,1,1,409,226,53.39114035,-6.262185438
409_226,2,1357549200000000,1,4,1,1,409,226,53.39114035,-6.262185438
351_7330,3,1357567200000000,2,1,4,2,351,7330,53.28851641,-6.153510182
351_7330,3,1357563600000000,1,1,4,1,351,7330,53.28851641,-6.153510182
354_187,1,1357549200000000,1,1,4,1,354,187,53.36272505,-6.272432712
3116_226,2,1357552800000000,1,4,1,1,3116,226,53.39114035,-6.262185438
3116_226,2,1357570800000000,1,4,1,1,3116,226,53.39114035,-6.262185438
51_429,1,1357567200000000,1,1,4,1,51,429,53.30470787,-6.187129261
51_425,1,1357578000000000,1,1,4,1,51,425,53.31249301,-6.201462396
426_381,1,1357578000000000,1,4,1,1,426,381,53.32419666,-6.212289434
221_7330,1,1357574400000000,1,1,4,1,221,7330,53.28851641,-6.153510182
112_381,2,1357560000000000,1,4,1,1,112,381,53.32419666,-6.212289434
112_381,2,1357545600000000,1,4,1,1,112,381,53.32419666,-6.212289434
1642_410,1,1357581600000000,1,1,4,1,1642,410,53.33881323,-6.243875382
226_198,6,1357588800000000,1,1,4,1,226,198,53.36162538,-6.27283781
226_198,6,1357552800000000,1,1,4,1,226,198,53.36162538,-6.27283781
226_198,6,1357563600000000,1,1,4,1,226,198,53.36162538,-6.27283781
226_198,6,1357570800000000,1,1,4,1,226,198,53.36162538,-6.27283781
226_198,6,1357585200000000,1,1,4,1,226,198,53.36162538,-6.27283781
226_198,6,1357574400000000,1,1,4,1,226,198,53.36162538,-6.27283781
226_195,1,1357585200000000,1,1,4,1,226,195,53.35500171,-6.273496272
198_381,4,1357552800000000,1,4,1,1,198,381,53.32419666,-6.212289434
198_381,4,1357563600000000,1,4,1,1,198,381,53.32419666,-6.212289434
198_381,4,1357574400000000,1,4,1,1,198,381,53.32419666,-6.212289434
198_381,4,1357549200000000,1,4,1,1,198,381,53.32419666,-6.212289434
374_419,1,1357549200000000,1,1,4,1,374,419,53.3239859,-6.220434874
281_21,1,1357574400000000,1,4,1,1,281,21,53.370092,-6.254295947
278_7330,4,1357567200000000,1,1,4,1,278,7330,53.28851641,-6.153510182
278_7330,4,1357560000000000,1,1,4,1,278,7330,53.28851641,-6.153510182
278_7330,4,1357585200000000,1,1,4,1,278,7330,53.28851641,-6.153510182
278_7330,4,1357574400000000,1,1,4,1,278,7330,53.28851641,-6.153510182
2026_381,2,1357567200000000,1,4,1,1,2026,381,53.32419666,-6.212289434
2026_381,2,1357549200000000,1,4,1,1,2026,381,53.32419666,-6.212289434
278_94,1,1357563600000000,1,1,4,1,278,94,53.39603476,-6.26437696
354_198,1,1357549200000000,1,1,4,1,354,198,53.36162538,-6.27283781
378_2026,1,1357588800000000,1,1,4,1,378,2026,53.28665281,-6.159710257
378_3116,1,1357585200000000,1,1,4,1,378,3116,53.28992246,-6.167159913
411_381,2,1357581600000000,1,4,1,1,411,381,53.32419666,-6.212289434
411_381,2,1357585200000000,1,4,1,1,411,381,53.32419666,-6.212289434
200_319,1,1357596000000000,1,4,1,1,200,319,53.34596879,-6.259277046
385_27,1,1357570800000000,1,1,4,1,385,27,53.37943874,-6.266570239
17_2026,1,1357574400000000,1,1,4,1,17,2026,53.28665281,-6.159710257
226_187,1,1357574400000000,1,1,4,1,226,187,53.36272505,-6.272432712
44_7330,1,1357588800000000,1,1,4,1,44,7330,53.28851641,-6.153510182
19_405,1,1357560000000000,1,1,4,1,19,405,53.34248147,-6.255589363
2026_391,1,1357560000000000,1,4,1,1,2026,391,53.34008227,-6.223954622
201_389,1,1357542000000000,1,4,1,1,201,389,53.33529839,-6.219588495
198_385,1,1357585200000000,1,4,1,1,198,385,53.33235102,-6.211227688
319_400,1,1357556400000000,1,1,4,1,319,400,53.34475927,-6.252777849
391_112,1,1357545600000000,1,1,4,1,391,112,53.39614564,-6.263966435
391_476,1,1357545600000000,1,1,4,1,391,476,53.31574254,-6.2047629
377_148,1,1357560000000000,1,1,4,1,377,148,53.37066118,-6.268068872
91_226,2,1357549200000000,2,4,1,2,91,226,53.39114035,-6.262185438
479_4451,1,1357545600000000,1,4,1,1,479,4451,53.32594337,-6.207697507
271_7330,7,1357563600000000,1,1,4,1,271,7330,53.28851641,-6.153510182
271_7330,7,1357581600000000,2,1,4,2,271,7330,53.28851641,-6.153510182
271_7330,7,1357585200000000,2,1,4,2,271,7330,53.28851641,-6.153510182
271_7330,7,1357592400000000,1,1,4,1,271,7330,53.28851641,-6.153510182
271_7330,7,1357574400000000,1,1,4,1,271,7330,53.28851641,-6.153510182
2051_381,3,1357578000000000,1,4,1,1,2051,381,53.32419666,-6.212289434
2051_381,3,1357563600000000,1,4,1,1,2051,381,53.32419666,-6.212289434
2051_381,3,1357556400000000,1,4,1,1,2051,381,53.32419666,-6.212289434
319_419,1,1357596000000000,1,1,4,1,319,419,53.3239859,-6.220434874
127_381,4,1357578000000000,1,4,1,1,127,381,53.32419666,-6.212289434
127_381,4,1357570800000000,1,4,1,1,127,381,53.32419666,-6.212289434
127_381,4,1357545600000000,1,4,1,1,127,381,53.32419666,-6.212289434
127_381,4,1357549200000000,1,4,1,1,127,381,53.32419666,-6.212289434
391_480,1,1357563600000000,1,1,4,1,391,480,53.32084077,-6.216272578
2051_265,1,1357542000000000,1,4,1,1,2051,265,53.35336113,-6.262025354
27_226,1,1357585200000000,1,4,1,1,27,226,53.39114035,-6.262185438
402_381,1,1357570800000000,1,4,1,1,402,381,53.32419666,-6.212289434
319_411,1,1357585200000000,1,1,4,1,319,411,53.3381169,-6.241756545
4680_319,1,1357542000000000,1,4,1,1,4680,319,53.34596879,-6.259277046
387_7330,1,1357578000000000,1,1,4,1,387,7330,53.28851641,-6.153510182
383_487,1,1357574400000000,1,1,4,1,383,487,53.33080073,-6.233859519
52_149,1,1357570800000000,1,1,4,1,52,149,53.37313837,-6.265969446
399_281,1,1357560000000000,1,1,4,1,399,281,53.35091828,-6.260923017
190_381,1,1357560000000000,1,4,1,1,190,381,53.32419666,-6.212289434
271_410,1,1357563600000000,1,1,4,1,271,410,53.33881323,-6.243875382
271_411,1,1357549200000000,1,1,4,1,271,411,53.3381169,-6.241756545
273_271,1,1357560000000000,1,4,1,1,273,271,53.34858826,-6.259545833
398_480,1,1357578000000000,1,1,4,1,398,480,53.32084077,-6.216272578
397_427,1,1357556400000000,1,1,4,1,397,427,53.30826987,-6.195006951
381_409,1,1357545600000000,1,1,4,1,381,409,53.34013607,-6.247650569
381_408,1,1357545600000000,1,1,4,1,381,408,53.34097078,-6.25001924
15_7330,1,1357556400000000,1,1,4,1,15,7330,53.28851641,-6.153510182
489_353,1,1357552800000000,1,4,1,1,489,353,53.3426154,-6.239619013
381_402,1,1357588800000000,1,1,4,1,381,402,53.34389969,-6.259151074
271_27,1,1357581600000000,1,1,4,1,271,27,53.37943874,-6.266570239
353_198,1,1357549200000000,1,1,4,1,353,198,53.36162538,-6.27283781
381_405,2,1357538400000000,1,1,4,1,381,405,53.34248147,-6.255589363
381_405,2,1357563600000000,1,1,4,1,381,405,53.34248147,-6.255589363
273_278,1,1357542000000000,1,4,1,1,273,278,53.35135252,-6.261115643
223_127,1,1357570800000000,1,1,4,1,223,127,53.39910731,-6.263665399
371_7330,1,1357585200000000,1,1,4,1,371,7330,53.28851641,-6.153510182
48_7330,1,1357560000000000,1,1,4,1,48,7330,53.28851641,-6.153510182
184_381,3,1357563600000000,1,4,1,1,184,381,53.32419666,-6.212289434
184_381,3,1357570800000000,1,4,1,1,184,381,53.32419666,-6.212289434
184_381,3,1357592400000000,1,4,1,1,184,381,53.32419666,-6.212289434
495_353,1,1357549200000000,1,4,1,1,495,353,53.3426154,-6.239619013
12_410,1,1357574400000000,1,1,4,1,12,410,53.33881323,-6.243875382
226_4725,4,1357588800000000,1,1,4,1,226,4725,53.35210685,-6.261069913
226_4725,4,1357596000000000,1,1,4,1,226,4725,53.35210685,-6.261069913
226_4725,4,1357570800000000,1,1,4,1,226,4725,53.35210685,-6.261069913
226_4725,4,1357549200000000,1,1,4,1,226,4725,53.35210685,-6.261069913
352_281,1,1357552800000000,1,1,4,1,352,281,53.35091828,-6.260923017
351_113,1,1357560000000000,1,1,4,1,351,113,53.39226774,-6.263688227
381_4725,8,1357588800000000,2,1,4,2,381,4725,53.35210685,-6.261069913
381_4725,8,1357581600000000,2,1,4,2,381,4725,53.35210685,-6.261069913
381_4725,8,1357596000000000,2,1,4,2,381,4725,53.35210685,-6.261069913
381_4725,8,1357570800000000,1,1,4,1,381,4725,53.35210685,-6.261069913
381_4725,8,1357574400000000,1,1,4,1,381,4725,53.35210685,-6.261069913
198_226,2,1357567200000000,1,4,1,1,198,226,53.39114035,-6.262185438
198_226,2,1357552800000000,1,4,1,1,198,226,53.39114035,-6.262185438
112_226,1,1357596000000000,1,4,1,1,112,226,53.39114035,-6.262185438
46_147,1,1357552800000000,1,1,4,1,46,147,53.37248023,-6.265830862
3084_381,1,1357592400000000,1,4,1,1,3084,381,53.32419666,-6.212289434
480_271,1,1357545600000000,1,4,1,1,480,271,53.34858826,-6.259545833
392_190,1,1357552800000000,1,1,4,1,392,190,53.35511675,-6.273371437
495_381,1,1357574400000000,1,4,1,1,495,381,53.32419666,-6.212289434
352_273,2,1357570800000000,1,1,4,1,352,273,53.347238,-6.258789745
352_273,2,1357574400000000,1,1,4,1,352,273,53.347238,-6.258789745
113_381,1,1357560000000000,1,4,1,1,113,381,53.32419666,-6.212289434
351_471,1,1357560000000000,1,1,4,1,351,471,53.30687058,-6.191044302
402_226,1,1357549200000000,1,4,1,1,402,226,53.39114035,-6.262185438
225_7330,1,1357556400000000,1,1,4,1,225,7330,53.28851641,-6.153510182
14_7330,1,1357570800000000,1,1,4,1,14,7330,53.28851641,-6.153510182
273_381,2,1357563600000000,1,4,1,1,273,381,53.32419666,-6.212289434
273_381,2,1357549200000000,1,4,1,1,273,381,53.32419666,-6.212289434
112_119,1,1357560000000000,1,4,1,1,112,119,53.37508335,-6.250815227
190_278,1,1357552800000000,1,4,1,1,190,278,53.35135252,-6.261115643
399_127,1,1357545600000000,1,1,4,1,399,127,53.39910731,-6.263665399
127_226,2,1357563600000000,1,4,1,1,127,226,53.39114035,-6.262185438
127_226,2,1357560000000000,1,4,1,1,127,226,53.39114035,-6.262185438
7330_52,1,1357549200000000,1,4,1,1,7330,52,53.35664238,-6.264535983
6334_371,1,1357578000000000,1,4,1,1,6334,371,53.33859504,-6.223070338
226_489,1,1357549200000000,1,1,4,1,226,489,53.33494178,-6.237337306
226_126,2,1357581600000000,1,1,4,1,226,126,53.39909547,-6.264086961
226_126,2,1357596000000000,1,1,4,1,226,126,53.39909547,-6.264086961
226_487,1,1357588800000000,1,1,4,1,226,487,53.33080073,-6.233859519
226_488,1,1357570800000000,1,1,4,1,226,488,53.33309833,-6.236061941
381_7330,82,1357578000000000,6,1,4,6,381,7330,53.28851641,-6.153510182
381_7330,82,1357567200000000,5,1,4,5,381,7330,53.28851641,-6.153510182
381_7330,82,1357552800000000,9,1,4,9,381,7330,53.28851641,-6.153510182
381_7330,82,1357542000000000,1,1,4,1,381,7330,53.28851641,-6.153510182
381_7330,82,1357556400000000,5,1,4,5,381,7330,53.28851641,-6.153510182
381_7330,82,1357596000000000,3,1,4,3,381,7330,53.28851641,-6.153510182
381_7330,82,1357585200000000,4,1,4,4,381,7330,53.28851641,-6.153510182
381_7330,82,1357545600000000,4,1,4,4,381,7330,53.28851641,-6.153510182
381_7330,82,1357574400000000,6,1,4,6,381,7330,53.28851641,-6.153510182
381_7330,82,1357588800000000,5,1,4,5,381,7330,53.28851641,-6.153510182
381_7330,82,1357538400000000,1,1,4,1,381,7330,53.28851641,-6.153510182
381_7330,82,1357563600000000,6,1,4,6,381,7330,53.28851641,-6.153510182
381_7330,82,1357581600000000,7,1,4,7,381,7330,53.28851641,-6.153510182
381_7330,82,1357599600000000,1,1,4,1,381,7330,53.28851641,-6.153510182
381_7330,82,1357560000000000,5,1,4,5,381,7330,53.28851641,-6.153510182
381_7330,82,1357570800000000,6,1,4,6,381,7330,53.28851641,-6.153510182
381_7330,82,1357592400000000,6,1,4,6,381,7330,53.28851641,-6.153510182
381_7330,82,1357549200000000,2,1,4,2,381,7330,53.28851641,-6.153510182
281_226,1,1357567200000000,1,4,1,1,281,226,53.39114035,-6.262185438
226_483,1,1357556400000000,1,1,4,1,226,483,53.32592592,-6.223957223
273_226,2,1357556400000000,1,4,1,1,273,226,53.39114035,-6.262185438
273_226,2,1357596000000000,1,4,1,1,273,226,53.39114035,-6.262185438
395_7330,1,1357563600000000,1,1,4,1,395,7330,53.28851641,-6.153510182
3115_381,1,1357567200000000,1,4,1,1,3115,381,53.32419666,-6.212289434
353_422,1,1357574400000000,1,1,4,1,353,422,53.31806397,-6.21030928
377_3116,1,1357581600000000,1,1,4,1,377,3116,53.28992246,-6.167159913
265_7330,1,1357552800000000,1,1,4,1,265,7330,53.28851641,-6.153510182
17_94,1,1357556400000000,1,1,4,1,17,94,53.39603476,-6.26437696
203_495,1,1357574400000000,1,1,4,1,203,495,53.34358212,-6.249732063
188_353,1,1357542000000000,1,4,1,1,188,353,53.3426154,-6.239619013
148_226,1,1357545600000000,1,4,1,1,148,226,53.39114035,-6.262185438
226_115,1,1357560000000000,1,1,4,1,226,115,53.38793714,-6.265037196
226_478,1,1357567200000000,1,1,4,1,226,478,53.31810532,-6.211268201
226_479,1,1357570800000000,1,1,4,1,226,479,53.31913476,-6.213386661
226_113,2,1357552800000000,1,1,4,1,226,113,53.39226774,-6.263688227
226_113,2,1357563600000000,1,1,4,1,226,113,53.39226774,-6.263688227
7330_45,1,1357560000000000,1,4,1,1,7330,45,53.36988298,-6.254139184
4725_265,1,1357563600000000,1,4,1,1,4725,265,53.35336113,-6.262025354
381_3084,1,1357545600000000,1,1,4,1,381,3084,53.30138102,-6.181148417
226_112,2,1357560000000000,1,1,4,1,226,112,53.39614564,-6.263966435
226_112,2,1357574400000000,1,1,4,1,226,112,53.39614564,-6.263966435
7330_49,1,1357599600000000,1,4,1,1,7330,49,53.35995954,-6.260870353
4725_383,1,1357552800000000,1,4,1,1,4725,383,53.32860453,-6.208937191
381_324,3,1357578000000000,2,1,4,2,381,324,53.41772246,-6.278629133
381_324,3,1357570800000000,1,1,4,1,381,324,53.41772246,-6.278629133
7330_47,1,1357549200000000,1,4,1,1,7330,47,53.36390692,-6.257283606
381_322,1,1357552800000000,1,1,4,1,381,322,53.40425499,-6.265350845
7330_46,1,1357578000000000,1,4,1,1,7330,46,53.36715052,-6.255362951
381_201,1,1357581600000000,1,1,4,1,381,201,53.3682819,-6.270103972
4725_381,2,1357596000000000,1,4,1,1,4725,381,53.32419666,-6.212289434
4725_381,2,1357560000000000,1,4,1,1,4725,381,53.32419666,-6.212289434
354_475,1,1357556400000000,1,1,4,1,354,475,53.31270616,-6.201888675
354_112,1,1357574400000000,1,1,4,1,354,112,53.39614564,-6.263966435
355_495,1,1357549200000000,1,1,4,1,355,495,53.34358212,-6.249732063
15_2051,1,1357556400000000,1,1,4,1,15,2051,53.28647455,-6.159807914
412_226,2,1357578000000000,1,4,1,1,412,226,53.39114035,-6.262185438
412_226,2,1357570800000000,1,4,1,1,412,226,53.39114035,-6.262185438
415_49,1,1357560000000000,1,4,1,1,415,49,53.35995954,-6.260870353
4725_399,1,1357538400000000,1,4,1,1,4725,399,53.3438482,-6.248264308
381_413,1,1357567200000000,1,1,4,1,381,413,53.33409264,-6.236441348
381_412,2,1357581600000000,1,1,4,1,381,412,53.33525529,-6.237264312
381_412,2,1357560000000000,1,1,4,1,381,412,53.33525529,-6.237264312
381_411,1,1357570800000000,1,1,4,1,381,411,53.3381169,-6.241756545
381_416,2,1357567200000000,1,1,4,1,381,416,53.32863071,-6.229354937
381_416,2,1357552800000000,1,1,4,1,381,416,53.32863071,-6.229354937
381_415,6,1357578000000000,1,1,4,1,381,415,53.33033759,-6.232932744
381_415,6,1357542000000000,2,1,4,2,381,415,53.33033759,-6.232932744
381_415,6,1357556400000000,1,1,4,1,381,415,53.33033759,-6.232932744
381_415,6,1357560000000000,1,1,4,1,381,415,53.33033759,-6.232932744
381_415,6,1357574400000000,1,1,4,1,381,415,53.33033759,-6.232932744
381_414,1,1357563600000000,1,1,4,1,381,414,53.33151902,-6.23441542
90_381,1,1357556400000000,1,4,1,1,90,381,53.32419666,-6.212289434
340_7330,3,1357552800000000,1,1,4,1,340,7330,53.28851641,-6.153510182
340_7330,3,1357592400000000,1,1,4,1,340,7330,53.28851641,-6.153510182
340_7330,3,1357549200000000,1,1,4,1,340,7330,53.28851641,-6.153510182
391_196,1,1357560000000000,1,1,4,1,391,196,53.3568747,-6.273736052
482_226,1,1357581600000000,1,4,1,1,482,226,53.39114035,-6.262185438
51_7330,2,1357563600000000,1,1,4,1,51,7330,53.28851641,-6.153510182
51_7330,2,1357556400000000,1,1,4,1,51,7330,53.28851641,-6.153510182
45_423,1,1357556400000000,1,1,4,1,45,423,53.31714828,-6.207390658
398_487,1,1357574400000000,1,1,4,1,398,487,53.33080073,-6.233859519
7330_21,2,1357596000000000,2,4,1,2,7330,21,53.370092,-6.254295947
381_423,1,1357578000000000,1,1,4,1,381,423,53.31714828,-6.207390658
381_422,3,1357552800000000,1,1,4,1,381,422,53.31806397,-6.21030928
381_422,3,1357563600000000,1,1,4,1,381,422,53.31806397,-6.21030928
381_422,3,1357581600000000,1,1,4,1,381,422,53.31806397,-6.21030928
381_421,2,1357560000000000,1,1,4,1,381,421,53.31999597,-6.214476494
381_421,2,1357574400000000,1,1,4,1,381,421,53.31999597,-6.214476494
396_416,1,1357578000000000,1,1,4,1,396,416,53.32863071,-6.229354937
381_427,1,1357581600000000,1,1,4,1,381,427,53.30826987,-6.195006951
381_425,1,1357563600000000,1,1,4,1,381,425,53.31249301,-6.201462396
2804_7226,1,1357585200000000,1,1,4,1,2804,7226,53.28844439,-6.154083285
19_487,1,1357567200000000,1,1,4,1,19,487,53.33080073,-6.233859519
378_7330,2,1357585200000000,2,1,4,2,378,7330,53.28851641,-6.153510182
340_7226,1,1357585200000000,1,1,4,1,340,7226,53.28844439,-6.154083285
381_7226,6,1357578000000000,1,1,4,1,381,7226,53.28844439,-6.154083285
381_7226,6,1357581600000000,2,1,4,2,381,7226,53.28844439,-6.154083285
381_7226,6,1357585200000000,3,1,4,3,381,7226,53.28844439,-6.154083285
47_494,1,1357549200000000,1,1,4,1,47,494,53.3414174,-6.251667978
391_7330,1,1357585200000000,1,1,4,1,391,7330,53.28851641,-6.153510182
373_7330,1,1357545600000000,1,1,4,1,373,7330,53.28851641,-6.153510182
381_479,2,1357567200000000,1,1,4,1,381,479,53.31913476,-6.213386661
381_479,2,1357570800000000,1,1,4,1,381,479,53.31913476,-6.213386661
381_478,1,1357563600000000,1,1,4,1,381,478,53.31810532,-6.211268201
381_115,1,1357596000000000,1,1,4,1,381,115,53.38793714,-6.265037196
381_113,1,1357567200000000,1,1,4,1,381,113,53.39226774,-6.263688227
226_281,2,1357552800000000,1,1,4,1,226,281,53.35091828,-6.260923017
226_281,2,1357570800000000,1,1,4,1,226,281,53.35091828,-6.260923017
381_482,1,1357552800000000,1,1,4,1,381,482,53.32468354,-6.222012172
352_415,1,1357542000000000,1,1,4,1,352,415,53.33033759,-6.232932744
381_485,1,1357552800000000,1,1,4,1,381,485,53.32826049,-6.228634599
1642_7330,1,1357549200000000,1,1,4,1,1642,7330,53.28851641,-6.153510182
281_392,1,1357542000000000,1,4,1,1,281,392,53.34174284,-6.227429958
3116_381,1,1357552800000000,1,4,1,1,3116,381,53.32419666,-6.212289434
227_7330,1,1357585200000000,1,1,4,1,227,7330,53.28851641,-6.153510182
4725_226,2,1357567200000000,1,4,1,1,4725,226,53.39114035,-6.262185438
4725_226,2,1357563600000000,1,4,1,1,4725,226,53.39114035,-6.262185438
405_381,1,1357538400000000,1,4,1,1,405,381,53.32419666,-6.212289434
396_112,1,1357542000000000,1,1,4,1,396,112,53.39614564,-6.263966435
319_2026,1,1357549200000000,1,1,4,1,319,2026,53.28665281,-6.159710257
381_127,1,1357563600000000,1,1,4,1,381,127,53.39910731,-6.263665399
195_226,1,1357588800000000,1,4,1,1,195,226,53.39114035,-6.262185438
381_126,3,1357552800000000,1,1,4,1,381,126,53.39909547,-6.264086961
381_126,3,1357556400000000,2,1,4,2,381,126,53.39909547,-6.264086961
381_489,1,1357567200000000,1,1,4,1,381,489,53.33494178,-6.237337306
381_488,1,1357570800000000,1,1,4,1,381,488,53.33309833,-6.236061941
226_273,5,1357552800000000,1,1,4,1,226,273,53.347238,-6.258789745
226_273,5,1357556400000000,1,1,4,1,226,273,53.347238,-6.258789745
226_273,5,1357570800000000,1,1,4,1,226,273,53.347238,-6.258789745
226_273,5,1357574400000000,1,1,4,1,226,273,53.347238,-6.258789745
226_273,5,1357549200000000,1,1,4,1,226,273,53.347238,-6.258789745
147_226,1,1357585200000000,1,4,1,1,147,226,53.39114035,-6.262185438
381_487,1,1357592400000000,1,1,4,1,381,487,53.33080073,-6.233859519
148_381,1,1357570800000000,1,4,1,1,148,381,53.32419666,-6.212289434
353_112,1,1357545600000000,1,1,4,1,353,112,53.39614564,-6.263966435
355_7330,2,1357578000000000,1,1,4,1,355,7330,53.28851641,-6.153510182
355_7330,2,1357574400000000,1,1,4,1,355,7330,53.28851641,-6.153510182
381_493,1,1357556400000000,1,1,4,1,381,493,53.3398532,-6.247361814
381_492,1,1357574400000000,1,1,4,1,381,492,53.33858446,-6.243599454
381_491,2,1357578000000000,1,1,4,1,381,491,53.33780463,-6.241303865
381_491,2,1357538400000000,1,1,4,1,381,491,53.33780463,-6.241303865
381_494,1,1357578000000000,1,1,4,1,381,494,53.3414174,-6.251667978
7113_226,2,1357567200000000,1,4,1,1,7113,226,53.39114035,-6.262185438
7113_226,2,1357552800000000,1,4,1,1,7113,226,53.39114035,-6.262185438
281_381,3,1357581600000000,1,4,1,1,281,381,53.32419666,-6.212289434
281_381,3,1357556400000000,1,4,1,1,281,381,53.32419666,-6.212289434
281_381,3,1357585200000000,1,4,1,1,281,381,53.32419666,-6.212289434
204_485,1,1357549200000000,1,1,4,1,204,485,53.32826049,-6.228634599
226_2026,3,1357567200000000,2,1,4,2,226,2026,53.28665281,-6.159710257
226_2026,3,1357596000000000,1,1,4,1,226,2026,53.28665281,-6.159710257
226_148,1,1357563600000000,1,1,4,1,226,148,53.37066118,-6.268068872
228_198,1,1357549200000000,1,1,4,1,228,198,53.36162538,-6.27283781
398_7330,3,1357578000000000,1,1,4,1,398,7330,53.28851641,-6.153510182
398_7330,3,1357552800000000,1,1,4,1,398,7330,53.28851641,-6.153510182
398_7330,3,1357581600000000,1,1,4,1,398,7330,53.28851641,-6.153510182
226_147,1,1357574400000000,1,1,4,1,226,147,53.37248023,-6.265830862
226_3116,1,1357552800000000,1,1,4,1,226,3116,53.28992246,-6.167159913
6_381,1,1357570800000000,1,4,1,1,6,381,53.32419666,-6.212289434
4725_352,1,1357549200000000,1,4,1,1,4725,352,53.3429714,-6.242427889
381_6,1,1357570800000000,1,1,4,1,381,6,53.35274013,-6.264439156
412_381,2,1357581600000000,1,4,1,1,412,381,53.32419666,-6.212289434
412_381,2,1357592400000000,1,4,1,1,412,381,53.32419666,-6.212289434
390_2026,1,1357542000000000,1,1,4,1,390,2026,53.28665281,-6.159710257
21_7330,1,1357560000000000,1,1,4,1,21,7330,53.28851641,-6.153510182
393_7330,1,1357545600000000,1,1,4,1,393,7330,53.28851641,-6.153510182
354_483,1,1357588800000000,1,1,4,1,354,483,53.32592592,-6.223957223
1620_127,1,1357588800000000,1,1,4,1,1620,127,53.39910731,-6.263665399
271_94,1,1357574400000000,1,1,4,1,271,94,53.39603476,-6.26437696
395_2051,1,1357542000000000,1,1,4,1,395,2051,53.28647455,-6.159807914
226_494,3,1357563600000000,1,1,4,1,226,494,53.3414174,-6.251667978
226_494,3,1357585200000000,1,1,4,1,226,494,53.3414174,-6.251667978
226_494,3,1357549200000000,1,1,4,1,226,494,53.3414174,-6.251667978
46_7330,2,1357578000000000,2,1,4,2,46,7330,53.28851641,-6.153510182
226_495,1,1357570800000000,1,1,4,1,226,495,53.34358212,-6.249732063
319_93,1,1357560000000000,1,1,4,1,319,93,53.39229249,-6.264153341
126_381,1,1357581600000000,1,4,1,1,126,381,53.32419666,-6.212289434
393_3084,1,1357585200000000,1,1,4,1,393,3084,53.30138102,-6.181148417
381_112,4,1357567200000000,1,1,4,1,381,112,53.39614564,-6.263966435
381_112,4,1357542000000000,1,1,4,1,381,112,53.39614564,-6.263966435
381_112,4,1357560000000000,1,1,4,1,381,112,53.39614564,-6.263966435
381_112,4,1357545600000000,1,1,4,1,381,112,53.39614564,-6.263966435
340_186,1,1357560000000000,1,1,4,1,340,186,53.36534614,-6.271575323
381_473,1,1357545600000000,1,1,4,1,381,473,53.30924035,-6.197367142
27_381,2,1357588800000000,1,4,1,1,27,381,53.32419666,-6.212289434
27_381,2,1357570800000000,1,4,1,1,27,381,53.32419666,-6.212289434
3116_395,1,1357567200000000,1,4,1,1,3116,395,53.34196024,-6.235425806
475_226,1,1357567200000000,1,4,1,1,475,226,53.39114035,-6.262185438
226_402,5,1357578000000000,1,1,4,1,226,402,53.34389969,-6.259151074
226_402,5,1357552800000000,1,1,4,1,226,402,53.34389969,-6.259151074
226_402,5,1357563600000000,1,1,4,1,226,402,53.34389969,-6.259151074
226_402,5,1357570800000000,1,1,4,1,226,402,53.34389969,-6.259151074
226_402,5,1357585200000000,1,1,4,1,226,402,53.34389969,-6.259151074
319_7226,1,1357581600000000,1,1,4,1,319,7226,53.28844439,-6.154083285
381_281,5,1357578000000000,1,1,4,1,381,281,53.35091828,-6.260923017
381_281,5,1357542000000000,1,1,4,1,381,281,53.35091828,-6.260923017
381_281,5,1357563600000000,1,1,4,1,381,281,53.35091828,-6.260923017
381_281,5,1357581600000000,1,1,4,1,381,281,53.35091828,-6.260923017
381_281,5,1357596000000000,1,1,4,1,381,281,53.35091828,-6.260923017
382_7330,1,1357578000000000,1,1,4,1,382,7330,53.28851641,-6.153510182
1620_40,1,1357574400000000,1,1,4,1,1620,40,53.37666077,-6.264668969
493_271,1,1357542000000000,1,4,1,1,493,271,53.34858826,-6.259545833
7330_354,1,1357581600000000,1,4,1,1,7330,354,53.3422172,-6.236391403
226_409,1,1357563600000000,1,1,4,1,226,409,53.34013607,-6.247650569
7330_351,4,1357567200000000,1,4,1,1,7330,351,53.34339132,-6.24530928
7330_351,4,1357563600000000,1,4,1,1,7330,351,53.34339132,-6.24530928
7330_351,4,1357556400000000,1,4,1,1,7330,351,53.34339132,-6.24530928
7330_351,4,1357545600000000,1,4,1,1,7330,351,53.34339132,-6.24530928
469_381,1,1357542000000000,1,4,1,1,469,381,53.32419666,-6.212289434
226_408,1,1357567200000000,1,1,4,1,226,408,53.34097078,-6.25001924
226_405,1,1357567200000000,1,1,4,1,226,405,53.34248147,-6.255589363
7113_381,1,1357549200000000,1,4,1,1,7113,381,53.32419666,-6.212289434
392_819,1,1357567200000000,1,1,4,1,392,819,53.35629482,-6.265977336
377_7330,1,1357549200000000,1,1,4,1,377,7330,53.28851641,-6.153510182
226_3161,3,1357570800000000,2,1,4,2,226,3161,53.28700433,-6.167944807
226_3161,3,1357545600000000,1,1,4,1,226,3161,53.28700433,-6.167944807
226_94,2,1357560000000000,1,1,4,1,226,94,53.39603476,-6.26437696
226_94,2,1357570800000000,1,1,4,1,226,94,53.39603476,-6.26437696
45_29,1,1357567200000000,1,1,4,1,45,29,53.38348825,-6.265669101
6085_381,2,1357552800000000,1,4,1,1,6085,381,53.32419666,-6.212289434
6085_381,2,1357542000000000,1,4,1,1,6085,381,53.32419666,-6.212289434
3161_381,1,1357545600000000,1,4,1,1,3161,381,53.32419666,-6.212289434
7226_381,8,1357588800000000,2,4,1,2,7226,381,53.32419666,-6.212289434
7226_381,8,1357581600000000,2,4,1,2,7226,381,53.32419666,-6.212289434
7226_381,8,1357585200000000,4,4,1,4,7226,381,53.32419666,-6.212289434
353_7330,2,1357567200000000,1,1,4,1,353,7330,53.28851641,-6.153510182
353_7330,2,1357545600000000,1,1,4,1,353,7330,53.28851641,-6.153510182
223_7330,1,1357574400000000,1,1,4,1,223,7330,53.28851641,-6.153510182
7330_371,2,1357542000000000,1,4,1,1,7330,371,53.33859504,-6.223070338
7330_371,2,1357549200000000,1,4,1,1,7330,371,53.33859504,-6.223070338
324_226,2,1357581600000000,1,4,1,1,324,226,53.39114035,-6.262185438
324_226,2,1357570800000000,1,4,1,1,324,226,53.39114035,-6.262185438
3161_371,1,1357549200000000,1,4,1,1,3161,371,53.33859504,-6.223070338
7330_378,1,1357585200000000,1,4,1,1,7330,378,53.32564086,-6.207304842
7330_372,1,1357538400000000,1,4,1,1,7330,372,53.33547939,-6.219671053
395_479,1,1357574400000000,1,1,4,1,395,479,53.31913476,-6.213386661
7330_374,2,1357545600000000,1,4,1,1,7330,374,53.33317387,-6.216358573
7330_374,2,1357592400000000,1,4,1,1,7330,374,53.33317387,-6.216358573
374_197,1,1357574400000000,1,1,4,1,374,197,53.35895263,-6.273231374
17_491,1,1357563600000000,1,1,4,1,17,491,53.33780463,-6.241303865
7226_392,1,1357585200000000,1,4,1,1,7226,392,53.34174284,-6.227429958
186_226,1,1357588800000000,1,4,1,1,186,226,53.39114035,-6.262185438
381_2051,1,1357538400000000,1,1,4,1,381,2051,53.28647455,-6.159807914
381_148,1,1357567200000000,1,1,4,1,381,148,53.37066118,-6.268068872
381_147,1,1357574400000000,1,1,4,1,381,147,53.37248023,-6.265830862
381_273,4,1357552800000000,1,1,4,1,381,273,53.347238,-6.258789745
381_273,4,1357556400000000,1,1,4,1,381,273,53.347238,-6.258789745
381_273,4,1357560000000000,1,1,4,1,381,273,53.347238,-6.258789745
381_273,4,1357549200000000,1,1,4,1,381,273,53.347238,-6.258789745
7330_381,36,1357578000000000,2,4,1,2,7330,381,53.32419666,-6.212289434
7330_381,36,1357567200000000,2,4,1,2,7330,381,53.32419666,-6.212289434
7330_381,36,1357552800000000,1,4,1,1,7330,381,53.32419666,-6.212289434
7330_381,36,1357542000000000,3,4,1,3,7330,381,53.32419666,-6.212289434
7330_381,36,1357574400000000,4,4,1,4,7330,381,53.32419666,-6.212289434
7330_381,36,1357588800000000,3,4,1,3,7330,381,53.32419666,-6.212289434
7330_381,36,1357538400000000,1,4,1,1,7330,381,53.32419666,-6.212289434
7330_381,36,1357563600000000,4,4,1,4,7330,381,53.32419666,-6.212289434
7330_381,36,1357581600000000,5,4,1,5,7330,381,53.32419666,-6.212289434
7330_381,36,1357599600000000,2,4,1,2,7330,381,53.32419666,-6.212289434
7330_381,36,1357560000000000,2,4,1,2,7330,381,53.32419666,-6.212289434
7330_381,36,1357570800000000,6,4,1,6,7330,381,53.32419666,-6.212289434
7330_381,36,1357592400000000,1,4,1,1,7330,381,53.32419666,-6.212289434
7330_265,1,1357581600000000,1,4,1,1,7330,265,53.35336113,-6.262025354
389_195,1,1357581600000000,1,1,4,1,389,195,53.35500171,-6.273496272
397_6334,1,1357585200000000,1,1,4,1,397,6334,53.30127421,-6.180627805
357_483,1,1357552800000000,1,1,4,1,357,483,53.32592592,-6.223957223
226_201,1,1357556400000000,1,1,4,1,226,201,53.3682819,-6.270103972
356_7330,1,1357556400000000,1,1,4,1,356,7330,53.28851641,-6.153510182
226_200,2,1357545600000000,1,1,4,1,226,200,53.36742269,-6.271596444
226_200,2,1357592400000000,1,1,4,1,226,200,53.36742269,-6.271596444
7330_15,1,1357592400000000,1,4,1,1,7330,15,53.36024874,-6.260978774
387_425,1,1357567200000000,1,1,4,1,387,425,53.31249301,-6.201462396
7330_14,1,1357585200000000,1,4,1,1,7330,14,53.35853956,-6.262731094
7330_19,1,1357567200000000,1,4,1,1,7330,19,53.36713453,-6.25549885
226_7330,39,1357567200000000,3,1,4,3,226,7330,53.28851641,-6.153510182
226_7330,39,1357552800000000,4,1,4,4,226,7330,53.28851641,-6.153510182
226_7330,39,1357556400000000,4,1,4,4,226,7330,53.28851641,-6.153510182
226_7330,39,1357596000000000,2,1,4,2,226,7330,53.28851641,-6.153510182
226_7330,39,1357585200000000,3,1,4,3,226,7330,53.28851641,-6.153510182
226_7330,39,1357574400000000,1,1,4,1,226,7330,53.28851641,-6.153510182
226_7330,39,1357588800000000,5,1,4,5,226,7330,53.28851641,-6.153510182
226_7330,39,1357563600000000,5,1,4,5,226,7330,53.28851641,-6.153510182
226_7330,39,1357599600000000,3,1,4,3,226,7330,53.28851641,-6.153510182
226_7330,39,1357560000000000,1,1,4,1,226,7330,53.28851641,-6.153510182
226_7330,39,1357570800000000,4,1,4,4,226,7330,53.28851641,-6.153510182
226_7330,39,1357592400000000,2,1,4,2,226,7330,53.28851641,-6.153510182
226_7330,39,1357549200000000,2,1,4,2,226,7330,53.28851641,-6.153510182
7330_17,1,1357545600000000,1,4,1,1,7330,17,53.36306934,-6.258399655
340_94,1,1357542000000000,1,1,4,1,340,94,53.39603476,-6.26437696
7330_391,2,1357578000000000,1,4,1,1,7330,391,53.34008227,-6.223954622
7330_391,2,1357574400000000,1,4,1,1,7330,391,53.34008227,-6.223954622
354_421,1,1357581600000000,1,1,4,1,354,421,53.31999597,-6.214476494
7330_393,1,1357549200000000,1,4,1,1,7330,393,53.33687627,-6.222330895
265_422,1,1357574400000000,1,1,4,1,265,422,53.31806397,-6.21030928
7330_271,3,1357563600000000,2,4,1,2,7330,271,53.34858826,-6.259545833
7330_271,3,1357545600000000,1,4,1,1,7330,271,53.34858826,-6.259545833
7330_392,1,1357560000000000,1,4,1,1,7330,392,53.34174284,-6.227429958
340_493,1,1357581600000000,1,1,4,1,340,493,53.3398532,-6.247361814
385_819,1,1357581600000000,1,1,4,1,385,819,53.35629482,-6.265977336
221_195,1,1357581600000000,1,1,4,1,221,195,53.35500171,-6.273496272
7330_278,1,1357542000000000,1,4,1,1,7330,278,53.35135252,-6.261115643
392_28,1,1357556400000000,1,1,4,1,392,28,53.38157842,-6.265987247
7330_395,1,1357567200000000,1,4,1,1,7330,395,53.34196024,-6.235425806
393_400,1,1357545600000000,1,1,4,1,393,400,53.34475927,-6.252777849
94_226,2,1357578000000000,1,4,1,1,94,226,53.39114035,-6.262185438
94_226,2,1357570800000000,1,4,1,1,94,226,53.39114035,-6.262185438
7330_396,1,1357574400000000,1,4,1,1,7330,396,53.34246403,-6.239715361
319_194,1,1357585200000000,1,1,4,1,319,194,53.35504043,-6.269964297
381_3161,1,1357570800000000,1,1,4,1,381,3161,53.28700433,-6.167944807
396_198,1,1357552800000000,1,1,4,1,396,198,53.36162538,-6.27283781
381_3163,1,1357552800000000,1,1,4,1,381,3163,53.29250663,-6.166869254
340_475,1,1357545600000000,1,1,4,1,340,475,53.31270616,-6.201888675
483_226,1,1357552800000000,1,4,1,1,483,226,53.39114035,-6.262185438
226_3084,3,1357578000000000,1,1,4,1,226,3084,53.30138102,-6.181148417
226_3084,3,1357563600000000,2,1,4,2,226,3084,53.30138102,-6.181148417
17_475,1,1357567200000000,1,1,4,1,17,475,53.31270616,-6.201888675
187_371,1,1357542000000000,1,4,1,1,187,371,53.33859504,-6.223070338
400_7226,1,1357581600000000,1,1,4,1,400,7226,53.28844439,-6.154083285
271_2026,1,1357545600000000,1,1,4,1,271,2026,53.28665281,-6.159710257
1620_93,1,1357581600000000,1,1,4,1,1620,93,53.39229249,-6.264153341
214_7113,1,1357549200000000,1,1,4,1,214,7113,53.40253187,-6.264909599
393_416,1,1357545600000000,1,1,4,1,393,416,53.32863071,-6.229354937
19_185,1,1357545600000000,1,1,4,1,19,185,53.36809195,-6.270021503
3114_381,2,1357578000000000,1,4,1,1,3114,381,53.32419666,-6.212289434
3114_381,2,1357556400000000,1,4,1,1,3114,381,53.32419666,-6.212289434
395_281,1,1357570800000000,1,1,4,1,395,281,53.35091828,-6.260923017
48_427,1,1357599600000000,1,1,4,1,48,427,53.30826987,-6.195006951
226_422,1,1357549200000000,1,1,4,1,226,422,53.31806397,-6.21030928
7330_4451,1,1357545600000000,1,4,1,1,7330,4451,53.32594337,-6.207697507
39_226,1,1357556400000000,1,4,1,1,39,226,53.39114035,-6.262185438
381_27,1,1357581600000000,1,1,4,1,381,27,53.37943874,-6.266570239
378_94,1,1357578000000000,1,1,4,1,378,94,53.39603476,-6.26437696
381_184,1,1357563600000000,1,1,4,1,381,184,53.36969448,-6.268964699
354_6085,1,1357581600000000,1,1,4,1,354,6085,53.28640594,-6.165855529
371_400,1,1357542000000000,1,1,4,1,371,400,53.34475927,-6.252777849
381_187,2,1357567200000000,1,1,4,1,381,187,53.36272505,-6.272432712
381_187,2,1357545600000000,1,1,4,1,381,187,53.36272505,-6.272432712
7226_226,1,1357588800000000,1,4,1,1,7226,226,53.39114035,-6.262185438
319_7330,1,1357570800000000,1,1,4,1,319,7330,53.28851641,-6.153510182
371_408,1,1357549200000000,1,1,4,1,371,408,53.34097078,-6.25001924
374_273,2,1357574400000000,2,1,4,2,374,273,53.347238,-6.258789745
372_324,1,1357578000000000,1,1,4,1,372,324,53.41772246,-6.278629133
226_415,3,1357563600000000,1,1,4,1,226,415,53.33033759,-6.232932744
226_415,3,1357556400000000,2,1,4,2,226,415,53.33033759,-6.232932744
226_410,1,1357592400000000,1,1,4,1,226,410,53.33881323,-6.243875382
414_381,1,1357570800000000,1,4,1,1,414,381,53.32419666,-6.212289434
381_196,1,1357574400000000,1,1,4,1,381,196,53.3568747,-6.273736052
381_195,1,1357592400000000,1,1,4,1,381,195,53.35500171,-6.273496272
356_480,1,1357560000000000,1,1,4,1,356,480,53.32084077,-6.216272578
187_226,1,1357599600000000,1,4,1,1,187,226,53.39114035,-6.262185438
381_198,2,1357563600000000,1,1,4,1,381,198,53.36162538,-6.27283781
381_198,2,1357574400000000,1,1,4,1,381,198,53.36162538,-6.27283781
354_416,1,1357581600000000,1,1,4,1,354,416,53.32863071,-6.229354937
7226_356,1,1357588800000000,1,4,1,1,7226,356,53.34190302,-6.226717443
324_375,1,1357560000000000,1,4,1,1,324,375,53.33399826,-6.21438714
188_381,1,1357560000000000,1,4,1,1,188,381,53.32419666,-6.212289434
226_417,1,1357581600000000,1,1,4,1,226,417,53.32769038,-6.225955789
416_381,1,1357549200000000,1,4,1,1,416,381,53.32419666,-6.212289434
203_7330,1,1357549200000000,1,1,4,1,203,7330,53.28851641,-6.153510182
94_381,2,1357585200000000,1,4,1,1,94,381,53.32419666,-6.212289434
94_381,2,1357574400000000,1,4,1,1,94,381,53.32419666,-6.212289434
395_186,1,1357578000000000,1,1,4,1,395,186,53.36534614,-6.271575323
479_395,1,1357570800000000,1,4,1,1,479,395,53.34196024,-6.235425806
478_226,1,1357588800000000,1,4,1,1,478,226,53.39114035,-6.262185438
184_353,1,1357545600000000,1,4,1,1,184,353,53.3426154,-6.239619013
494_226,1,1357574400000000,1,4,1,1,494,226,53.39114035,-6.262185438
10_7330,1,1357542000000000,1,1,4,1,10,7330,53.28851641,-6.153510182
1620_7330,1,1357588800000000,1,1,4,1,1620,7330,53.28851641,-6.153510182
205_422,1,1357567200000000,1,1,4,1,205,422,53.31806397,-6.21030928
491_382,1,1357549200000000,1,4,1,1,491,382,53.32509743,-6.20762788
491_381,1,1357542000000000,1,4,1,1,491,381,53.32419666,-6.212289434
381_37,2,1357578000000000,1,1,4,1,381,37,53.38534618,-6.264871956
381_37,2,1357552800000000,1,1,4,1,381,37,53.38534618,-6.264871956
205_416,1,1357570800000000,1,1,4,1,205,416,53.32863071,-6.229354937
205_7330,2,1357545600000000,1,1,4,1,205,7330,53.28851641,-6.153510182
205_7330,2,1357574400000000,1,1,4,1,205,7330,53.28851641,-6.153510182
381_39,1,1357570800000000,1,1,4,1,381,39,53.38041397,-6.265643736
479_381,2,1357578000000000,1,4,1,1,479,381,53.32419666,-6.212289434
479_381,2,1357585200000000,1,4,1,1,479,381,53.32419666,-6.212289434
12_7330,2,1357552800000000,1,1,4,1,12,7330,53.28851641,-6.153510182
12_7330,2,1357574400000000,1,1,4,1,12,7330,53.28851641,-6.153510182
3164_10,1,1357556400000000,1,4,1,1,3164,10,53.35338312,-6.265389489
421_396,1,1357545600000000,1,4,1,1,421,396,53.34246403,-6.239715361
479_17,2,1357552800000000,1,4,1,1,479,17,53.36306934,-6.258399655
479_17,2,1357563600000000,1,4,1,1,479,17,53.36306934,-6.258399655
424_381,1,1357567200000000,1,4,1,1,424,381,53.32419666,-6.212289434
228_429,1,1357563600000000,1,1,4,1,228,429,53.30470787,-6.187129261
4451_7330,1,1357556400000000,1,1,4,1,4451,7330,53.28851641,-6.153510182
150_372,1,1357549200000000,1,4,1,1,150,372,53.33547939,-6.219671053
226_7113,1,1357563600000000,1,1,4,1,226,7113,53.40253187,-6.264909599
392_40,1,1357542000000000,1,1,4,1,392,40,53.37666077,-6.264668969
265_126,1,1357545600000000,1,1,4,1,265,126,53.39909547,-6.264086961
51_4725,1,1357556400000000,1,1,4,1,51,4725,53.35210685,-6.261069913
421_381,1,1357552800000000,1,4,1,1,421,381,53.32419666,-6.212289434
19_7330,1,1357592400000000,1,1,4,1,19,7330,53.28851641,-6.153510182
113_226,2,1357560000000000,1,4,1,1,113,226,53.39114035,-6.262185438
113_226,2,1357549200000000,1,4,1,1,113,226,53.39114035,-6.262185438
226_7226,6,1357581600000000,2,1,4,2,226,7226,53.28844439,-6.154083285
226_7226,6,1357585200000000,4,1,4,4,226,7226,53.28844439,-6.154083285
491_226,1,1357567200000000,1,4,1,1,491,226,53.39114035,-6.262185438
489_21,1,1357567200000000,1,4,1,1,489,21,53.370092,-6.254295947
410_45,1,1357563600000000,1,4,1,1,410,45,53.36988298,-6.254139184
351_147,1,1357585200000000,1,1,4,1,351,147,53.37248023,-6.265830862
494_381,1,1357549200000000,1,4,1,1,494,381,53.32419666,-6.212289434
93_226,1,1357560000000000,1,4,1,1,93,226,53.39114035,-6.262185438
422_21,1,1357552800000000,1,4,1,1,422,21,53.370092,-6.254295947
7330_319,3,1357545600000000,2,4,1,2,7330,319,53.34596879,-6.259277046
7330_319,3,1357549200000000,1,4,1,1,7330,319,53.34596879,-6.259277046
487_352,1,1357552800000000,1,4,1,1,487,352,53.3429714,-6.242427889
47_7330,2,1357563600000000,1,1,4,1,47,7330,53.28851641,-6.153510182
47_7330,2,1357549200000000,1,1,4,1,47,7330,53.28851641,-6.153510182
493_226,1,1357552800000000,1,4,1,1,493,226,53.39114035,-6.262185438
391_409,1,1357545600000000,1,1,4,1,391,409,53.34013607,-6.247650569
492_381,2,1357574400000000,2,4,1,2,492,381,53.32419666,-6.212289434
49_2051,1,1357578000000000,1,1,4,1,49,2051,53.28647455,-6.159807914
416_226,1,1357570800000000,1,4,1,1,416,226,53.39114035,-6.262185438
400_265,1,1357542000000000,1,4,1,1,400,265,53.35336113,-6.262025354
408_226,2,1357552800000000,1,4,1,1,408,226,53.39114035,-6.262185438
408_226,2,1357599600000000,1,4,1,1,408,226,53.39114035,-6.262185438
7330_205,2,1357581600000000,1,4,1,1,7330,205,53.38141148,-6.245339593
7330_205,2,1357570800000000,1,4,1,1,7330,205,53.38141148,-6.245339593
422_226,1,1357563600000000,1,4,1,1,422,226,53.39114035,-6.262185438
271_492,1,1357570800000000,1,1,4,1,271,492,53.33858446,-6.243599454
353_2026,1,1357556400000000,1,1,4,1,353,2026,53.28665281,-6.159710257
423_381,2,1357542000000000,1,4,1,1,423,381,53.32419666,-6.212289434
423_381,2,1357556400000000,1,4,1,1,423,381,53.32419666,-6.212289434
271_126,1,1357545600000000,1,1,4,1,271,126,53.39909547,-6.264086961
265_493,1,1357542000000000,1,1,4,1,265,493,53.3398532,-6.247361814
14_405,1,1357560000000000,1,1,4,1,14,405,53.34248147,-6.255589363
14_402,1,1357567200000000,1,1,4,1,14,402,53.34389969,-6.259151074
278_416,1,1357542000000000,1,1,4,1,278,416,53.32863071,-6.229354937
17_281,1,1357570800000000,1,1,4,1,17,281,53.35091828,-6.260923017
391_425,1,1357549200000000,1,1,4,1,391,425,53.31249301,-6.201462396
381_4680,1,1357574400000000,1,1,4,1,381,4680,53.38496648,-6.265338406
391_426,1,1357578000000000,1,1,4,1,391,426,53.31096735,-6.19983067
392_7330,1,1357588800000000,1,1,4,1,392,7330,53.28851641,-6.153510182
205_3162,1,1357549200000000,1,1,4,1,205,3162,53.28974857,-6.167542366
354_7330,4,1357578000000000,1,1,4,1,354,7330,53.28851641,-6.153510182
354_7330,4,1357588800000000,1,1,4,1,354,7330,53.28851641,-6.153510182
354_7330,4,1357567200000000,1,1,4,1,354,7330,53.28851641,-6.153510182
354_7330,4,1357581600000000,1,1,4,1,354,7330,53.28851641,-6.153510182
399_7330,1,1357567200000000,1,1,4,1,399,7330,53.28851641,-6.153510182
415_354,1,1357556400000000,1,4,1,1,415,354,53.3422172,-6.236391403
492_356,1,1357560000000000,1,4,1,1,492,356,53.34190302,-6.226717443
7330_213,2,1357552800000000,2,4,1,2,7330,213,53.38140485,-6.244888894
185_17,1,1357578000000000,1,4,1,1,185,17,53.36306934,-6.258399655
381_2026,2,1357578000000000,1,1,4,1,381,2026,53.28665281,-6.159710257
381_2026,2,1357545600000000,1,1,4,1,381,2026,53.28665281,-6.159710257
356_415,1,1357578000000000,1,1,4,1,356,415,53.33033759,-6.232932744
381_3116,2,1357567200000000,2,1,4,2,381,3116,53.28992246,-6.167159913
213_415,1,1357578000000000,1,1,4,1,213,415,53.33033759,-6.232932744
354_819,1,1357567200000000,1,1,4,1,354,819,53.35629482,-6.265977336
7330_226,21,1357588800000000,2,4,1,2,7330,226,53.39114035,-6.262185438
7330_226,21,1357567200000000,3,4,1,3,7330,226,53.39114035,-6.262185438
7330_226,21,1357552800000000,2,4,1,2,7330,226,53.39114035,-6.262185438
7330_226,21,1357563600000000,3,4,1,3,7330,226,53.39114035,-6.262185438
7330_226,21,1357581600000000,1,4,1,1,7330,226,53.39114035,-6.262185438
7330_226,21,1357556400000000,3,4,1,3,7330,226,53.39114035,-6.262185438
7330_226,21,1357570800000000,3,4,1,3,7330,226,53.39114035,-6.262185438
7330_226,21,1357585200000000,1,4,1,1,7330,226,53.39114035,-6.262185438
7330_226,21,1357545600000000,1,4,1,1,7330,226,53.39114035,-6.262185438
7330_226,21,1357592400000000,1,4,1,1,7330,226,53.39114035,-6.262185438
7330_226,21,1357549200000000,1,4,1,1,7330,226,53.39114035,-6.262185438
415_227,1,1357552800000000,1,4,1,1,415,227,53.39114337,-6.251314452
492_352,1,1357549200000000,1,4,1,1,492,352,53.3429714,-6.242427889
271_273,2,1357581600000000,1,1,4,1,271,273,53.347238,-6.258789745
271_273,2,1357549200000000,1,1,4,1,271,273,53.347238,-6.258789745
416_374,1,1357552800000000,1,4,1,1,416,374,53.33317387,-6.216358573
17_7330,2,1357567200000000,1,1,4,1,17,7330,53.28851641,-6.153510182
17_7330,2,1357581600000000,1,1,4,1,17,7330,53.28851641,-6.153510182
371_3115,1,1357578000000000,1,1,4,1,371,3115,53.29399196,-6.167600741
381_91,2,1357567200000000,1,1,4,1,381,91,53.38842767,-6.265393116
381_91,2,1357549200000000,1,1,4,1,381,91,53.38842767,-6.265393116
19_3161,1,1357567200000000,1,1,4,1,19,3161,53.28700433,-6.167944807
7330_340,2,1357581600000000,1,4,1,1,7330,340,53.34596789,-6.256137932
7330_340,2,1357560000000000,1,4,1,1,7330,340,53.34596789,-6.256137932
381_94,2,1357556400000000,1,1,4,1,381,94,53.39603476,-6.26437696
381_94,2,1357545600000000,1,1,4,1,381,94,53.39603476,-6.26437696
