TripBusStopKey,Frequency_ByTripBusStopKey,TimeStamp,Frequency_ByTimeStamp,FirstRouteID,SecondRouteId,Frequency_GroupedByRoutes,FirstStopId,Lat,Lon
1067_804,1,1357567200000000,1,140,46,1,1067,53.31704157,-6.26521267
1023_3665,1,1357570800000000,1,140,747,1,1023,53.31704597,-6.264897288
384_7111,1,1357502400000000,1,46,140,1,384,53.33160723,-6.210177739
817_4347,1,1357570800000000,1,46,76,1,817,53.35963702,-6.269597787
3665_192,1,1357498800000000,1,747,46,1,3665,53.42811351,-6.244123692
2017_3665,7,1357502400000000,1,46,747,1,2017,53.27418733,-6.175000804
2017_3665,7,1357556400000000,1,46,747,1,2017,53.27418733,-6.175000804
2017_3665,7,1357560000000000,1,46,747,1,2017,53.27418733,-6.175000804
2017_3665,7,1357585200000000,1,46,747,1,2017,53.27418733,-6.175000804
2017_3665,7,1357545600000000,2,46,747,2,2017,53.27418733,-6.175000804
2017_3665,7,1357549200000000,1,46,747,1,2017,53.27418733,-6.175000804
2655_6059,1,1357556400000000,1,76,46,1,2655,53.34213795,-6.352832566
4348_6229,1,1357542000000000,1,76,140,1,4348,53.28666326,-6.375065763
6059_7453,1,1357477200000000,1,140,747,1,6059,53.35020734,-6.260245957
1536_3665,1,1357560000000000,1,140,747,1,1536,53.36961683,-6.277263386
4341_6366,1,1357542000000000,1,76,140,1,4341,53.28564665,-6.372359628
6365_3665,1,1357552800000000,1,140,747,1,6365,53.40438236,-6.291636267
3665_198,1,1357488000000000,1,747,140,1,3665,53.42811351,-6.244123692
807_1531,1,1357560000000000,1,46,140,1,807,53.3515563,-6.297685373
807_1536,1,1357484400000000,1,46,140,1,807,53.3515563,-6.297685373
1280_4319,1,1357549200000000,1,140,747,1,1280,53.40018709,-6.30312862
2128_403,1,1357473600000000,1,76,140,1,2128,53.33966646,-6.399737008
895_3665,1,1357545600000000,1,140,747,1,895,53.31393183,-6.263988019
786_4409,1,1357570800000000,1,46,76,1,786,53.33514628,-6.256144022
845_274,1,1357574400000000,1,46,140,1,845,53.33545323,-6.256236611
2655_198,1,1357574400000000,1,76,140,1,2655,53.34213795,-6.352832566
2022_3665,1,1357480800000000,1,46,747,1,2022,53.28005707,-6.161568376
802_7216,1,1357495200000000,1,46,747,1,802,53.35649811,-6.291283708
3665_186,2,1357578000000000,1,747,140,1,3665,53.42811351,-6.244123692
3665_186,2,1357542000000000,1,747,140,1,3665,53.42811351,-6.244123692
3665_188,1,1357560000000000,1,747,140,1,3665,53.42811351,-6.244123692
2345_3665,4,1357477200000000,1,76,747,1,2345,53.29366316,-6.369009589
2345_3665,4,1357556400000000,1,76,747,1,2345,53.29366316,-6.369009589
2345_3665,4,1357592400000000,1,76,747,1,2345,53.29366316,-6.369009589
2345_3665,4,1357491600000000,1,76,747,1,2345,53.29366316,-6.369009589
4319_352,1,1357549200000000,1,747,46,1,4319,53.34676557,-6.292018441
337_4341,2,1357578000000000,2,46,76,2,337,53.3458989,-6.258183446
4528_3665,1,1357542000000000,1,140,747,1,4528,53.32886058,-6.264567959
1015_2039,1,1357545600000000,1,140,46,1,1015,53.33272992,-6.259936342
786_4319,3,1357477200000000,1,46,747,1,786,53.33514628,-6.256144022
786_4319,3,1357542000000000,1,46,747,1,786,53.33514628,-6.256144022
786_4319,3,1357570800000000,1,46,747,1,786,53.33514628,-6.256144022
7_3665,4,1357502400000000,1,140,747,1,7,53.35283171,-6.264555613
7_3665,4,1357506000000000,1,140,747,1,7,53.35283171,-6.264555613
7_3665,4,1357570800000000,2,140,747,2,7,53.35283171,-6.264555613
3665_2068,1,1357466400000000,1,747,46,1,3665,53.42811351,-6.244123692
2114_3665,1,1357470000000000,1,76,747,1,2114,53.32430297,-6.395493193
2123_3665,2,1357560000000000,1,76,747,1,2123,53.34717583,-6.3980589
2123_3665,2,1357574400000000,1,76,747,1,2123,53.34717583,-6.3980589
4542_2039,1,1357542000000000,1,140,46,1,4542,53.38666393,-6.297081618
4347_807,1,1357538400000000,1,76,46,1,4347,53.28620429,-6.375023186
777_3665,2,1357542000000000,2,46,747,2,777,53.32697194,-6.24361114
2115_4319,2,1357560000000000,1,76,747,1,2115,53.32570116,-6.395200528
2115_4319,2,1357545600000000,1,76,747,1,2115,53.32570116,-6.395200528
6059_5011,1,1357538400000000,1,46,76,1,6059,53.35020734,-6.260245957
1070_406,1,1357567200000000,1,140,46,1,1070,53.32497098,-6.265341344
794_3665,15,1357578000000000,2,140,747,1,794,53.34354738,-6.260261816
794_3665,15,1357578000000000,2,46,747,1,794,53.34354738,-6.260261816
794_3665,15,1357473600000000,1,46,747,1,794,53.34354738,-6.260261816
794_3665,15,1357538400000000,1,46,747,1,794,53.34354738,-6.260261816
794_3665,15,1357567200000000,1,46,747,1,794,53.34354738,-6.260261816
794_3665,15,1357552800000000,1,46,747,1,794,53.34354738,-6.260261816
794_3665,15,1357480800000000,1,46,747,1,794,53.34354738,-6.260261816
794_3665,15,1357502400000000,1,46,747,1,794,53.34354738,-6.260261816
794_3665,15,1357563600000000,3,140,747,2,794,53.34354738,-6.260261816
794_3665,15,1357563600000000,3,46,747,1,794,53.34354738,-6.260261816
794_3665,15,1357498800000000,1,46,747,1,794,53.34354738,-6.260261816
794_3665,15,1357556400000000,1,46,747,1,794,53.34354738,-6.260261816
794_3665,15,1357560000000000,2,46,747,2,794,53.34354738,-6.260261816
274_7,1,1357578000000000,1,46,140,1,274,53.35034843,-6.260675831
814_7400,1,1357506000000000,1,46,747,1,814,53.36053082,-6.276082396
2035_7400,1,1357578000000000,1,46,747,1,2035,53.29577235,-6.142665422
807_198,1,1357560000000000,1,46,140,1,807,53.3515563,-6.297685373
801_4319,1,1357560000000000,1,46,747,1,801,53.3574613,-6.287624427
2115_2032,1,1357552800000000,1,76,46,1,2115,53.32570116,-6.395200528
807_4717,1,1357542000000000,1,46,747,1,807,53.3515563,-6.297685373
2039_6366,1,1357570800000000,1,46,140,1,2039,53.2948314,-6.134785099
192_3665,5,1357578000000000,1,46,747,1,192,53.35644191,-6.268059634
192_3665,5,1357567200000000,1,46,747,1,192,53.35644191,-6.268059634
192_3665,5,1357484400000000,1,46,747,1,192,53.35644191,-6.268059634
192_3665,5,1357560000000000,1,46,747,1,192,53.35644191,-6.268059634
192_3665,5,1357466400000000,1,46,747,1,192,53.35644191,-6.268059634
2039_7216,1,1357556400000000,1,46,747,1,2039,53.2948314,-6.134785099
2039_6362,1,1357498800000000,1,46,140,1,2039,53.2948314,-6.134785099
909_2345,1,1357578000000000,1,46,76,1,909,53.33314722,-6.254048351
807_1445,1,1357552800000000,1,46,747,1,807,53.3515563,-6.297685373
4341_403,1,1357549200000000,1,76,140,1,4341,53.28564665,-6.372359628
406_7,1,1357545600000000,1,46,140,1,406,53.34261622,-6.256199628
406_7398,1,1357495200000000,1,46,747,1,406,53.34261622,-6.256199628
4341_406,1,1357542000000000,1,76,46,1,4341,53.28564665,-6.372359628
1076_3665,8,1357588800000000,1,140,747,1,1076,53.32315689,-6.265444961
1076_3665,8,1357480800000000,1,140,747,1,1076,53.32315689,-6.265444961
1076_3665,8,1357495200000000,1,140,747,1,1076,53.32315689,-6.265444961
1076_3665,8,1357545600000000,1,140,747,1,1076,53.32315689,-6.265444961
1076_3665,8,1357574400000000,4,140,747,4,1076,53.32315689,-6.265444961
2087_3665,3,1357578000000000,1,46,747,1,2087,53.3205823,-6.21281581
2087_3665,3,1357596000000000,1,46,747,1,2087,53.3205823,-6.21281581
2087_3665,3,1357545600000000,1,46,747,1,2087,53.3205823,-6.21281581
435_274,1,1357574400000000,1,46,140,1,435,53.29598904,-6.203746226
813_3665,1,1357588800000000,1,46,747,1,813,53.35919005,-6.280959374
453_7398,1,1357466400000000,1,46,747,1,453,53.28858605,-6.207551797
6362_2007,1,1357498800000000,1,140,46,1,6362,53.40649144,-6.289536242
2039_794,1,1357570800000000,1,46,140,1,2039,53.2948314,-6.134785099
4347_3665,1,1357560000000000,1,76,747,1,4347,53.28620429,-6.375023186
3665_6366,4,1357552800000000,1,747,140,1,3665,53.42811351,-6.244123692
3665_6366,4,1357495200000000,1,747,140,1,3665,53.42811351,-6.244123692
3665_6366,4,1357545600000000,1,747,140,1,3665,53.42811351,-6.244123692
3665_6366,4,1357574400000000,1,747,140,1,3665,53.42811351,-6.244123692
1014_3665,3,1357567200000000,1,140,747,1,1014,53.33567606,-6.257338722
1014_3665,3,1357570800000000,1,140,747,1,1014,53.33567606,-6.257338722
1014_3665,3,1357545600000000,1,140,747,1,1014,53.33567606,-6.257338722
3665_6364,1,1357581600000000,1,747,140,1,3665,53.42811351,-6.244123692
7400_2017,1,1357549200000000,1,747,46,1,7400,53.42674583,-6.239138862
1536_4319,1,1357552800000000,1,140,747,1,1536,53.36961683,-6.277263386
768_7398,1,1357549200000000,1,46,747,1,768,53.30942919,-6.218909436
3665_274,16,1357578000000000,1,747,140,1,3665,53.42811351,-6.244123692
3665_274,16,1357473600000000,1,747,46,1,3665,53.42811351,-6.244123692
3665_274,16,1357552800000000,1,747,46,1,3665,53.42811351,-6.244123692
3665_274,16,1357480800000000,1,747,46,1,3665,53.42811351,-6.244123692
3665_274,16,1357542000000000,2,747,140,1,3665,53.42811351,-6.244123692
3665_274,16,1357542000000000,2,747,46,1,3665,53.42811351,-6.244123692
3665_274,16,1357484400000000,1,747,46,1,3665,53.42811351,-6.244123692
3665_274,16,1357556400000000,1,747,46,1,3665,53.42811351,-6.244123692
3665_274,16,1357506000000000,2,747,140,1,3665,53.42811351,-6.244123692
3665_274,16,1357506000000000,2,747,46,1,3665,53.42811351,-6.244123692
3665_274,16,1357574400000000,1,747,46,1,3665,53.42811351,-6.244123692
3665_274,16,1357477200000000,2,747,46,2,3665,53.42811351,-6.244123692
3665_274,16,1357563600000000,1,747,140,1,3665,53.42811351,-6.244123692
3665_274,16,1357560000000000,1,747,140,1,3665,53.42811351,-6.244123692
3665_274,16,1357509600000000,1,747,46,1,3665,53.42811351,-6.244123692
909_3665,6,1357578000000000,1,46,747,1,909,53.33314722,-6.254048351
909_3665,6,1357588800000000,1,46,747,1,909,53.33314722,-6.254048351
909_3665,6,1357488000000000,2,46,747,2,909,53.33314722,-6.254048351
909_3665,6,1357552800000000,1,46,747,1,909,53.33314722,-6.254048351
909_3665,6,1357581600000000,1,46,747,1,909,53.33314722,-6.254048351
797_6059,1,1357574400000000,1,46,140,1,797,53.360726,-6.274662165
2021_2655,1,1357495200000000,1,46,76,1,2021,53.27817732,-6.164408382
2021_1560,1,1357477200000000,1,46,140,1,2021,53.27817732,-6.164408382
4409_4724,1,1357495200000000,1,76,747,1,4409,53.32234699,-6.393074714
4646_3665,1,1357488000000000,1,76,747,1,4646,53.28942013,-6.374226147
794_792,1,1357574400000000,1,46,140,1,794,53.34354738,-6.260261816
7216_800,1,1357477200000000,1,747,46,1,7216,53.34770816,-6.242428291
1076_2345,1,1357545600000000,1,140,76,1,1076,53.32315689,-6.265444961
1280_3665,1,1357552800000000,1,140,747,1,1280,53.40018709,-6.30312862
6074_3665,5,1357578000000000,1,140,747,1,6074,53.33589471,-6.257540035
6074_3665,5,1357563600000000,1,140,747,1,6074,53.33589471,-6.257540035
6074_3665,5,1357545600000000,2,140,747,2,6074,53.33589471,-6.257540035
6074_3665,5,1357549200000000,1,140,747,1,6074,53.33589471,-6.257540035
337_4319,1,1357578000000000,1,46,747,1,337,53.3458989,-6.258183446
909_274,1,1357578000000000,1,46,140,1,909,53.33314722,-6.254048351
2123_186,1,1357552800000000,1,76,140,1,2123,53.34717583,-6.3980589
803_6059,1,1357563600000000,1,46,140,1,803,53.35471282,-6.2940292
5045_6366,1,1357545600000000,1,116,140,1,5045,53.28356775,-6.209156684
7398_4347,1,1357538400000000,1,747,76,1,7398,53.3474992,-6.239838352
6059_7400,1,1357574400000000,1,46,747,1,6059,53.35020734,-6.260245957
819_6059,1,1357581600000000,1,46,140,1,819,53.35629482,-6.265977336
2116_274,1,1357488000000000,1,76,140,1,2116,53.32825023,-6.396275889
4319_792,2,1357477200000000,1,747,46,1,4319,53.34676557,-6.292018441
4319_792,2,1357466400000000,1,747,46,1,4319,53.34676557,-6.292018441
7_4319,2,1357588800000000,1,140,747,1,7,53.35283171,-6.264555613
7_4319,2,1357581600000000,1,140,747,1,7,53.35283171,-6.264555613
5034_3665,1,1357549200000000,1,140,747,1,5034,53.34034119,-6.258590201
4341_6032,1,1357556400000000,1,76,747,1,4341,53.28564665,-6.372359628
274_7400,2,1357578000000000,1,140,747,1,274,53.35034843,-6.260675831
274_7400,2,1357549200000000,1,46,747,1,274,53.35034843,-6.260675831
2007_6229,1,1357588800000000,1,46,140,1,2007,53.30883844,-6.21606771
7216_807,1,1357466400000000,1,747,46,1,7216,53.34770816,-6.242428291
1511_819,1,1357581600000000,1,140,46,1,1511,53.37823452,-6.287752985
775_7400,1,1357549200000000,1,46,747,1,775,53.32348051,-6.239070814
2018_4341,1,1357502400000000,1,46,76,1,2018,53.27445741,-6.17209527
801_4341,2,1357570800000000,1,46,76,1,801,53.3574613,-6.287624427
801_4341,2,1357592400000000,1,46,76,1,801,53.3574613,-6.287624427
6276_3665,1,1357592400000000,1,140,747,1,6276,53.40608507,-6.291913978
3471_3665,1,1357488000000000,1,46,747,1,3471,53.26213653,-6.211341576
2039_403,1,1357570800000000,1,46,140,1,2039,53.2948314,-6.134785099
846_1071,1,1357585200000000,1,46,140,1,846,53.33345329,-6.254080895
1071_5140,1,1357567200000000,1,140,747,1,1071,53.32729186,-6.264856835
4779_3665,2,1357574400000000,2,46,747,2,4779,53.28316981,-6.208993351
188_2039,1,1357466400000000,1,140,46,1,188,53.3601117,-6.272583513
1359_2068,1,1357473600000000,1,747,46,1,1359,53.34439919,-6.26135358
395_3665,1,1357556400000000,1,46,747,1,395,53.34196024,-6.235425806
4319_334,1,1357473600000000,1,747,46,1,4319,53.34676557,-6.292018441
804_3665,5,1357473600000000,1,46,747,1,804,53.35368477,-6.295677667
804_3665,5,1357480800000000,1,46,747,1,804,53.35368477,-6.295677667
804_3665,5,1357585200000000,1,46,747,1,804,53.35368477,-6.295677667
804_3665,5,1357549200000000,2,46,747,2,804,53.35368477,-6.295677667
192_4319,2,1357538400000000,1,46,747,1,192,53.35644191,-6.268059634
192_4319,2,1357567200000000,1,46,747,1,192,53.35644191,-6.268059634
773_3665,1,1357581600000000,1,46,747,1,773,53.31991613,-6.233258318
807_6032,2,1357542000000000,1,46,747,1,807,53.3515563,-6.297685373
807_6032,2,1357563600000000,1,46,747,1,807,53.3515563,-6.297685373
4319_6074,2,1357563600000000,1,747,140,1,4319,53.34676557,-6.292018441
4319_6074,2,1357545600000000,1,747,140,1,4319,53.34676557,-6.292018441
3665_4542,2,1357545600000000,2,747,140,2,3665,53.42811351,-6.244123692
6364_3665,3,1357588800000000,1,140,747,1,6364,53.40258254,-6.301559396
6364_3665,3,1357488000000000,1,140,747,1,6364,53.40258254,-6.301559396
6364_3665,3,1357570800000000,1,140,747,1,6364,53.40258254,-6.301559396
5011_274,1,1357578000000000,1,76,140,1,5011,53.30247077,-6.376866295
6366_6032,1,1357567200000000,1,140,747,1,6366,53.4026512,-6.301331065
3665_2121,1,1357570800000000,1,747,76,1,3665,53.42811351,-6.244123692
334_4341,2,1357466400000000,1,46,76,1,334,53.34655465,-6.258156712
334_4341,2,1357549200000000,1,46,76,1,334,53.34655465,-6.258156712
274_2002,2,1357588800000000,1,140,747,1,274,53.35034843,-6.260675831
274_2002,2,1357549200000000,1,46,747,1,274,53.35034843,-6.260675831
1072_6032,1,1357552800000000,1,140,747,1,1072,53.33099061,-6.264556561
435_4347,1,1357596000000000,1,46,76,1,435,53.29598904,-6.203746226
2035_3665,6,1357578000000000,1,46,747,1,2035,53.29577235,-6.142665422
2035_3665,6,1357542000000000,1,46,747,1,2035,53.29577235,-6.142665422
2035_3665,6,1357484400000000,1,46,747,1,2035,53.29577235,-6.142665422
2035_3665,6,1357574400000000,1,46,747,1,2035,53.29577235,-6.142665422
2035_3665,6,1357549200000000,2,46,747,2,2035,53.29577235,-6.142665422
274_4319,5,1357542000000000,2,46,747,2,274,53.35034843,-6.260675831
274_4319,5,1357563600000000,1,140,747,1,274,53.35034843,-6.260675831
274_4319,5,1357556400000000,1,46,747,1,274,53.35034843,-6.260675831
274_4319,5,1357596000000000,1,140,747,1,274,53.35034843,-6.260675831
352_3665,2,1357581600000000,1,46,747,1,352,53.3429714,-6.242427889
352_3665,2,1357596000000000,1,46,747,1,352,53.3429714,-6.242427889
4567_1076,1,1357570800000000,1,46,140,1,4567,53.283024,-6.147102906
2007_334,2,1357495200000000,1,46,140,1,2007,53.30883844,-6.21606771
2007_334,2,1357545600000000,1,46,140,1,2007,53.30883844,-6.21606771
397_3665,1,1357592400000000,1,46,747,1,397,53.34277724,-6.242060406
194_2039,1,1357549200000000,1,140,46,1,194,53.35504043,-6.269964297
803_3665,11,1357578000000000,3,46,747,3,803,53.35471282,-6.2940292
803_3665,11,1357588800000000,1,46,747,1,803,53.35471282,-6.2940292
803_3665,11,1357462800000000,1,46,747,1,803,53.35471282,-6.2940292
803_3665,11,1357574400000000,5,46,747,5,803,53.35471282,-6.2940292
803_3665,11,1357491600000000,1,46,747,1,803,53.35471282,-6.2940292
814_4795,1,1357552800000000,1,46,76,1,814,53.36053082,-6.276082396
804_4341,1,1357480800000000,1,46,76,1,804,53.35368477,-6.295677667
6362_3665,2,1357563600000000,1,140,747,1,6362,53.40649144,-6.289536242
6362_3665,2,1357556400000000,1,140,747,1,6362,53.40649144,-6.289536242
2110_4319,1,1357477200000000,1,76,747,1,2110,53.31464695,-6.391938179
4341_1069,1,1357542000000000,1,76,140,1,4341,53.28564665,-6.372359628
4341_2039,1,1357480800000000,1,76,46,1,4341,53.28564665,-6.372359628
2115_3665,1,1357506000000000,1,76,747,1,2115,53.32570116,-6.395200528
802_4341,1,1357578000000000,1,46,76,1,802,53.35649811,-6.291283708
6059_807,3,1357462800000000,1,140,46,1,6059,53.35020734,-6.260245957
6059_807,3,1357480800000000,1,140,46,1,6059,53.35020734,-6.260245957
6059_807,3,1357502400000000,1,140,46,1,6059,53.35020734,-6.260245957
192_1069,1,1357484400000000,1,46,140,1,192,53.35644191,-6.268059634
3665_4646,1,1357506000000000,1,747,76,1,3665,53.42811351,-6.244123692
2980_3665,2,1357574400000000,2,116,747,2,2980,53.28005202,-6.273039942
3485_6364,1,1357545600000000,1,46,140,1,3485,53.25522232,-6.215392119
814_1172,1,1357495200000000,1,46,747,1,814,53.36053082,-6.276082396
4636_3665,3,1357578000000000,1,46,747,1,4636,53.28068231,-6.190096082
4636_3665,3,1357560000000000,1,46,747,1,4636,53.28068231,-6.190096082
4636_3665,3,1357574400000000,1,46,747,1,4636,53.28068231,-6.190096082
5011_3665,2,1357567200000000,1,76,747,1,5011,53.30247077,-6.376866295
5011_3665,2,1357545600000000,1,76,747,1,5011,53.30247077,-6.376866295
807_6059,1,1357538400000000,1,46,140,1,807,53.3515563,-6.297685373
2021_6361,1,1357563600000000,1,46,140,1,2021,53.27817732,-6.164408382
2_403,1,1357585200000000,1,46,140,1,2,53.35224392,-6.263693193
3665_1014,1,1357549200000000,1,747,140,1,3665,53.42811351,-6.244123692
1017_3665,2,1357567200000000,1,140,747,1,1017,53.32936933,-6.264322097
1017_3665,2,1357549200000000,1,140,747,1,1017,53.32936933,-6.264322097
5008_3665,2,1357585200000000,1,76,747,1,5008,53.290441,-6.369342344
5008_3665,2,1357574400000000,1,76,747,1,5008,53.290441,-6.369342344
2068_4319,2,1357538400000000,1,46,747,1,2068,53.29692261,-6.204262149
2068_4319,2,1357470000000000,1,46,747,1,2068,53.29692261,-6.204262149
192_1072,1,1357563600000000,1,46,140,1,192,53.35644191,-6.268059634
1076_435,1,1357488000000000,1,140,46,1,1076,53.32315689,-6.265444961
4341_2021,1,1357549200000000,1,76,46,1,4341,53.28564665,-6.372359628
2040_4319,2,1357473600000000,1,46,747,1,2040,53.292738,-6.135416371
2040_4319,2,1357560000000000,1,46,747,1,2040,53.292738,-6.135416371
4319_6059,1,1357473600000000,1,747,46,1,4319,53.34676557,-6.292018441
2158_3665,3,1357484400000000,1,76,747,1,2158,53.32540349,-6.395121626
2158_3665,3,1357570800000000,1,76,747,1,2158,53.32540349,-6.395121626
2158_3665,3,1357466400000000,1,76,747,1,2158,53.32540349,-6.395121626
2685_4636,1,1357495200000000,1,76,46,1,2685,53.34792713,-6.395777694
799_2243,1,1357563600000000,1,46,76,1,799,53.35885973,-6.281738912
807_7398,3,1357495200000000,1,46,747,1,807,53.3515563,-6.297685373
807_7398,3,1357545600000000,1,46,747,1,807,53.3515563,-6.297685373
807_7398,3,1357491600000000,1,46,747,1,807,53.3515563,-6.297685373
2127_3665,1,1357502400000000,1,76,747,1,2127,53.34157107,-6.399004894
2688_3665,1,1357509600000000,1,76,747,1,2688,53.3434633,-6.368175697
7216_4542,1,1357542000000000,1,747,140,1,7216,53.34770816,-6.242428291
3321_3665,1,1357545600000000,1,46,747,1,3321,53.28847812,-6.200386411
387_3665,1,1357578000000000,1,46,747,1,387,53.33254487,-6.215769195
1067_435,1,1357570800000000,1,140,46,1,1067,53.31704157,-6.26521267
274_4341,1,1357513200000000,1,46,76,1,274,53.35034843,-6.260675831
4565_792,1,1357570800000000,1,46,140,1,4565,53.28133298,-6.155139705
3665_2688,1,1357491600000000,1,747,76,1,3665,53.42811351,-6.244123692
797_7216,1,1357585200000000,1,46,747,1,797,53.360726,-6.274662165
768_3665,9,1357578000000000,2,46,747,2,768,53.30942919,-6.218909436
768_3665,9,1357552800000000,1,46,747,1,768,53.30942919,-6.218909436
768_3665,9,1357542000000000,1,46,747,1,768,53.30942919,-6.218909436
768_3665,9,1357570800000000,1,46,747,1,768,53.30942919,-6.218909436
768_3665,9,1357545600000000,2,46,747,2,768,53.30942919,-6.218909436
768_3665,9,1357574400000000,1,46,747,1,768,53.30942919,-6.218909436
768_3665,9,1357491600000000,1,46,747,1,768,53.30942919,-6.218909436
794_4341,1,1357509600000000,1,46,76,1,794,53.34354738,-6.260261816
4341_4319,4,1357567200000000,1,76,747,1,4341,53.28564665,-6.372359628
4341_4319,4,1357542000000000,1,76,747,1,4341,53.28564665,-6.372359628
4341_4319,4,1357502400000000,1,76,747,1,4341,53.28564665,-6.372359628
4341_4319,4,1357545600000000,1,76,747,1,4341,53.28564665,-6.372359628
4319_7,1,1357560000000000,1,747,140,1,4319,53.34676557,-6.292018441
2045_3665,1,1357574400000000,1,46,747,1,2045,53.28907682,-6.145025933
5192_3665,10,1357567200000000,1,46,747,1,5192,53.3458954,-6.258559085
5192_3665,10,1357513200000000,1,46,747,1,5192,53.3458954,-6.258559085
5192_3665,10,1357596000000000,1,46,747,1,5192,53.3458954,-6.258559085
5192_3665,10,1357509600000000,1,46,747,1,5192,53.3458954,-6.258559085
5192_3665,10,1357466400000000,4,46,747,4,5192,53.3458954,-6.258559085
5192_3665,10,1357574400000000,2,46,747,2,5192,53.3458954,-6.258559085
3665_1070,1,1357570800000000,1,747,140,1,3665,53.42811351,-6.244123692
3665_2040,1,1357480800000000,1,747,46,1,3665,53.42811351,-6.244123692
807_188,1,1357466400000000,1,46,140,1,807,53.3515563,-6.297685373
4341_807,4,1357473600000000,1,76,46,1,4341,53.28564665,-6.372359628
4341_807,4,1357477200000000,1,76,46,1,4341,53.28564665,-6.372359628
4341_807,4,1357542000000000,2,76,46,2,4341,53.28564665,-6.372359628
406_4724,1,1357480800000000,1,46,747,1,406,53.34261622,-6.256199628
3665_2042,1,1357488000000000,1,747,46,1,3665,53.42811351,-6.244123692
795_6042,1,1357488000000000,1,46,140,1,795,53.35873106,-6.269724642
3665_2,1,1357542000000000,1,747,46,1,3665,53.42811351,-6.244123692
3665_4341,8,1357477200000000,1,747,76,1,3665,53.42811351,-6.244123692
3665_4341,8,1357542000000000,2,747,76,2,3665,53.42811351,-6.244123692
3665_4341,8,1357596000000000,1,747,76,1,3665,53.42811351,-6.244123692
3665_4341,8,1357570800000000,1,747,76,1,3665,53.42811351,-6.244123692
3665_4341,8,1357545600000000,1,747,76,1,3665,53.42811351,-6.244123692
3665_4341,8,1357574400000000,1,747,76,1,3665,53.42811351,-6.244123692
3665_4341,8,1357549200000000,1,747,76,1,3665,53.42811351,-6.244123692
4795_3665,3,1357488000000000,1,76,747,1,4795,53.35240864,-6.395519265
4795_3665,3,1357560000000000,1,76,747,1,4795,53.35240864,-6.395519265
4795_3665,3,1357491600000000,1,76,747,1,4795,53.35240864,-6.395519265
3665_1076,1,1357578000000000,1,747,140,1,3665,53.42811351,-6.244123692
3665_797,3,1357462800000000,1,747,46,1,3665,53.42811351,-6.244123692
3665_797,3,1357552800000000,1,747,46,1,3665,53.42811351,-6.244123692
3665_797,3,1357542000000000,1,747,46,1,3665,53.42811351,-6.244123692
3665_435,2,1357484400000000,1,747,46,1,3665,53.42811351,-6.244123692
3665_435,2,1357560000000000,1,747,46,1,3665,53.42811351,-6.244123692
2035_4319,3,1357567200000000,1,46,747,1,2035,53.29577235,-6.142665422
2035_4319,3,1357574400000000,1,46,747,1,2035,53.29577235,-6.142665422
2035_4319,3,1357549200000000,1,46,747,1,2035,53.29577235,-6.142665422
274_3665,36,1357578000000000,2,140,747,1,274,53.35034843,-6.260675831
274_3665,36,1357578000000000,2,46,747,1,274,53.35034843,-6.260675831
274_3665,36,1357473600000000,3,140,747,1,274,53.35034843,-6.260675831
274_3665,36,1357473600000000,3,46,747,2,274,53.35034843,-6.260675831
274_3665,36,1357567200000000,4,140,747,3,274,53.35034843,-6.260675831
274_3665,36,1357567200000000,4,46,747,1,274,53.35034843,-6.260675831
274_3665,36,1357462800000000,1,46,747,1,274,53.35034843,-6.260675831
274_3665,36,1357552800000000,1,46,747,1,274,53.35034843,-6.260675831
274_3665,36,1357480800000000,2,46,747,2,274,53.35034843,-6.260675831
274_3665,36,1357542000000000,1,140,747,1,274,53.35034843,-6.260675831
274_3665,36,1357484400000000,2,46,747,2,274,53.35034843,-6.260675831
274_3665,36,1357495200000000,1,46,747,1,274,53.35034843,-6.260675831
274_3665,36,1357556400000000,3,140,747,1,274,53.35034843,-6.260675831
274_3665,36,1357556400000000,3,46,747,2,274,53.35034843,-6.260675831
274_3665,36,1357506000000000,1,140,747,1,274,53.35034843,-6.260675831
274_3665,36,1357545600000000,1,46,747,1,274,53.35034843,-6.260675831
274_3665,36,1357574400000000,1,140,747,1,274,53.35034843,-6.260675831
274_3665,36,1357477200000000,3,140,747,1,274,53.35034843,-6.260675831
274_3665,36,1357477200000000,3,46,747,2,274,53.35034843,-6.260675831
274_3665,36,1357502400000000,1,140,747,1,274,53.35034843,-6.260675831
274_3665,36,1357581600000000,1,46,747,1,274,53.35034843,-6.260675831
274_3665,36,1357560000000000,3,140,747,1,274,53.35034843,-6.260675831
274_3665,36,1357560000000000,3,46,747,2,274,53.35034843,-6.260675831
274_3665,36,1357470000000000,1,46,747,1,274,53.35034843,-6.260675831
274_3665,36,1357491600000000,2,140,747,1,274,53.35034843,-6.260675831
274_3665,36,1357491600000000,2,46,747,1,274,53.35034843,-6.260675831
274_3665,36,1357549200000000,2,46,747,2,274,53.35034843,-6.260675831
2675_1536,1,1357567200000000,1,76,140,1,2675,53.34781651,-6.395571565
2243_3665,7,1357473600000000,2,76,747,2,2243,53.35196519,-6.355683327
2243_3665,7,1357488000000000,4,76,747,4,2243,53.35196519,-6.355683327
2243_3665,7,1357563600000000,1,76,747,1,2243,53.35196519,-6.355683327
3665_2039,5,1357473600000000,1,747,46,1,3665,53.42811351,-6.244123692
3665_2039,5,1357538400000000,1,747,46,1,3665,53.42811351,-6.244123692
3665_2039,5,1357542000000000,1,747,46,1,3665,53.42811351,-6.244123692
3665_2039,5,1357484400000000,1,747,46,1,3665,53.42811351,-6.244123692
3665_2039,5,1357545600000000,1,747,46,1,3665,53.42811351,-6.244123692
2655_3665,5,1357567200000000,1,76,747,1,2655,53.34213795,-6.352832566
2655_3665,5,1357542000000000,1,76,747,1,2655,53.34213795,-6.352832566
2655_3665,5,1357495200000000,1,76,747,1,2655,53.34213795,-6.352832566
2655_3665,5,1357570800000000,1,76,747,1,2655,53.34213795,-6.352832566
2655_3665,5,1357545600000000,1,76,747,1,2655,53.34213795,-6.352832566
807_186,1,1357578000000000,1,46,140,1,807,53.3515563,-6.297685373
2021_198,1,1357477200000000,1,46,140,1,2021,53.27817732,-6.164408382
2007_4341,1,1357574400000000,1,46,76,1,2007,53.30883844,-6.21606771
271_817,1,1357473600000000,1,747,46,1,271,53.34858826,-6.259545833
3665_794,2,1357480800000000,1,747,46,1,3665,53.42811351,-6.244123692
3665_794,2,1357574400000000,1,747,140,1,3665,53.42811351,-6.244123692
406_1560,1,1357545600000000,1,46,140,1,406,53.34261622,-6.256199628
3665_796,1,1357545600000000,1,747,46,1,3665,53.42811351,-6.244123692
3665_795,1,1357563600000000,1,747,46,1,3665,53.42811351,-6.244123692
1280_406,1,1357552800000000,1,140,46,1,1280,53.40018709,-6.30312862
807_6366,1,1357538400000000,1,46,140,1,807,53.3515563,-6.297685373
2243_274,1,1357581600000000,1,76,46,1,2243,53.35196519,-6.355683327
188_3665,1,1357545600000000,1,140,747,1,188,53.3601117,-6.272583513
395_7400,1,1357491600000000,1,46,747,1,395,53.34196024,-6.235425806
5013_3665,2,1357473600000000,1,46,747,1,5013,53.26128386,-6.220431274
5013_3665,2,1357545600000000,1,46,747,1,5013,53.26128386,-6.220431274
1067_7398,1,1357574400000000,1,140,747,1,1067,53.31704157,-6.26521267
806_4319,1,1357549200000000,1,46,747,1,806,53.35031016,-6.295391709
4319_274,2,1357491600000000,1,747,46,1,4319,53.34676557,-6.292018441
4319_274,2,1357549200000000,1,747,140,1,4319,53.34676557,-6.292018441
192_7400,1,1357484400000000,1,46,747,1,192,53.35644191,-6.268059634
3665_786,3,1357570800000000,1,747,46,1,3665,53.42811351,-6.244123692
3665_786,3,1357585200000000,1,747,46,1,3665,53.42811351,-6.244123692
3665_786,3,1357549200000000,1,747,46,1,3665,53.42811351,-6.244123692
5008_4319,1,1357549200000000,1,76,747,1,5008,53.290441,-6.369342344
810_7453,1,1357542000000000,1,46,747,1,810,53.35709964,-6.289982626
2035_274,1,1357549200000000,1,46,140,1,2035,53.29577235,-6.142665422
2039_1531,1,1357484400000000,1,46,140,1,2039,53.2948314,-6.134785099
7_274,1,1357473600000000,1,140,46,1,7,53.35283171,-6.264555613
7398_6365,1,1357581600000000,1,747,140,1,7398,53.3474992,-6.239838352
2017_4319,2,1357498800000000,1,46,747,1,2017,53.27418733,-6.175000804
2017_4319,2,1357549200000000,1,46,747,1,2017,53.27418733,-6.175000804
846_3665,7,1357578000000000,2,46,747,2,846,53.33345329,-6.254080895
846_3665,7,1357488000000000,2,46,747,2,846,53.33345329,-6.254080895
846_3665,7,1357563600000000,1,46,747,1,846,53.33345329,-6.254080895
846_3665,7,1357581600000000,1,46,747,1,846,53.33345329,-6.254080895
846_3665,7,1357560000000000,1,46,747,1,846,53.33345329,-6.254080895
274_4409,1,1357495200000000,1,46,76,1,274,53.35034843,-6.260675831
334_4319,6,1357588800000000,1,46,747,1,334,53.34655465,-6.258156712
334_4319,6,1357473600000000,1,140,747,1,334,53.34655465,-6.258156712
334_4319,6,1357556400000000,1,46,747,1,334,53.34655465,-6.258156712
334_4319,6,1357570800000000,1,46,747,1,334,53.34655465,-6.258156712
334_4319,6,1357545600000000,2,46,747,2,334,53.34655465,-6.258156712
4565_7453,1,1357574400000000,1,46,747,1,4565,53.28133298,-6.155139705
794_4319,1,1357570800000000,1,46,747,1,794,53.34354738,-6.260261816
6367_3665,1,1357477200000000,1,140,747,1,6367,53.40386711,-6.29143131
3665_4565,1,1357556400000000,1,747,46,1,3665,53.42811351,-6.244123692
3665_2021,6,1357462800000000,2,747,46,2,3665,53.42811351,-6.244123692
3665_2021,6,1357552800000000,1,747,46,1,3665,53.42811351,-6.244123692
3665_2021,6,1357542000000000,1,747,46,1,3665,53.42811351,-6.244123692
3665_2021,6,1357506000000000,1,747,46,1,3665,53.42811351,-6.244123692
3665_2021,6,1357549200000000,1,747,46,1,3665,53.42811351,-6.244123692
2007_4319,1,1357560000000000,1,46,747,1,2007,53.30883844,-6.21606771
2040_3665,3,1357462800000000,1,46,747,1,2040,53.292738,-6.135416371
2040_3665,3,1357563600000000,1,46,747,1,2040,53.292738,-6.135416371
2040_3665,3,1357574400000000,1,46,747,1,2040,53.292738,-6.135416371
3665_337,1,1357542000000000,1,747,46,1,3665,53.42811351,-6.244123692
3665_2017,4,1357488000000000,1,747,46,1,3665,53.42811351,-6.244123692
3665_2017,4,1357581600000000,1,747,46,1,3665,53.42811351,-6.244123692
3665_2017,4,1357560000000000,1,747,46,1,3665,53.42811351,-6.244123692
3665_2017,4,1357574400000000,1,747,46,1,3665,53.42811351,-6.244123692
2697_6059,1,1357556400000000,1,76,46,1,2697,53.3422689,-6.353202977
2059_1511,1,1357578000000000,1,46,140,1,2059,53.27517374,-6.170745122
786_3665,6,1357578000000000,1,46,747,1,786,53.33514628,-6.256144022
786_3665,6,1357477200000000,1,46,747,1,786,53.33514628,-6.256144022
786_3665,6,1357542000000000,2,46,747,2,786,53.33514628,-6.256144022
786_3665,6,1357560000000000,1,46,747,1,786,53.33514628,-6.256144022
786_3665,6,1357592400000000,1,46,747,1,786,53.33514628,-6.256144022
3665_334,7,1357473600000000,1,747,46,1,3665,53.42811351,-6.244123692
3665_334,7,1357477200000000,1,747,46,1,3665,53.42811351,-6.244123692
3665_334,7,1357538400000000,1,747,46,1,3665,53.42811351,-6.244123692
3665_334,7,1357495200000000,1,747,46,1,3665,53.42811351,-6.244123692
3665_334,7,1357556400000000,1,747,46,1,3665,53.42811351,-6.244123692
3665_334,7,1357585200000000,1,747,140,1,3665,53.42811351,-6.244123692
3665_334,7,1357509600000000,1,747,46,1,3665,53.42811351,-6.244123692
909_4319,1,1357549200000000,1,46,747,1,909,53.33314722,-6.254048351
6074_792,1,1357563600000000,1,140,46,1,6074,53.33589471,-6.257540035
3665_2015,1,1357470000000000,1,747,46,1,3665,53.42811351,-6.244123692
3665_4795,2,1357563600000000,1,747,76,1,3665,53.42811351,-6.244123692
3665_4795,2,1357574400000000,1,747,76,1,3665,53.42811351,-6.244123692
274_2499,1,1357545600000000,1,140,747,1,274,53.35034843,-6.260675831
274_4543,1,1357556400000000,1,46,140,1,274,53.35034843,-6.260675831
2088_4348,1,1357477200000000,1,46,76,1,2088,53.31729646,-6.216075174
4542_7400,2,1357563600000000,1,140,747,1,4542,53.38666393,-6.297081618
4542_7400,2,1357560000000000,1,140,747,1,4542,53.38666393,-6.297081618
2041_6364,1,1357570800000000,1,46,140,1,2041,53.29362525,-6.13927818
801_3665,9,1357473600000000,1,46,747,1,801,53.3574613,-6.287624427
801_3665,9,1357552800000000,1,46,747,1,801,53.3574613,-6.287624427
801_3665,9,1357563600000000,1,46,747,1,801,53.3574613,-6.287624427
801_3665,9,1357556400000000,3,46,747,3,801,53.3574613,-6.287624427
801_3665,9,1357560000000000,2,46,747,2,801,53.3574613,-6.287624427
801_3665,9,1357574400000000,1,46,747,1,801,53.3574613,-6.287624427
3665_2007,1,1357545600000000,1,747,46,1,3665,53.42811351,-6.244123692
807_274,1,1357549200000000,1,46,140,1,807,53.3515563,-6.297685373
4567_7400,1,1357488000000000,1,46,747,1,4567,53.283024,-6.147102906
5045_4319,1,1357538400000000,1,46,747,1,5045,53.28356775,-6.209156684
807_7400,5,1357473600000000,1,46,747,1,807,53.3515563,-6.297685373
807_7400,5,1357567200000000,1,46,747,1,807,53.3515563,-6.297685373
807_7400,5,1357484400000000,1,46,747,1,807,53.3515563,-6.297685373
807_7400,5,1357556400000000,1,46,747,1,807,53.3515563,-6.297685373
807_7400,5,1357574400000000,1,46,747,1,807,53.3515563,-6.297685373
334_2688,1,1357477200000000,1,46,76,1,334,53.34655465,-6.258156712
4795_4319,2,1357552800000000,1,76,747,1,4795,53.35240864,-6.395519265
4795_4319,2,1357509600000000,1,76,747,1,4795,53.35240864,-6.395519265
2861_198,1,1357545600000000,1,116,140,1,2861,53.2795779,-6.244880531
2065_3665,3,1357560000000000,3,46,747,3,2065,53.28479001,-6.19484198
198_3665,3,1357560000000000,1,140,747,1,198,53.36162538,-6.27283781
198_3665,3,1357470000000000,1,140,747,1,198,53.36162538,-6.27283781
198_3665,3,1357574400000000,1,140,747,1,198,53.36162538,-6.27283781
846_403,1,1357585200000000,1,46,140,1,846,53.33345329,-6.254080895
1071_3665,1,1357542000000000,1,140,747,1,1071,53.32729186,-6.264856835
4795_747,1,1357578000000000,1,76,140,1,4795,53.35240864,-6.395519265
2697_7400,1,1357498800000000,1,76,747,1,2697,53.3422689,-6.353202977
2655_2499,1,1357466400000000,1,76,747,1,2655,53.34213795,-6.352832566
747_2039,1,1357495200000000,1,140,46,1,747,53.33993036,-6.255693501
897_3665,1,1357581600000000,1,140,747,1,897,53.3142902,-6.258360212
5192_4319,1,1357466400000000,1,46,747,1,5192,53.3458954,-6.258559085
2121_3665,1,1357488000000000,1,76,747,1,2121,53.34344397,-6.398589294
909_6059,1,1357578000000000,1,46,140,1,909,53.33314722,-6.254048351
352_4341,1,1357560000000000,1,46,76,1,352,53.3429714,-6.242427889
2041_4319,1,1357552800000000,1,46,747,1,2041,53.29362525,-6.13927818
334_3665,18,1357567200000000,1,140,747,1,334,53.34655465,-6.258156712
334_3665,18,1357488000000000,2,140,747,1,334,53.34655465,-6.258156712
334_3665,18,1357488000000000,2,46,747,1,334,53.34655465,-6.258156712
334_3665,18,1357462800000000,1,46,747,1,334,53.34655465,-6.258156712
334_3665,18,1357552800000000,2,140,747,1,334,53.34655465,-6.258156712
334_3665,18,1357552800000000,2,46,747,1,334,53.34655465,-6.258156712
334_3665,18,1357480800000000,1,46,747,1,334,53.34655465,-6.258156712
334_3665,18,1357484400000000,1,46,747,1,334,53.34655465,-6.258156712
334_3665,18,1357585200000000,1,46,747,1,334,53.34655465,-6.258156712
334_3665,18,1357545600000000,1,46,747,1,334,53.34655465,-6.258156712
334_3665,18,1357466400000000,1,46,747,1,334,53.34655465,-6.258156712
334_3665,18,1357588800000000,2,140,747,1,334,53.34655465,-6.258156712
334_3665,18,1357588800000000,2,46,747,1,334,53.34655465,-6.258156712
334_3665,18,1357477200000000,1,46,747,1,334,53.34655465,-6.258156712
334_3665,18,1357538400000000,1,46,747,1,334,53.34655465,-6.258156712
334_3665,18,1357502400000000,1,46,747,1,334,53.34655465,-6.258156712
334_3665,18,1357570800000000,1,140,747,1,334,53.34655465,-6.258156712
334_3665,18,1357560000000000,1,46,747,1,334,53.34655465,-6.258156712
806_3665,3,1357567200000000,1,46,747,1,806,53.35031016,-6.295391709
806_3665,3,1357484400000000,1,46,747,1,806,53.35031016,-6.295391709
806_3665,3,1357549200000000,1,46,747,1,806,53.35031016,-6.295391709
406_3665,24,1357473600000000,2,46,747,2,406,53.34261622,-6.256199628
406_3665,24,1357462800000000,1,46,747,1,406,53.34261622,-6.256199628
406_3665,24,1357552800000000,1,46,747,1,406,53.34261622,-6.256199628
406_3665,24,1357484400000000,4,46,747,4,406,53.34261622,-6.256199628
406_3665,24,1357556400000000,1,46,747,1,406,53.34261622,-6.256199628
406_3665,24,1357596000000000,1,46,747,1,406,53.34261622,-6.256199628
406_3665,24,1357585200000000,1,46,747,1,406,53.34261622,-6.256199628
406_3665,24,1357545600000000,1,46,747,1,406,53.34261622,-6.256199628
406_3665,24,1357574400000000,2,46,747,2,406,53.34261622,-6.256199628
406_3665,24,1357563600000000,4,46,747,4,406,53.34261622,-6.256199628
406_3665,24,1357581600000000,1,46,747,1,406,53.34261622,-6.256199628
406_3665,24,1357560000000000,1,46,747,1,406,53.34261622,-6.256199628
406_3665,24,1357570800000000,1,46,747,1,406,53.34261622,-6.256199628
406_3665,24,1357509600000000,1,46,747,1,406,53.34261622,-6.256199628
406_3665,24,1357491600000000,2,46,747,2,406,53.34261622,-6.256199628
2039_2656,1,1357473600000000,1,46,76,1,2039,53.2948314,-6.134785099
1560_4319,1,1357545600000000,1,140,747,1,1560,53.39700733,-6.304533352
190_1445,1,1357491600000000,1,140,747,1,190,53.35511675,-6.273371437
2007_4409,1,1357488000000000,1,46,76,1,2007,53.30883844,-6.21606771
4565_5140,1,1357498800000000,1,46,747,1,4565,53.28133298,-6.155139705
6059_4724,1,1357491600000000,1,140,747,1,6059,53.35020734,-6.260245957
3665_1536,1,1357560000000000,1,747,140,1,3665,53.42811351,-6.244123692
796_3665,6,1357552800000000,3,46,747,3,796,53.35998119,-6.269779162
796_3665,6,1357484400000000,1,46,747,1,796,53.35998119,-6.269779162
796_3665,6,1357556400000000,1,46,747,1,796,53.35998119,-6.269779162
796_3665,6,1357560000000000,1,46,747,1,796,53.35998119,-6.269779162
747_4341,2,1357538400000000,1,46,76,1,747,53.33993036,-6.255693501
747_4341,2,1357545600000000,1,46,76,1,747,53.33993036,-6.255693501
3665_747,2,1357488000000000,1,747,46,1,3665,53.42811351,-6.244123692
3665_747,2,1357545600000000,1,747,46,1,3665,53.42811351,-6.244123692
435_3665,2,1357556400000000,1,46,747,1,435,53.29598904,-6.203746226
435_3665,2,1357491600000000,1,46,747,1,435,53.29598904,-6.203746226
188_6059,1,1357545600000000,1,140,46,1,188,53.3601117,-6.272583513
274_4724,1,1357570800000000,1,46,747,1,274,53.35034843,-6.260675831
2007_188,1,1357570800000000,1,46,140,1,2007,53.30883844,-6.21606771
406_1014,1,1357545600000000,1,46,140,1,406,53.34261622,-6.256199628
4341_274,3,1357588800000000,1,76,140,1,4341,53.28564665,-6.372359628
4341_274,3,1357470000000000,2,76,140,2,4341,53.28564665,-6.372359628
2021_4347,1,1357549200000000,1,46,76,1,2021,53.27817732,-6.164408382
274_798,1,1357585200000000,1,140,46,1,274,53.35034843,-6.260675831
4567_3665,2,1357570800000000,1,46,747,1,4567,53.283024,-6.147102906
4567_3665,2,1357585200000000,1,46,747,1,4567,53.283024,-6.147102906
7400_807,1,1357462800000000,1,747,46,1,7400,53.42674583,-6.239138862
447_3665,1,1357552800000000,1,46,747,1,447,53.28020896,-6.21054188
274_1536,1,1357552800000000,1,46,140,1,274,53.35034843,-6.260675831
803_194,1,1357574400000000,1,46,140,1,803,53.35471282,-6.2940292
334_274,1,1357549200000000,1,46,140,1,334,53.34655465,-6.258156712
3665_1531,2,1357473600000000,1,747,140,1,3665,53.42811351,-6.244123692
3665_1531,2,1357552800000000,1,747,140,1,3665,53.42811351,-6.244123692
2158_274,1,1357570800000000,1,76,140,1,2158,53.32540349,-6.395121626
6059_1445,1,1357491600000000,1,46,747,1,6059,53.35020734,-6.260245957
6059_2655,1,1357549200000000,1,46,76,1,6059,53.35020734,-6.260245957
4409_1076,1,1357495200000000,1,76,140,1,4409,53.32234699,-6.393074714
274_406,1,1357542000000000,1,140,46,1,274,53.35034843,-6.260675831
768_4341,2,1357473600000000,1,46,76,1,768,53.30942919,-6.218909436
768_4341,2,1357552800000000,1,46,76,1,768,53.30942919,-6.218909436
768_274,1,1357549200000000,1,46,140,1,768,53.30942919,-6.218909436
802_3665,2,1357567200000000,1,46,747,1,802,53.35649811,-6.291283708
802_3665,2,1357552800000000,1,46,747,1,802,53.35649811,-6.291283708
334_4724,1,1357563600000000,1,46,747,1,334,53.34655465,-6.258156712
186_3665,6,1357563600000000,2,140,747,2,186,53.36534614,-6.271575323
186_3665,6,1357581600000000,1,140,747,1,186,53.36534614,-6.271575323
186_3665,6,1357560000000000,1,140,747,1,186,53.36534614,-6.271575323
186_3665,6,1357545600000000,1,140,747,1,186,53.36534614,-6.271575323
186_3665,6,1357549200000000,1,140,747,1,186,53.36534614,-6.271575323
2032_3665,6,1357578000000000,2,46,747,2,2032,53.28948627,-6.144768187
2032_3665,6,1357563600000000,1,46,747,1,2032,53.28948627,-6.144768187
2032_3665,6,1357581600000000,1,46,747,1,2032,53.28948627,-6.144768187
2032_3665,6,1357585200000000,2,46,747,2,2032,53.28948627,-6.144768187
747_4319,2,1357480800000000,1,46,747,1,747,53.33993036,-6.255693501
747_4319,2,1357549200000000,1,46,747,1,747,53.33993036,-6.255693501
4319_1560,1,1357570800000000,1,747,140,1,4319,53.34676557,-6.292018441
4319_807,8,1357462800000000,1,747,46,1,4319,53.34676557,-6.292018441
4319_807,8,1357552800000000,2,747,46,2,4319,53.34676557,-6.292018441
4319_807,8,1357480800000000,1,747,46,1,4319,53.34676557,-6.292018441
4319_807,8,1357542000000000,1,747,46,1,4319,53.34676557,-6.292018441
4319_807,8,1357570800000000,2,747,46,2,4319,53.34676557,-6.292018441
4319_807,8,1357470000000000,1,747,46,1,4319,53.34676557,-6.292018441
4319_801,1,1357477200000000,1,747,46,1,4319,53.34676557,-6.292018441
190_2675,1,1357574400000000,1,140,76,1,190,53.35511675,-6.273371437
2_4319,2,1357477200000000,1,46,747,1,2,53.35224392,-6.263693193
2_4319,2,1357552800000000,1,46,747,1,2,53.35224392,-6.263693193
2007_3665,6,1357477200000000,1,46,747,1,2007,53.30883844,-6.21606771
2007_3665,6,1357552800000000,1,46,747,1,2007,53.30883844,-6.21606771
2007_3665,6,1357542000000000,1,46,747,1,2007,53.30883844,-6.21606771
2007_3665,6,1357570800000000,1,46,747,1,2007,53.30883844,-6.21606771
2007_3665,6,1357585200000000,1,46,747,1,2007,53.30883844,-6.21606771
2007_3665,6,1357549200000000,1,46,747,1,2007,53.30883844,-6.21606771
3665_768,5,1357488000000000,1,747,46,1,3665,53.42811351,-6.244123692
3665_768,5,1357545600000000,1,747,46,1,3665,53.42811351,-6.244123692
3665_768,5,1357470000000000,1,747,46,1,3665,53.42811351,-6.244123692
3665_768,5,1357466400000000,2,747,46,2,3665,53.42811351,-6.244123692
3665_406,6,1357473600000000,1,747,46,1,3665,53.42811351,-6.244123692
3665_406,6,1357488000000000,1,747,46,1,3665,53.42811351,-6.244123692
3665_406,6,1357552800000000,1,747,46,1,3665,53.42811351,-6.244123692
3665_406,6,1357484400000000,1,747,46,1,3665,53.42811351,-6.244123692
3665_406,6,1357556400000000,1,747,46,1,3665,53.42811351,-6.244123692
3665_406,6,1357466400000000,1,747,46,1,3665,53.42811351,-6.244123692
797_4341,1,1357581600000000,1,46,76,1,797,53.360726,-6.274662165
356_4341,1,1357545600000000,1,46,76,1,356,53.34190302,-6.226717443
2672_3665,2,1357477200000000,1,76,747,1,2672,53.34333076,-6.367685142
2672_3665,2,1357567200000000,1,76,747,1,2672,53.34333076,-6.367685142
797_4319,4,1357473600000000,2,46,747,2,797,53.360726,-6.274662165
797_4319,4,1357477200000000,1,46,747,1,797,53.360726,-6.274662165
797_4319,4,1357549200000000,1,46,747,1,797,53.360726,-6.274662165
444_3665,1,1357545600000000,1,46,747,1,444,53.28805585,-6.207558995
2668_6362,1,1357592400000000,1,76,140,1,2668,53.34302775,-6.363281252
198_4319,1,1357549200000000,1,140,747,1,198,53.36162538,-6.27283781
274_1359,1,1357585200000000,1,140,747,1,274,53.35034843,-6.260675831
4724_807,1,1357473600000000,1,747,46,1,4724,53.35052019,-6.260743945
2112_3665,7,1357578000000000,1,76,747,1,2112,53.32066992,-6.39334788
2112_3665,7,1357567200000000,2,76,747,2,2112,53.32066992,-6.39334788
2112_3665,7,1357552800000000,1,76,747,1,2112,53.32066992,-6.39334788
2112_3665,7,1357581600000000,1,76,747,1,2112,53.32066992,-6.39334788
2112_3665,7,1357466400000000,2,76,747,2,2112,53.32066992,-6.39334788
747_7400,1,1357578000000000,1,46,747,1,747,53.33993036,-6.255693501
2039_3665,31,1357578000000000,1,46,747,1,2039,53.2948314,-6.134785099
2039_3665,31,1357473600000000,1,46,747,1,2039,53.2948314,-6.134785099
2039_3665,31,1357488000000000,1,46,747,1,2039,53.2948314,-6.134785099
2039_3665,31,1357542000000000,6,46,747,6,2039,53.2948314,-6.134785099
2039_3665,31,1357498800000000,2,46,747,2,2039,53.2948314,-6.134785099
2039_3665,31,1357495200000000,1,46,747,1,2039,53.2948314,-6.134785099
2039_3665,31,1357556400000000,3,46,747,3,2039,53.2948314,-6.134785099
2039_3665,31,1357585200000000,1,46,747,1,2039,53.2948314,-6.134785099
2039_3665,31,1357466400000000,1,46,747,1,2039,53.2948314,-6.134785099
2039_3665,31,1357574400000000,1,46,747,1,2039,53.2948314,-6.134785099
2039_3665,31,1357588800000000,1,46,747,1,2039,53.2948314,-6.134785099
2039_3665,31,1357563600000000,1,46,747,1,2039,53.2948314,-6.134785099
2039_3665,31,1357581600000000,2,46,747,2,2039,53.2948314,-6.134785099
2039_3665,31,1357570800000000,2,46,747,2,2039,53.2948314,-6.134785099
2039_3665,31,1357470000000000,2,46,747,2,2039,53.2948314,-6.134785099
2039_3665,31,1357592400000000,1,46,747,1,2039,53.2948314,-6.134785099
2039_3665,31,1357549200000000,4,46,747,4,2039,53.2948314,-6.134785099
3085_3665,2,1357542000000000,2,46,747,2,3085,53.3024707,-6.178341224
845_403,1,1357560000000000,1,46,140,1,845,53.33545323,-6.256236611
2158_7400,1,1357480800000000,1,76,747,1,2158,53.32540349,-6.395121626
807_1071,1,1357498800000000,1,46,140,1,807,53.3515563,-6.297685373
1560_3665,3,1357578000000000,1,140,747,1,1560,53.39700733,-6.304533352
1560_3665,3,1357581600000000,1,140,747,1,1560,53.39700733,-6.304533352
1560_3665,3,1357470000000000,1,140,747,1,1560,53.39700733,-6.304533352
807_1070,1,1357570800000000,1,46,140,1,807,53.3515563,-6.297685373
809_3665,3,1357477200000000,1,46,747,1,809,53.35525154,-6.293361691
809_3665,3,1357552800000000,1,46,747,1,809,53.35525154,-6.293361691
809_3665,3,1357545600000000,1,46,747,1,809,53.35525154,-6.293361691
807_4341,3,1357538400000000,1,46,76,1,807,53.3515563,-6.297685373
807_4341,3,1357502400000000,1,46,76,1,807,53.3515563,-6.297685373
807_4341,3,1357470000000000,1,46,76,1,807,53.3515563,-6.297685373
6362_6059,1,1357552800000000,1,140,46,1,6362,53.40649144,-6.289536242
814_3665,3,1357477200000000,1,46,747,1,814,53.36053082,-6.276082396
814_3665,3,1357542000000000,1,46,747,1,814,53.36053082,-6.276082396
814_3665,3,1357574400000000,1,46,747,1,814,53.36053082,-6.276082396
807_1076,2,1357542000000000,1,46,140,1,807,53.3515563,-6.297685373
807_1076,2,1357545600000000,1,46,140,1,807,53.3515563,-6.297685373
4636_2345,1,1357567200000000,1,46,76,1,4636,53.28068231,-6.190096082
3665_817,1,1357477200000000,1,747,46,1,3665,53.42811351,-6.244123692
5192_4341,1,1357506000000000,1,46,76,1,5192,53.3458954,-6.258559085
2128_4543,1,1357545600000000,1,76,140,1,2128,53.33966646,-6.399737008
803_4319,1,1357491600000000,1,46,747,1,803,53.35471282,-6.2940292
807_334,1,1357556400000000,1,46,140,1,807,53.3515563,-6.297685373
406_4319,8,1357473600000000,1,46,747,1,406,53.34261622,-6.256199628
406_4319,8,1357477200000000,2,46,747,2,406,53.34261622,-6.256199628
406_4319,8,1357459200000000,1,46,747,1,406,53.34261622,-6.256199628
406_4319,8,1357581600000000,1,46,747,1,406,53.34261622,-6.256199628
406_4319,8,1357495200000000,1,46,747,1,406,53.34261622,-6.256199628
406_4319,8,1357556400000000,1,46,747,1,406,53.34261622,-6.256199628
406_4319,8,1357570800000000,1,46,747,1,406,53.34261622,-6.256199628
796_4319,1,1357560000000000,1,46,747,1,796,53.35998119,-6.269779162
4341_192,1,1357477200000000,1,76,46,1,4341,53.28564665,-6.372359628
2039_4646,1,1357574400000000,1,46,76,1,2039,53.2948314,-6.134785099
4348_3665,2,1357578000000000,1,76,747,1,4348,53.28666326,-6.375065763
4348_3665,2,1357556400000000,1,76,747,1,4348,53.28666326,-6.375065763
4319_4646,1,1357552800000000,1,747,76,1,4319,53.34676557,-6.292018441
334_2656,1,1357480800000000,1,46,76,1,334,53.34655465,-6.258156712
807_1067,1,1357556400000000,1,46,140,1,807,53.3515563,-6.297685373
768_1069,1,1357578000000000,1,46,140,1,768,53.30942919,-6.218909436
6074_817,1,1357545600000000,1,140,46,1,6074,53.33589471,-6.257540035
807_1069,1,1357570800000000,1,46,140,1,807,53.3515563,-6.297685373
817_7398,1,1357488000000000,1,46,747,1,817,53.35963702,-6.269597787
4565_4341,1,1357506000000000,1,46,76,1,4565,53.28133298,-6.155139705
846_7149,1,1357581600000000,1,46,140,1,846,53.33345329,-6.254080895
2068_3665,4,1357578000000000,1,46,747,1,2068,53.29692261,-6.204262149
2068_3665,4,1357488000000000,1,46,747,1,2068,53.29692261,-6.204262149
2068_3665,4,1357484400000000,1,46,747,1,2068,53.29692261,-6.204262149
2068_3665,4,1357545600000000,1,46,747,1,2068,53.29692261,-6.204262149
7111_3665,2,1357552800000000,1,140,747,1,7111,53.40199078,-6.291581697
7111_3665,2,1357480800000000,1,140,747,1,7111,53.40199078,-6.291581697
845_4341,1,1357552800000000,1,46,76,1,845,53.33545323,-6.256236611
2128_3665,1,1357563600000000,1,76,747,1,2128,53.33966646,-6.399737008
6230_4319,1,1357549200000000,1,140,747,1,6230,53.40139094,-6.29677925
7400_5192,1,1357466400000000,1,747,46,1,7400,53.42674583,-6.239138862
2045_403,1,1357574400000000,1,46,140,1,2045,53.28907682,-6.145025933
2032_4319,3,1357477200000000,1,46,747,1,2032,53.28948627,-6.144768187
2032_4319,3,1357563600000000,1,46,747,1,2032,53.28948627,-6.144768187
2032_4319,3,1357545600000000,1,46,747,1,2032,53.28948627,-6.144768187
4319_2697,2,1357549200000000,2,747,76,2,4319,53.34676557,-6.292018441
2_4528,1,1357545600000000,1,46,140,1,2,53.35224392,-6.263693193
3665_2655,1,1357498800000000,1,747,76,1,3665,53.42811351,-6.244123692
4984_3665,2,1357538400000000,1,46,747,1,4984,53.27372018,-6.203420603
4984_3665,2,1357585200000000,1,46,747,1,4984,53.27372018,-6.203420603
3665_2656,1,1357588800000000,1,747,76,1,3665,53.42811351,-6.244123692
4401_3665,1,1357581600000000,1,76,747,1,4401,53.35477432,-6.37176968
194_3665,1,1357578000000000,1,140,747,1,194,53.35504043,-6.269964297
2021_7400,1,1357549200000000,1,46,747,1,2021,53.27817732,-6.164408382
848_3665,1,1357570800000000,1,46,747,1,848,53.3297659,-6.249021573
4636_2128,1,1357488000000000,1,46,76,1,4636,53.28068231,-6.190096082
6229_3665,3,1357578000000000,1,140,747,1,6229,53.40205509,-6.298602582
6229_3665,3,1357556400000000,1,140,747,1,6229,53.40205509,-6.298602582
6229_3665,3,1357574400000000,1,140,747,1,6229,53.40205509,-6.298602582
2_3665,7,1357473600000000,1,46,747,1,2,53.35224392,-6.263693193
2_3665,7,1357552800000000,1,46,747,1,2,53.35224392,-6.263693193
2_3665,7,1357480800000000,1,46,747,1,2,53.35224392,-6.263693193
2_3665,7,1357581600000000,1,46,747,1,2,53.35224392,-6.263693193
2_3665,7,1357560000000000,1,46,747,1,2,53.35224392,-6.263693193
2_3665,7,1357570800000000,1,46,747,1,2,53.35224392,-6.263693193
2_3665,7,1357585200000000,1,46,747,1,2,53.35224392,-6.263693193
1017_4319,1,1357567200000000,1,140,747,1,1017,53.32936933,-6.264322097
4341_3665,29,1357567200000000,1,76,747,1,4341,53.28564665,-6.372359628
4341_3665,29,1357542000000000,7,76,747,7,4341,53.28564665,-6.372359628
4341_3665,29,1357556400000000,5,76,747,5,4341,53.28564665,-6.372359628
4341_3665,29,1357506000000000,2,76,747,2,4341,53.28564665,-6.372359628
4341_3665,29,1357585200000000,2,76,747,2,4341,53.28564665,-6.372359628
4341_3665,29,1357545600000000,1,76,747,1,4341,53.28564665,-6.372359628
4341_3665,29,1357574400000000,1,76,747,1,4341,53.28564665,-6.372359628
4341_3665,29,1357588800000000,1,76,747,1,4341,53.28564665,-6.372359628
4341_3665,29,1357477200000000,2,76,747,2,4341,53.28564665,-6.372359628
4341_3665,29,1357513200000000,1,76,747,1,4341,53.28564665,-6.372359628
4341_3665,29,1357502400000000,1,76,747,1,4341,53.28564665,-6.372359628
4341_3665,29,1357470000000000,2,76,747,2,4341,53.28564665,-6.372359628
4341_3665,29,1357592400000000,2,76,747,2,4341,53.28564665,-6.372359628
4341_3665,29,1357491600000000,1,76,747,1,4341,53.28564665,-6.372359628
4798_3665,3,1357552800000000,1,76,747,1,4798,53.3455514,-6.380922565
4798_3665,3,1357484400000000,2,76,747,2,4798,53.3455514,-6.380922565
2675_4319,1,1357498800000000,1,76,747,1,2675,53.34781651,-6.395571565
2015_3665,1,1357473600000000,1,46,747,1,2015,53.27556271,-6.179125904
3665_846,1,1357556400000000,1,747,46,1,3665,53.42811351,-6.244123692
453_4319,1,1357491600000000,1,46,747,1,453,53.28858605,-6.207551797
3665_845,1,1357542000000000,1,747,46,1,3665,53.42811351,-6.244123692
812_4319,1,1357567200000000,1,46,747,1,812,53.35825716,-6.284212089
792_3665,20,1357473600000000,1,140,747,1,792,53.3420867,-6.258098549
792_3665,20,1357488000000000,1,46,747,1,792,53.3420867,-6.258098549
792_3665,20,1357563600000000,2,140,747,1,792,53.3420867,-6.258098549
792_3665,20,1357563600000000,2,46,747,1,792,53.3420867,-6.258098549
792_3665,20,1357581600000000,1,46,747,1,792,53.3420867,-6.258098549
792_3665,20,1357484400000000,2,140,747,1,792,53.3420867,-6.258098549
792_3665,20,1357484400000000,2,46,747,1,792,53.3420867,-6.258098549
792_3665,20,1357495200000000,1,46,747,1,792,53.3420867,-6.258098549
792_3665,20,1357556400000000,1,46,747,1,792,53.3420867,-6.258098549
792_3665,20,1357560000000000,3,140,747,1,792,53.3420867,-6.258098549
792_3665,20,1357560000000000,3,46,747,2,792,53.3420867,-6.258098549
792_3665,20,1357545600000000,2,140,747,1,792,53.3420867,-6.258098549
792_3665,20,1357545600000000,2,46,747,1,792,53.3420867,-6.258098549
792_3665,20,1357574400000000,4,140,747,2,792,53.3420867,-6.258098549
792_3665,20,1357574400000000,4,46,747,2,792,53.3420867,-6.258098549
792_3665,20,1357491600000000,1,46,747,1,792,53.3420867,-6.258098549
792_3665,20,1357549200000000,1,46,747,1,792,53.3420867,-6.258098549
768_4319,2,1357473600000000,1,46,747,1,768,53.30942919,-6.218909436
768_4319,2,1357470000000000,1,46,747,1,768,53.30942919,-6.218909436
768_1935,1,1357578000000000,1,46,747,1,768,53.30942919,-6.218909436
2687_4319,1,1357542000000000,1,76,747,1,2687,53.34387943,-6.372320034
794_1506,1,1357567200000000,1,46,140,1,794,53.34354738,-6.260261816
807_2110,1,1357470000000000,1,46,76,1,807,53.3515563,-6.297685373
7_2032,1,1357495200000000,1,140,46,1,7,53.35283171,-6.264555613
2046_1071,1,1357542000000000,1,46,140,1,2046,53.28599367,-6.145594482
1070_3665,3,1357473600000000,2,140,747,2,1070,53.32497098,-6.265341344
1070_3665,3,1357491600000000,1,140,747,1,1070,53.32497098,-6.265341344
768_6032,1,1357545600000000,1,46,747,1,768,53.30942919,-6.218909436
819_3665,1,1357552800000000,1,46,747,1,819,53.35629482,-6.265977336
1506_3665,1,1357545600000000,1,140,747,1,1506,53.36676884,-6.272374273
4542_3665,6,1357542000000000,2,140,747,2,4542,53.38666393,-6.297081618
4542_3665,6,1357484400000000,1,140,747,1,4542,53.38666393,-6.297081618
4542_3665,6,1357574400000000,3,140,747,3,4542,53.38666393,-6.297081618
274_6059,1,1357563600000000,1,46,140,1,274,53.35034843,-6.260675831
188_807,1,1357560000000000,1,140,46,1,188,53.3601117,-6.272583513
786_7400,1,1357578000000000,1,46,747,1,786,53.33514628,-6.256144022
2039_4795,1,1357484400000000,1,46,76,1,2039,53.2948314,-6.134785099
807_4409,1,1357470000000000,1,46,76,1,807,53.3515563,-6.297685373
4319_2039,2,1357473600000000,1,747,46,1,4319,53.34676557,-6.292018441
4319_2039,2,1357470000000000,1,747,46,1,4319,53.34676557,-6.292018441
2039_2499,1,1357473600000000,1,46,747,1,2039,53.2948314,-6.134785099
6059_1076,2,1357567200000000,1,46,140,1,6059,53.35020734,-6.260245957
6059_1076,2,1357545600000000,1,46,140,1,6059,53.35020734,-6.260245957
2021_3665,9,1357477200000000,1,46,747,1,2021,53.27817732,-6.164408382
2021_3665,9,1357488000000000,1,46,747,1,2021,53.27817732,-6.164408382
2021_3665,9,1357480800000000,1,46,747,1,2021,53.27817732,-6.164408382
2021_3665,9,1357502400000000,1,46,747,1,2021,53.27817732,-6.164408382
2021_3665,9,1357563600000000,1,46,747,1,2021,53.27817732,-6.164408382
2021_3665,9,1357581600000000,1,46,747,1,2021,53.27817732,-6.164408382
2021_3665,9,1357484400000000,1,46,747,1,2021,53.27817732,-6.164408382
2021_3665,9,1357509600000000,1,46,747,1,2021,53.27817732,-6.164408382
2021_3665,9,1357574400000000,1,46,747,1,2021,53.27817732,-6.164408382
809_6059,1,1357542000000000,1,46,140,1,809,53.35525154,-6.293361691
7453_274,1,1357549200000000,1,747,140,1,7453,53.34633589,-6.278382504
2066_3665,1,1357491600000000,1,46,747,1,2066,53.2900383,-6.199540809
807_7,1,1357581600000000,1,46,140,1,807,53.3515563,-6.297685373
797_3665,13,1357473600000000,1,46,747,1,797,53.360726,-6.274662165
797_3665,13,1357462800000000,1,46,747,1,797,53.360726,-6.274662165
797_3665,13,1357542000000000,1,46,747,1,797,53.360726,-6.274662165
797_3665,13,1357502400000000,1,46,747,1,797,53.360726,-6.274662165
797_3665,13,1357581600000000,1,46,747,1,797,53.360726,-6.274662165
797_3665,13,1357506000000000,1,46,747,1,797,53.360726,-6.274662165
797_3665,13,1357560000000000,1,46,747,1,797,53.360726,-6.274662165
797_3665,13,1357570800000000,2,46,747,2,797,53.360726,-6.274662165
797_3665,13,1357545600000000,1,46,747,1,797,53.360726,-6.274662165
797_3665,13,1357574400000000,1,46,747,1,797,53.360726,-6.274662165
797_3665,13,1357549200000000,2,46,747,2,797,53.360726,-6.274662165
4348_7398,1,1357549200000000,1,76,747,1,4348,53.28666326,-6.375065763
198_406,1,1357542000000000,1,140,46,1,198,53.36162538,-6.27283781
4565_4319,2,1357581600000000,1,46,747,1,4565,53.28133298,-6.155139705
4565_4319,2,1357470000000000,1,46,747,1,4565,53.28133298,-6.155139705
4319_2032,1,1357542000000000,1,747,46,1,4319,53.34676557,-6.292018441
7216_845,1,1357552800000000,1,747,46,1,7216,53.34770816,-6.242428291
2041_2655,1,1357495200000000,1,46,76,1,2041,53.29362525,-6.13927818
817_3665,4,1357477200000000,1,46,747,1,817,53.35963702,-6.269597787
817_3665,4,1357556400000000,1,46,747,1,817,53.35963702,-6.269597787
817_3665,4,1357506000000000,1,46,747,1,817,53.35963702,-6.269597787
817_3665,4,1357560000000000,1,46,747,1,817,53.35963702,-6.269597787
199_3665,2,1357578000000000,1,140,747,1,199,53.36361283,-6.27229161
199_3665,2,1357592400000000,1,140,747,1,199,53.36361283,-6.27229161
4319_747,1,1357549200000000,1,747,46,1,4319,53.34676557,-6.292018441
1069_3665,1,1357466400000000,1,140,747,1,1069,53.32328505,-6.265604892
190_4319,1,1357581600000000,1,140,747,1,190,53.35511675,-6.273371437
1531_4724,1,1357545600000000,1,140,747,1,1531,53.38374345,-6.293349716
403_3665,9,1357578000000000,2,140,747,2,403,53.34271329,-6.256691284
403_3665,9,1357567200000000,1,140,747,1,403,53.34271329,-6.256691284
403_3665,9,1357581600000000,1,140,747,1,403,53.34271329,-6.256691284
403_3665,9,1357484400000000,1,140,747,1,403,53.34271329,-6.256691284
403_3665,9,1357560000000000,1,140,747,1,403,53.34271329,-6.256691284
403_3665,9,1357570800000000,1,140,747,1,403,53.34271329,-6.256691284
403_3665,9,1357585200000000,1,140,747,1,403,53.34271329,-6.256691284
403_3665,9,1357491600000000,1,140,747,1,403,53.34271329,-6.256691284
2039_4319,4,1357542000000000,2,46,747,2,2039,53.2948314,-6.134785099
2039_4319,4,1357502400000000,1,46,747,1,2039,53.2948314,-6.134785099
2039_4319,4,1357599600000000,1,46,747,1,2039,53.2948314,-6.134785099
1072_3665,1,1357560000000000,1,140,747,1,1072,53.33099061,-6.264556561
792_6074,1,1357545600000000,1,46,140,1,792,53.3420867,-6.258098549
337_3665,6,1357477200000000,1,46,747,1,337,53.3458989,-6.258183446
337_3665,6,1357542000000000,2,46,747,2,337,53.3458989,-6.258183446
337_3665,6,1357506000000000,1,46,747,1,337,53.3458989,-6.258183446
337_3665,6,1357545600000000,2,46,747,2,337,53.3458989,-6.258183446
7400_794,1,1357549200000000,1,747,46,1,7400,53.42674583,-6.239138862
1067_3665,1,1357574400000000,1,140,747,1,1067,53.31704157,-6.26521267
3665_6276,1,1357588800000000,1,747,140,1,3665,53.42811351,-6.244123692
2158_6361,1,1357552800000000,1,76,140,1,2158,53.32540349,-6.395121626
2068_6059,1,1357585200000000,1,46,140,1,2068,53.29692261,-6.204262149
6042_4724,1,1357488000000000,1,140,747,1,6042,53.32013891,-6.264966942
4409_3665,1,1357578000000000,1,76,747,1,4409,53.32234699,-6.393074714
1172_198,1,1357552800000000,1,747,140,1,1172,53.35174313,-6.255241204
4319_2021,3,1357552800000000,1,747,46,1,4319,53.34676557,-6.292018441
4319_2021,3,1357480800000000,1,747,46,1,4319,53.34676557,-6.292018441
4319_2021,3,1357542000000000,1,747,46,1,4319,53.34676557,-6.292018441
406_4341,2,1357473600000000,1,46,76,1,406,53.34261622,-6.256199628
406_4341,2,1357545600000000,1,46,76,1,406,53.34261622,-6.256199628
6059_4319,6,1357581600000000,1,140,747,1,6059,53.35020734,-6.260245957
6059_4319,6,1357556400000000,1,140,747,1,6059,53.35020734,-6.260245957
6059_4319,6,1357560000000000,1,140,747,1,6059,53.35020734,-6.260245957
6059_4319,6,1357585200000000,1,140,747,1,6059,53.35020734,-6.260245957
6059_4319,6,1357549200000000,2,140,747,1,6059,53.35020734,-6.260245957
6059_4319,6,1357549200000000,2,46,747,1,6059,53.35020734,-6.260245957
2345_4319,1,1357549200000000,1,76,747,1,2345,53.29366316,-6.369009589
807_4795,1,1357488000000000,1,46,76,1,807,53.3515563,-6.297685373
7400_406,1,1357563600000000,1,747,46,1,7400,53.42674583,-6.239138862
818_7400,1,1357549200000000,1,46,747,1,818,53.35848112,-6.269223945
3665_807,47,1357578000000000,1,747,46,1,3665,53.42811351,-6.244123692
3665_807,47,1357473600000000,2,747,46,2,3665,53.42811351,-6.244123692
3665_807,47,1357488000000000,3,747,46,3,3665,53.42811351,-6.244123692
3665_807,47,1357462800000000,1,747,46,1,3665,53.42811351,-6.244123692
3665_807,47,1357552800000000,1,747,46,1,3665,53.42811351,-6.244123692
3665_807,47,1357542000000000,7,747,46,7,3665,53.42811351,-6.244123692
3665_807,47,1357498800000000,1,747,46,1,3665,53.42811351,-6.244123692
3665_807,47,1357484400000000,1,747,46,1,3665,53.42811351,-6.244123692
3665_807,47,1357495200000000,2,747,46,2,3665,53.42811351,-6.244123692
3665_807,47,1357556400000000,2,747,46,2,3665,53.42811351,-6.244123692
3665_807,47,1357506000000000,2,747,46,2,3665,53.42811351,-6.244123692
3665_807,47,1357466400000000,3,747,46,3,3665,53.42811351,-6.244123692
3665_807,47,1357574400000000,2,747,46,2,3665,53.42811351,-6.244123692
3665_807,47,1357477200000000,2,747,46,2,3665,53.42811351,-6.244123692
3665_807,47,1357563600000000,4,747,46,4,3665,53.42811351,-6.244123692
3665_807,47,1357560000000000,1,747,46,1,3665,53.42811351,-6.244123692
3665_807,47,1357470000000000,5,747,46,5,3665,53.42811351,-6.244123692
3665_807,47,1357491600000000,5,747,46,5,3665,53.42811351,-6.244123692
3665_807,47,1357549200000000,2,747,46,2,3665,53.42811351,-6.244123692
334_7398,3,1357545600000000,1,46,747,1,334,53.34655465,-6.258156712
334_7398,3,1357470000000000,1,46,747,1,334,53.34655465,-6.258156712
334_7398,3,1357549200000000,1,46,747,1,334,53.34655465,-6.258156712
3665_809,1,1357462800000000,1,747,46,1,3665,53.42811351,-6.244123692
1508_3665,2,1357552800000000,1,140,747,1,1508,53.3699017,-6.278318894
1508_3665,2,1357592400000000,1,140,747,1,1508,53.3699017,-6.278318894
274_803,1,1357560000000000,1,140,46,1,274,53.35034843,-6.260675831
2697_3665,5,1357567200000000,1,76,747,1,2697,53.3422689,-6.353202977
2697_3665,5,1357502400000000,1,76,747,1,2697,53.3422689,-6.353202977
2697_3665,5,1357563600000000,1,76,747,1,2697,53.3422689,-6.353202977
2697_3665,5,1357484400000000,1,76,747,1,2697,53.3422689,-6.353202977
2697_3665,5,1357470000000000,1,76,747,1,2697,53.3422689,-6.353202977
6364_7453,1,1357549200000000,1,140,747,1,6364,53.40258254,-6.301559396
274_807,5,1357473600000000,1,140,46,1,274,53.35034843,-6.260675831
274_807,5,1357480800000000,1,140,46,1,274,53.35034843,-6.260675831
274_807,5,1357563600000000,1,140,46,1,274,53.35034843,-6.260675831
274_807,5,1357556400000000,1,140,46,1,274,53.35034843,-6.260675831
274_807,5,1357470000000000,1,140,46,1,274,53.35034843,-6.260675831
768_6364,1,1357574400000000,1,46,140,1,768,53.30942919,-6.218909436
2039_2158,1,1357599600000000,1,46,76,1,2039,53.2948314,-6.134785099
807_2123,1,1357491600000000,1,46,76,1,807,53.3515563,-6.297685373
817_2655,1,1357560000000000,1,46,76,1,817,53.35963702,-6.269597787
4319_4795,1,1357542000000000,1,747,76,1,4319,53.34676557,-6.292018441
797_1359,1,1357473600000000,1,46,747,1,797,53.360726,-6.274662165
351_4319,1,1357549200000000,1,46,747,1,351,53.34339132,-6.24530928
406_403,1,1357545600000000,1,46,140,1,406,53.34261622,-6.256199628
4341_334,1,1357506000000000,1,76,46,1,4341,53.28564665,-6.372359628
4319_406,1,1357549200000000,1,747,46,1,4319,53.34676557,-6.292018441
4341_7398,1,1357491600000000,1,76,747,1,4341,53.28564665,-6.372359628
334_6074,1,1357578000000000,1,46,140,1,334,53.34655465,-6.258156712
453_3665,1,1357545600000000,1,46,747,1,453,53.28858605,-6.207551797
6366_3665,7,1357578000000000,1,140,747,1,6366,53.4026512,-6.301331065
6366_3665,7,1357488000000000,1,140,747,1,6366,53.4026512,-6.301331065
6366_3665,7,1357563600000000,1,140,747,1,6366,53.4026512,-6.301331065
6366_3665,7,1357502400000000,1,140,747,1,6366,53.4026512,-6.301331065
6366_3665,7,1357498800000000,1,140,747,1,6366,53.4026512,-6.301331065
6366_3665,7,1357495200000000,1,140,747,1,6366,53.4026512,-6.301331065
6366_3665,7,1357556400000000,1,140,747,1,6366,53.4026512,-6.301331065
195_3665,1,1357570800000000,1,140,747,1,195,53.35500171,-6.273496272
4798_6059,1,1357545600000000,1,76,140,1,4798,53.3455514,-6.380922565
3665_804,1,1357578000000000,1,747,46,1,3665,53.42811351,-6.244123692
4319_2007,1,1357466400000000,1,747,46,1,4319,53.34676557,-6.292018441
3665_803,2,1357498800000000,1,747,46,1,3665,53.42811351,-6.244123692
3665_803,2,1357560000000000,1,747,46,1,3665,53.42811351,-6.244123692
2040_7398,1,1357495200000000,1,46,747,1,2040,53.292738,-6.135416371
1069_817,1,1357542000000000,1,140,46,1,1069,53.32328505,-6.265604892
807_4798,1,1357585200000000,1,46,76,1,807,53.3515563,-6.297685373
1531_3665,2,1357552800000000,1,140,747,1,1531,53.38374345,-6.293349716
1531_3665,2,1357560000000000,1,140,747,1,1531,53.38374345,-6.293349716
4319_774,1,1357563600000000,1,747,46,1,4319,53.34676557,-6.292018441
2039_4341,2,1357542000000000,1,46,76,1,2039,53.2948314,-6.134785099
2039_4341,2,1357585200000000,1,46,76,1,2039,53.2948314,-6.134785099
807_4319,27,1357578000000000,1,46,747,1,807,53.3515563,-6.297685373
807_4319,27,1357473600000000,1,46,747,1,807,53.3515563,-6.297685373
807_4319,27,1357567200000000,1,46,747,1,807,53.3515563,-6.297685373
807_4319,27,1357552800000000,1,46,747,1,807,53.3515563,-6.297685373
807_4319,27,1357480800000000,1,46,747,1,807,53.3515563,-6.297685373
807_4319,27,1357542000000000,3,46,747,3,807,53.3515563,-6.297685373
807_4319,27,1357498800000000,1,46,747,1,807,53.3515563,-6.297685373
807_4319,27,1357495200000000,1,46,747,1,807,53.3515563,-6.297685373
807_4319,27,1357585200000000,2,46,747,2,807,53.3515563,-6.297685373
807_4319,27,1357466400000000,6,46,747,6,807,53.3515563,-6.297685373
807_4319,27,1357574400000000,1,46,747,1,807,53.3515563,-6.297685373
807_4319,27,1357588800000000,1,46,747,1,807,53.3515563,-6.297685373
807_4319,27,1357477200000000,1,46,747,1,807,53.3515563,-6.297685373
807_4319,27,1357502400000000,1,46,747,1,807,53.3515563,-6.297685373
807_4319,27,1357570800000000,1,46,747,1,807,53.3515563,-6.297685373
807_4319,27,1357470000000000,3,46,747,3,807,53.3515563,-6.297685373
807_4319,27,1357509600000000,1,46,747,1,807,53.3515563,-6.297685373
2068_6074,1,1357574400000000,1,46,140,1,2068,53.29692261,-6.204262149
2656_3665,4,1357578000000000,1,76,747,1,2656,53.34262329,-6.358701097
2656_3665,4,1357462800000000,1,76,747,1,2656,53.34262329,-6.358701097
2656_3665,4,1357563600000000,1,76,747,1,2656,53.34262329,-6.358701097
2656_3665,4,1357574400000000,1,76,747,1,2656,53.34262329,-6.358701097
4319_814,1,1357495200000000,1,747,46,1,4319,53.34676557,-6.292018441
2017_6059,1,1357560000000000,1,46,140,1,2017,53.27418733,-6.175000804
3665_1506,1,1357578000000000,1,747,140,1,3665,53.42811351,-6.244123692
775_3665,2,1357473600000000,1,46,747,1,775,53.32348051,-6.239070814
775_3665,2,1357545600000000,1,46,747,1,775,53.32348051,-6.239070814
2021_4319,3,1357560000000000,1,46,747,1,2021,53.27817732,-6.164408382
2021_4319,3,1357545600000000,1,46,747,1,2021,53.27817732,-6.164408382
2021_4319,3,1357491600000000,1,46,747,1,2021,53.27817732,-6.164408382
4565_3665,9,1357578000000000,2,46,747,2,4565,53.28133298,-6.155139705
4565_3665,9,1357588800000000,1,46,747,1,4565,53.28133298,-6.155139705
4565_3665,9,1357567200000000,1,46,747,1,4565,53.28133298,-6.155139705
4565_3665,9,1357488000000000,1,46,747,1,4565,53.28133298,-6.155139705
4565_3665,9,1357552800000000,1,46,747,1,4565,53.28133298,-6.155139705
4565_3665,9,1357581600000000,1,46,747,1,4565,53.28133298,-6.155139705
4565_3665,9,1357570800000000,1,46,747,1,4565,53.28133298,-6.155139705
4565_3665,9,1357491600000000,1,46,747,1,4565,53.28133298,-6.155139705
6042_3665,1,1357574400000000,1,140,747,1,6042,53.32013891,-6.264966942
6276_7400,1,1357581600000000,1,140,747,1,6276,53.40608507,-6.291913978
794_274,1,1357466400000000,1,46,140,1,794,53.34354738,-6.260261816
800_3665,2,1357581600000000,1,46,747,1,800,53.35805595,-6.284595774
800_3665,2,1357556400000000,1,46,747,1,800,53.35805595,-6.284595774
190_3665,2,1357588800000000,2,140,747,2,190,53.35511675,-6.273371437
3665_6074,3,1357578000000000,1,747,140,1,3665,53.42811351,-6.244123692
3665_6074,3,1357545600000000,1,747,140,1,3665,53.42811351,-6.244123692
3665_6074,3,1357549200000000,1,747,140,1,3665,53.42811351,-6.244123692
800_403,1,1357581600000000,1,46,140,1,800,53.35805595,-6.284595774
2126_7,1,1357545600000000,1,76,140,1,2126,53.34393524,-6.398360619
2035_7149,1,1357549200000000,1,46,140,1,2035,53.29577235,-6.142665422
790_3665,2,1357563600000000,1,46,747,1,790,53.33910288,-6.257499335
790_3665,2,1357581600000000,1,140,747,1,790,53.33910288,-6.257499335
403_4319,2,1357592400000000,1,140,747,1,403,53.34271329,-6.256691284
403_4319,2,1357549200000000,1,140,747,1,403,53.34271329,-6.256691284
2126_3665,1,1357563600000000,1,76,747,1,2126,53.34393524,-6.398360619
2861_7400,1,1357574400000000,1,116,747,1,2861,53.2795779,-6.244880531
3322_3665,1,1357563600000000,1,46,747,1,3322,53.28813019,-6.201751008
2021_4542,1,1357552800000000,1,46,140,1,2021,53.27817732,-6.164408382
2045_6059,1,1357574400000000,1,46,140,1,2045,53.28907682,-6.145025933
804_198,1,1357495200000000,1,46,140,1,804,53.35368477,-6.295677667
1511_3665,1,1357588800000000,1,140,747,1,1511,53.37823452,-6.287752985
6059_274,1,1357567200000000,1,46,140,1,6059,53.35020734,-6.260245957
6361_3665,6,1357567200000000,1,140,747,1,6361,53.4059394,-6.291784446
6361_3665,6,1357542000000000,1,140,747,1,6361,53.4059394,-6.291784446
6361_3665,6,1357556400000000,1,140,747,1,6361,53.4059394,-6.291784446
6361_3665,6,1357545600000000,1,140,747,1,6361,53.4059394,-6.291784446
6361_3665,6,1357574400000000,2,140,747,2,6361,53.4059394,-6.291784446
2084_3665,1,1357545600000000,1,46,747,1,2084,53.30556314,-6.211627511
6059_3665,37,1357578000000000,4,46,747,4,6059,53.35020734,-6.260245957
6059_3665,37,1357473600000000,1,46,747,1,6059,53.35020734,-6.260245957
6059_3665,37,1357488000000000,1,140,747,1,6059,53.35020734,-6.260245957
6059_3665,37,1357462800000000,1,46,747,1,6059,53.35020734,-6.260245957
6059_3665,37,1357552800000000,3,46,747,3,6059,53.35020734,-6.260245957
6059_3665,37,1357480800000000,1,46,747,1,6059,53.35020734,-6.260245957
6059_3665,37,1357542000000000,1,46,747,1,6059,53.35020734,-6.260245957
6059_3665,37,1357484400000000,1,46,747,1,6059,53.35020734,-6.260245957
6059_3665,37,1357556400000000,2,46,747,2,6059,53.35020734,-6.260245957
6059_3665,37,1357545600000000,2,140,747,1,6059,53.35020734,-6.260245957
6059_3665,37,1357545600000000,2,46,747,1,6059,53.35020734,-6.260245957
6059_3665,37,1357574400000000,3,140,747,1,6059,53.35020734,-6.260245957
6059_3665,37,1357574400000000,3,46,747,2,6059,53.35020734,-6.260245957
6059_3665,37,1357588800000000,2,46,747,2,6059,53.35020734,-6.260245957
6059_3665,37,1357477200000000,2,46,747,2,6059,53.35020734,-6.260245957
6059_3665,37,1357538400000000,1,46,747,1,6059,53.35020734,-6.260245957
6059_3665,37,1357563600000000,2,46,747,2,6059,53.35020734,-6.260245957
6059_3665,37,1357581600000000,4,140,747,2,6059,53.35020734,-6.260245957
6059_3665,37,1357581600000000,4,46,747,2,6059,53.35020734,-6.260245957
6059_3665,37,1357570800000000,2,140,747,1,6059,53.35020734,-6.260245957
6059_3665,37,1357570800000000,2,46,747,1,6059,53.35020734,-6.260245957
6059_3665,37,1357491600000000,2,46,747,2,6059,53.35020734,-6.260245957
6059_3665,37,1357549200000000,2,140,747,1,6059,53.35020734,-6.260245957
6059_3665,37,1357549200000000,2,46,747,1,6059,53.35020734,-6.260245957
803_274,1,1357549200000000,1,46,140,1,803,53.35471282,-6.2940292
2039_7400,1,1357473600000000,1,46,747,1,2039,53.2948314,-6.134785099
747_3665,6,1357578000000000,1,46,747,1,747,53.33993036,-6.255693501
747_3665,6,1357477200000000,1,46,747,1,747,53.33993036,-6.255693501
747_3665,6,1357567200000000,1,46,747,1,747,53.33993036,-6.255693501
747_3665,6,1357563600000000,1,46,747,1,747,53.33993036,-6.255693501
747_3665,6,1357560000000000,1,46,747,1,747,53.33993036,-6.255693501
747_3665,6,1357570800000000,1,46,747,1,747,53.33993036,-6.255693501
406_7400,1,1357506000000000,1,46,747,1,406,53.34261622,-6.256199628
845_3665,14,1357588800000000,1,46,747,1,845,53.33545323,-6.256236611
845_3665,14,1357477200000000,1,46,747,1,845,53.33545323,-6.256236611
845_3665,14,1357488000000000,3,46,747,3,845,53.33545323,-6.256236611
845_3665,14,1357552800000000,1,46,747,1,845,53.33545323,-6.256236611
845_3665,14,1357581600000000,2,46,747,2,845,53.33545323,-6.256236611
845_3665,14,1357556400000000,2,46,747,2,845,53.33545323,-6.256236611
845_3665,14,1357585200000000,1,46,747,1,845,53.33545323,-6.256236611
845_3665,14,1357592400000000,1,46,747,1,845,53.33545323,-6.256236611
845_3665,14,1357466400000000,1,46,747,1,845,53.33545323,-6.256236611
845_3665,14,1357574400000000,1,46,747,1,845,53.33545323,-6.256236611
6229_768,1,1357542000000000,1,140,46,1,6229,53.40205509,-6.298602582
4319_845,2,1357542000000000,1,747,46,1,4319,53.34676557,-6.292018441
4319_845,2,1357495200000000,1,747,46,1,4319,53.34676557,-6.292018441
2697_4319,1,1357470000000000,1,76,747,1,2697,53.3422689,-6.353202977
7149_3665,4,1357567200000000,1,140,747,1,7149,53.40729605,-6.277982239
7149_3665,4,1357581600000000,3,140,747,3,7149,53.40729605,-6.277982239
3665_6059,15,1357477200000000,2,747,46,2,3665,53.42811351,-6.244123692
3665_6059,15,1357462800000000,1,747,46,1,3665,53.42811351,-6.244123692
3665_6059,15,1357542000000000,1,747,46,1,3665,53.42811351,-6.244123692
3665_6059,15,1357581600000000,3,747,140,2,3665,53.42811351,-6.244123692
3665_6059,15,1357581600000000,3,747,46,1,3665,53.42811351,-6.244123692
3665_6059,15,1357484400000000,1,747,46,1,3665,53.42811351,-6.244123692
3665_6059,15,1357556400000000,2,747,46,2,3665,53.42811351,-6.244123692
3665_6059,15,1357570800000000,1,747,46,1,3665,53.42811351,-6.244123692
3665_6059,15,1357585200000000,1,747,140,1,3665,53.42811351,-6.244123692
3665_6059,15,1357545600000000,2,747,46,2,3665,53.42811351,-6.244123692
3665_6059,15,1357491600000000,1,747,46,1,3665,53.42811351,-6.244123692
334_6032,1,1357545600000000,1,46,747,1,334,53.34655465,-6.258156712
398_3665,1,1357484400000000,1,46,747,1,398,53.34329582,-6.245538486
786_6366,1,1357545600000000,1,46,140,1,786,53.33514628,-6.256144022
893_3665,1,1357506000000000,1,140,747,1,893,53.31606331,-6.259143545
4319_4347,1,1357549200000000,1,747,76,1,4319,53.34676557,-6.292018441
807_3665,112,1357567200000000,2,46,747,2,807,53.3515563,-6.297685373
807_3665,112,1357552800000000,6,46,747,6,807,53.3515563,-6.297685373
807_3665,112,1357480800000000,2,46,747,2,807,53.3515563,-6.297685373
807_3665,112,1357542000000000,8,46,747,8,807,53.3515563,-6.297685373
807_3665,112,1357556400000000,4,46,747,4,807,53.3515563,-6.297685373
807_3665,112,1357506000000000,8,46,747,8,807,53.3515563,-6.297685373
807_3665,112,1357466400000000,6,46,747,6,807,53.3515563,-6.297685373
807_3665,112,1357588800000000,2,46,747,2,807,53.3515563,-6.297685373
807_3665,112,1357477200000000,6,46,747,6,807,53.3515563,-6.297685373
807_3665,112,1357563600000000,9,46,747,9,807,53.3515563,-6.297685373
807_3665,112,1357599600000000,1,46,747,1,807,53.3515563,-6.297685373
807_3665,112,1357473600000000,1,46,747,1,807,53.3515563,-6.297685373
807_3665,112,1357488000000000,4,46,747,4,807,53.3515563,-6.297685373
807_3665,112,1357462800000000,7,46,747,7,807,53.3515563,-6.297685373
807_3665,112,1357484400000000,5,46,747,5,807,53.3515563,-6.297685373
807_3665,112,1357596000000000,1,46,747,1,807,53.3515563,-6.297685373
807_3665,112,1357585200000000,2,46,747,2,807,53.3515563,-6.297685373
807_3665,112,1357545600000000,2,46,747,2,807,53.3515563,-6.297685373
807_3665,112,1357574400000000,6,46,747,6,807,53.3515563,-6.297685373
807_3665,112,1357538400000000,2,46,747,2,807,53.3515563,-6.297685373
807_3665,112,1357502400000000,2,46,747,2,807,53.3515563,-6.297685373
807_3665,112,1357581600000000,3,46,747,3,807,53.3515563,-6.297685373
807_3665,112,1357560000000000,2,46,747,2,807,53.3515563,-6.297685373
807_3665,112,1357470000000000,10,46,747,10,807,53.3515563,-6.297685373
807_3665,112,1357592400000000,4,46,747,4,807,53.3515563,-6.297685373
807_3665,112,1357491600000000,6,46,747,6,807,53.3515563,-6.297685373
807_3665,112,1357549200000000,1,46,747,1,807,53.3515563,-6.297685373
807_2697,1,1357473600000000,1,46,76,1,807,53.3515563,-6.297685373
2345_794,1,1357545600000000,1,76,46,1,2345,53.29366316,-6.369009589
453_7,1,1357488000000000,1,46,140,1,453,53.28858605,-6.207551797
4319_4341,1,1357495200000000,1,747,76,1,4319,53.34676557,-6.292018441
4319_1076,1,1357570800000000,1,747,140,1,4319,53.34676557,-6.292018441
