TripBusStopKey,Frequency_ByTripBusStopKey,TimeStamp,Frequency_ByTimeStamp,FirstRouteID,SecondRouteId,Frequency_GroupedByRoutes,FirstStopId,Lat,Lon
1359_6059,1,1357473600000000,1,747,46,1,1359,53.34439919,-6.26135358
5045_4319,1,1357538400000000,1,46,747,1,5045,53.28356775,-6.209156684
2036_1935,1,1357549200000000,1,46,747,1,2036,53.29579273,-6.13820879
1068_3665,1,1357498800000000,1,140,747,1,1068,53.32055823,-6.265370235
3665_192,1,1357498800000000,1,747,46,1,3665,53.42811351,-6.244123692
803_6366,1,1357574400000000,1,46,140,1,803,53.35471282,-6.2940292
7_2032,1,1357495200000000,1,140,46,1,7,53.35283171,-6.264555613
1070_3665,1,1357578000000000,1,140,747,1,1070,53.32497098,-6.265341344
2036_1014,1,1357549200000000,1,46,140,1,2036,53.29579273,-6.13820879
6366_6032,1,1357567200000000,1,140,747,1,6366,53.4026512,-6.301331065
274_2002,2,1357588800000000,1,140,747,1,274,53.35034843,-6.260675831
274_2002,2,1357549200000000,1,46,747,1,274,53.35034843,-6.260675831
274_6059,1,1357563600000000,1,46,140,1,274,53.35034843,-6.260675831
846_403,1,1357585200000000,1,46,140,1,846,53.33345329,-6.254080895
805_2697,1,1357549200000000,1,46,76,1,805,53.35160325,-6.294679151
4319_2039,1,1357470000000000,1,747,46,1,4319,53.34676557,-6.292018441
4348_6229,1,1357542000000000,1,76,140,1,4348,53.28666326,-6.375065763
274_4319,2,1357542000000000,1,46,747,1,274,53.35034843,-6.260675831
274_4319,2,1357556400000000,1,46,747,1,274,53.35034843,-6.260675831
4341_6366,1,1357542000000000,1,76,140,1,4341,53.28564665,-6.372359628
803_3665,1,1357578000000000,1,46,747,1,803,53.35471282,-6.2940292
2041_2656,1,1357477200000000,1,46,76,1,2041,53.29362525,-6.13927818
2041_4319,2,1357567200000000,1,46,747,1,2041,53.29362525,-6.13927818
2041_4319,2,1357552800000000,1,46,747,1,2041,53.29362525,-6.13927818
2041_2655,1,1357495200000000,1,46,76,1,2041,53.29362525,-6.13927818
845_274,1,1357574400000000,1,46,140,1,845,53.33545323,-6.256236611
805_1359,1,1357578000000000,1,46,747,1,805,53.35160325,-6.294679151
403_3665,2,1357578000000000,2,140,747,2,403,53.34271329,-6.256691284
2039_4319,1,1357542000000000,1,46,747,1,2039,53.2948314,-6.134785099
2039_2656,1,1357473600000000,1,46,76,1,2039,53.2948314,-6.134785099
5016_4319,1,1357466400000000,1,46,747,1,5016,53.26142561,-6.219690864
274_2116,1,1357552800000000,1,46,76,1,274,53.35034843,-6.260675831
2036_3665,2,1357556400000000,1,46,747,1,2036,53.29579273,-6.13820879
2036_3665,2,1357491600000000,1,46,747,1,2036,53.29579273,-6.13820879
2673_6059,1,1357545600000000,1,76,140,1,2673,53.34378491,-6.37263903
802_2688,1,1357506000000000,1,46,76,1,802,53.35649811,-6.291283708
4341_274,2,1357470000000000,2,76,140,2,4341,53.28564665,-6.372359628
274_798,1,1357585200000000,1,140,46,1,274,53.35034843,-6.260675831
6059_4319,1,1357560000000000,1,140,747,1,6059,53.35020734,-6.260245957
2042_195,1,1357574400000000,1,46,140,1,2042,53.29365113,-6.142667454
2_403,1,1357585200000000,1,46,140,1,2,53.35224392,-6.263693193
803_194,1,1357574400000000,1,46,140,1,803,53.35471282,-6.2940292
1359_2673,1,1357563600000000,1,747,76,1,1359,53.34439919,-6.26135358
6059_2655,1,1357549200000000,1,46,76,1,6059,53.35020734,-6.260245957
2655_2507,1,1357498800000000,1,76,747,1,2655,53.34213795,-6.352832566
274_803,1,1357560000000000,1,140,46,1,274,53.35034843,-6.260675831
2032_3665,1,1357578000000000,1,46,747,1,2032,53.28948627,-6.144768187
794_3665,4,1357578000000000,1,140,747,1,794,53.34354738,-6.260261816
794_3665,4,1357473600000000,1,46,747,1,794,53.34354738,-6.260261816
794_3665,4,1357498800000000,1,46,747,1,794,53.34354738,-6.260261816
794_3665,4,1357560000000000,1,46,747,1,794,53.34354738,-6.260261816
274_7,1,1357578000000000,1,46,140,1,274,53.35034843,-6.260675831
845_4319,1,1357570800000000,1,46,747,1,845,53.33545323,-6.256236611
7_2686,1,1357542000000000,1,140,76,1,7,53.35283171,-6.264555613
790_2114,1,1357567200000000,1,46,76,1,790,53.33910288,-6.257499335
6366_3665,1,1357556400000000,1,140,747,1,6366,53.4026512,-6.301331065
2115_2032,1,1357552800000000,1,76,46,1,2115,53.32570116,-6.395200528
2039_6366,1,1357570800000000,1,46,140,1,2039,53.2948314,-6.134785099
798_4319,1,1357466400000000,1,46,747,1,798,53.35946765,-6.279641063
2672_3665,1,1357477200000000,1,76,747,1,2672,53.34333076,-6.367685142
2039_1070,1,1357542000000000,1,46,140,1,2039,53.2948314,-6.134785099
4341_4319,2,1357542000000000,1,76,747,1,4341,53.28564665,-6.372359628
4341_4319,2,1357470000000000,1,76,747,1,4341,53.28564665,-6.372359628
807_4319,1,1357552800000000,1,46,747,1,807,53.3515563,-6.297685373
792_4319,1,1357495200000000,1,46,747,1,792,53.3420867,-6.258098549
435_274,1,1357574400000000,1,46,140,1,435,53.29598904,-6.203746226
5016_2507,1,1357585200000000,1,46,747,1,5016,53.26142561,-6.219690864
801_2507,1,1357484400000000,1,46,747,1,801,53.3574613,-6.287624427
2112_3665,1,1357552800000000,1,76,747,1,2112,53.32066992,-6.39334788
274_2686,1,1357567200000000,1,140,76,1,274,53.35034843,-6.260675831
5016_2111,1,1357466400000000,1,46,76,1,5016,53.26142561,-6.219690864
274_3665,4,1357578000000000,1,140,747,1,274,53.35034843,-6.260675831
274_3665,4,1357473600000000,1,140,747,1,274,53.35034843,-6.260675831
274_3665,4,1357560000000000,1,46,747,1,274,53.35034843,-6.260675831
274_3665,4,1357470000000000,1,46,747,1,274,53.35034843,-6.260675831
2655_3665,1,1357560000000000,1,76,747,1,2655,53.34213795,-6.352832566
3665_274,4,1357477200000000,1,747,46,1,3665,53.42811351,-6.244123692
3665_274,4,1357480800000000,1,747,46,1,3665,53.42811351,-6.244123692
3665_274,4,1357506000000000,1,747,140,1,3665,53.42811351,-6.244123692
3665_274,4,1357560000000000,1,747,140,1,3665,53.42811351,-6.244123692
845_403,1,1357560000000000,1,46,140,1,845,53.33545323,-6.256236611
794_792,1,1357574400000000,1,46,140,1,794,53.34354738,-6.260261816
794_274,1,1357466400000000,1,46,140,1,794,53.34354738,-6.260261816
1359_2041,1,1357491600000000,1,747,46,1,1359,53.34439919,-6.26135358
2033_4319,1,1357502400000000,1,46,747,1,2033,53.29147801,-6.143376783
803_6059,1,1357563600000000,1,46,140,1,803,53.35471282,-6.2940292
5045_6366,1,1357545600000000,1,116,140,1,5045,53.28356775,-6.209156684
803_4319,1,1357491600000000,1,46,747,1,803,53.35471282,-6.2940292
403_4319,1,1357592400000000,1,140,747,1,403,53.34271329,-6.256691284
7_274,1,1357473600000000,1,140,46,1,7,53.35283171,-6.264555613
846_3665,2,1357578000000000,1,46,747,1,846,53.33345329,-6.254080895
846_3665,2,1357488000000000,1,46,747,1,846,53.33345329,-6.254080895
4319_792,1,1357466400000000,1,747,46,1,4319,53.34676557,-6.292018441
2045_6059,1,1357574400000000,1,46,140,1,2045,53.28907682,-6.145025933
2114_274,1,1357574400000000,1,76,140,1,2114,53.32430297,-6.395493193
6059_271,1,1357484400000000,1,46,747,1,6059,53.35020734,-6.260245957
7_4319,1,1357588800000000,1,140,747,1,7,53.35283171,-6.264555613
6059_274,1,1357567200000000,1,46,140,1,6059,53.35020734,-6.260245957
6059_3665,3,1357578000000000,1,46,747,1,6059,53.35020734,-6.260245957
6059_3665,3,1357588800000000,1,46,747,1,6059,53.35020734,-6.260245957
6059_3665,3,1357477200000000,1,46,747,1,6059,53.35020734,-6.260245957
4341_6032,1,1357556400000000,1,76,747,1,4341,53.28564665,-6.372359628
803_274,1,1357549200000000,1,46,140,1,803,53.35471282,-6.2940292
2045_403,1,1357574400000000,1,46,140,1,2045,53.28907682,-6.145025933
2_4528,1,1357545600000000,1,46,140,1,2,53.35224392,-6.263693193
3665_2655,1,1357498800000000,1,747,76,1,3665,53.42811351,-6.244123692
2697_6059,1,1357556400000000,1,76,46,1,2697,53.3422689,-6.353202977
790_274,1,1357509600000000,1,46,140,1,790,53.33910288,-6.257499335
2059_1511,1,1357578000000000,1,46,140,1,2059,53.27517374,-6.170745122
2059_274,1,1357488000000000,1,46,140,1,2059,53.27517374,-6.170745122
845_3665,2,1357477200000000,1,46,747,1,845,53.33545323,-6.256236611
845_3665,2,1357556400000000,1,46,747,1,845,53.33545323,-6.256236611
6276_801,1,1357578000000000,1,140,46,1,6276,53.40608507,-6.291913978
846_1071,1,1357585200000000,1,46,140,1,846,53.33345329,-6.254080895
4319_845,1,1357495200000000,1,747,46,1,4319,53.34676557,-6.292018441
2_3665,3,1357473600000000,1,46,747,1,2,53.35224392,-6.263693193
2_3665,3,1357480800000000,1,46,747,1,2,53.35224392,-6.263693193
2_3665,3,1357585200000000,1,46,747,1,2,53.35224392,-6.263693193
2041_2672,1,1357488000000000,1,46,76,1,2041,53.29362525,-6.13927818
3665_6059,2,1357477200000000,1,747,46,1,3665,53.42811351,-6.244123692
3665_6059,2,1357556400000000,1,747,46,1,3665,53.42811351,-6.244123692
6059_1359,2,1357488000000000,1,46,747,1,6059,53.35020734,-6.260245957
6059_1359,2,1357574400000000,1,46,747,1,6059,53.35020734,-6.260245957
274_4543,1,1357556400000000,1,46,140,1,274,53.35034843,-6.260675831
4319_4348,1,1357563600000000,1,747,76,1,4319,53.34676557,-6.292018441
786_6366,1,1357545600000000,1,46,140,1,786,53.33514628,-6.256144022
4341_3665,1,1357556400000000,1,76,747,1,4341,53.28564665,-6.372359628
801_3665,4,1357588800000000,1,46,747,1,801,53.3574613,-6.287624427
801_3665,4,1357556400000000,1,46,747,1,801,53.3574613,-6.287624427
801_3665,4,1357560000000000,1,46,747,1,801,53.3574613,-6.287624427
801_3665,4,1357585200000000,1,46,747,1,801,53.3574613,-6.287624427
2018_3665,1,1357592400000000,1,46,747,1,2018,53.27445741,-6.17209527
5016_4341,1,1357466400000000,1,46,76,1,5016,53.26142561,-6.219690864
792_3665,2,1357556400000000,1,46,747,1,792,53.3420867,-6.258098549
792_3665,2,1357560000000000,1,140,747,1,792,53.3420867,-6.258098549
2655_1070,1,1357574400000000,1,76,140,1,2655,53.34213795,-6.352832566
192_4319,1,1357567200000000,1,46,747,1,192,53.35644191,-6.268059634
453_7,1,1357488000000000,1,46,140,1,453,53.28858605,-6.207551797
