Route Id,Stop Id
46,-1
46,2
46,81
46,192
46,264
46,274
46,320
46,334
46,337
46,350
46,351
46,352
46,353
46,354
46,355
46,356
46,357
46,371
46,372
46,373
46,374
46,375
46,376
46,377
46,378
46,380
46,381
46,382
46,383
46,384
46,385
46,387
46,388
46,389
46,390
46,391
46,392
46,393
46,395
46,396
46,397
46,398
46,399
46,400
46,406
46,435
46,437
46,444
46,445
46,447
46,448
46,451
46,453
46,459
46,460
46,461
46,747
46,756
46,757
46,758
46,759
46,760
46,761
46,762
46,763
46,768
46,769
46,770
46,771
46,772
46,773
46,774
46,775
46,776
46,777
46,786
46,790
46,792
46,794
46,795
46,796
46,797
46,798
46,799
46,800
46,801
46,802
46,803
46,804
46,805
46,806
46,807
46,808
46,809
46,810
46,811
46,812
46,813
46,814
46,817
46,818
46,819
46,842
46,845
46,846
46,847
46,848
46,906
46,907
46,908
46,909
46,2007
46,2008
46,2009
46,2010
46,2011
46,2012
46,2013
46,2014
46,2015
46,2016
46,2017
46,2018
46,2019
46,2020
46,2021
46,2022
46,2031
46,2032
46,2033
46,2034
46,2035
46,2036
46,2039
46,2040
46,2041
46,2042
46,2043
46,2044
46,2045
46,2046
46,2056
46,2057
46,2058
46,2059
46,2060
46,2061
46,2062
46,2063
46,2064
46,2065
46,2066
46,2067
46,2068
46,2069
46,2070
46,2071
46,2072
46,2073
46,2074
46,2075
46,2076
46,2079
46,2080
46,2081
46,2082
46,2083
46,2084
46,2085
46,2086
46,2087
46,2088
46,2089
46,2795
46,2804
46,3034
46,3085
46,3114
46,3181
46,3187
46,3196
46,3321
46,3322
46,3345
46,3471
46,3472
46,3473
46,3485
46,3486
46,3487
46,3563
46,4353
46,4354
46,4355
46,4451
46,4455
46,4460
46,4477
46,4565
46,4566
46,4567
46,4568
46,4569
46,4570
46,4571
46,4636
46,4726
46,4727
46,4728
46,4779
46,4962
46,4984
46,5013
46,5014
46,5015
46,5016
46,5045
46,5142
46,5192
46,6059
46,7053
46,7057
46,7290
46,7291
46,7325
46,7326
46,7353
46,7415
46,7416
46,7417
46,7418
46,7525
46,7526
46,7527
46,7528
46,7529
76,-1
76,1813
76,1814
76,1840
76,1841
76,1842
76,2110
76,2111
76,2112
76,2114
76,2115
76,2116
76,2117
76,2118
76,2119
76,2120
76,2121
76,2123
76,2124
76,2125
76,2126
76,2127
76,2128
76,2129
76,2130
76,2158
76,2159
76,2173
76,2174
76,2199
76,2200
76,2201
76,2205
76,2206
76,2241
76,2242
76,2243
76,2345
76,2363
76,2364
76,2618
76,2619
76,2620
76,2655
76,2656
76,2668
76,2672
76,2673
76,2675
76,2685
76,2686
76,2687
76,2688
76,2689
76,2696
76,2697
76,2762
76,2763
76,2960
76,3425
76,4341
76,4347
76,4348
76,4401
76,4409
76,4414
76,4640
76,4646
76,4647
76,4747
76,4795
76,4798
76,4799
76,5006
76,5007
76,5008
76,5009
76,5011
76,7026
76,7374
76,7510
116,-1
116,281
116,320
116,435
116,444
116,445
116,447
116,449
116,450
116,451
116,453
116,461
116,756
116,757
116,758
116,759
116,760
116,761
116,762
116,763
116,768
116,769
116,770
116,771
116,772
116,773
116,774
116,775
116,776
116,777
116,786
116,790
116,792
116,794
116,848
116,906
116,907
116,908
116,909
116,2007
116,2008
116,2009
116,2010
116,2011
116,2012
116,2068
116,2069
116,2070
116,2084
116,2795
116,2829
116,2830
116,2831
116,2832
116,2837
116,2838
116,2839
116,2840
116,2845
116,2846
116,2847
116,2848
116,2849
116,2850
116,2851
116,2852
116,2853
116,2854
116,2855
116,2856
116,2857
116,2858
116,2859
116,2860
116,2861
116,2954
116,2955
116,2956
116,2965
116,2967
116,2968
116,2969
116,2970
116,2978
116,2979
116,2980
116,2981
116,3181
116,3184
116,3321
116,3322
116,3563
116,3564
116,4349
116,4397
116,4460
116,4477
116,4727
116,4728
116,4779
116,4987
116,4988
116,5045
116,5143
116,7057
116,7067
118,-1
118,334
118,461
118,768
118,769
118,770
118,771
118,772
118,773
118,774
118,775
118,776
118,777
118,786
118,790
118,792
118,794
118,906
118,907
118,908
118,909
118,2064
118,2065
118,2068
118,2069
118,2070
118,2084
118,3283
118,3284
118,3317
118,3318
118,3320
118,3481
118,3482
118,3483
118,3484
118,3485
118,3486
118,3487
118,4727
118,4728
118,7415
118,7416
140,-1
140,7
140,186
140,187
140,188
140,189
140,190
140,191
140,194
140,195
140,196
140,197
140,198
140,199
140,264
140,274
140,319
140,334
140,403
140,747
140,792
140,794
140,819
140,842
140,893
140,894
140,895
140,896
140,897
140,1014
140,1015
140,1016
140,1017
140,1018
140,1019
140,1020
140,1021
140,1022
140,1023
140,1024
140,1067
140,1068
140,1069
140,1070
140,1071
140,1072
140,1074
140,1076
140,1280
140,1506
140,1507
140,1508
140,1509
140,1510
140,1511
140,1512
140,1531
140,1532
140,1533
140,1534
140,1535
140,1536
140,1537
140,1538
140,1558
140,1560
140,4528
140,4542
140,4543
140,4985
140,5034
140,6042
140,6059
140,6074
140,6219
140,6228
140,6229
140,6230
140,6276
140,6361
140,6362
140,6363
140,6364
140,6365
140,6366
140,6367
140,7111
140,7149
140,7276
140,7277
747,-1
747,271
747,620
747,1172
747,1359
747,1445
747,1935
747,2002
747,2499
747,2507
747,3665
747,3669
747,4319
747,4508
747,4717
747,4724
747,5140
747,6032
747,7216
747,7397
747,7398
747,7399
747,7400
747,7401
747,7402
747,7404
747,7405
747,7406
747,7407
747,7408
747,7409
747,7410
747,7411
747,7453
747,7456
747,7465
747,7466
747,7468
747,7489
747,7490
747,7491
747,7492
