2016-04-16 03:52:02
There are no cordinates for bus stop with id -1 in route 1

2016-04-16 03:52:02
There are no cordinates for bus stop with id 7525 in route 1

2016-04-16 03:52:02
There are no cordinates for bus stop with id 7526 in route 1

2016-04-16 03:52:02
There are no cordinates for bus stop with id 7527 in route 1

2016-04-16 03:52:02
There are no cordinates for bus stop with id 7528 in route 1

2016-04-16 03:52:02
There are no cordinates for bus stop with id 7529 in route 1

2016-04-16 03:52:02
There are no cordinates for bus stop with id -1 in route 4

2016-04-16 03:52:02
There are no cordinates for bus stop with id 7457 in route 4

2016-04-16 03:52:02
There are no cordinates for bus stop with id 7480 in route 4

2016-04-16 03:52:02
There are no cordinates for bus stop with id 7482 in route 4

2016-04-16 03:52:02
There are no cordinates for bus stop with id -1 in route 7

2016-04-16 03:52:02
There are no cordinates for bus stop with id -1 in route 9

2016-04-16 03:52:02
There are no cordinates for bus stop with id -1 in route 11

2016-04-16 03:52:02
There are no cordinates for bus stop with id 7220 in route 11

2016-04-16 03:52:02
There are no cordinates for bus stop with id -1 in route 13

2016-04-16 03:52:02
There are no cordinates for bus stop with id 7480 in route 13

2016-04-16 03:52:02
There are no cordinates for bus stop with id 7482 in route 13

2016-04-16 03:52:02
There are no cordinates for bus stop with id -1 in route 14

2016-04-16 03:52:02
There are no cordinates for bus stop with id -1 in route 15

2016-04-16 03:52:02
There are no cordinates for bus stop with id 7236 in route 15

